tau,n_clusters,n_int_boxes,lower_bound,high_bound,bound_diff
1.0,1,0,1.0,1.0,0.0
0.9,1,0,1.0,1.0,0.0
0.8,1,0,1.0,1.0,0.0
0.7,1,0,1.0,1.0,0.0
0.6,1,0,1.0,1.0,0.0
0.5,1,0,1.0,1.0,0.0
0.4,1,0,1.0,1.0,0.0
0.3,1,0,1.0,1.0,0.0
0.2,1,0,1.0,1.0,0.0
0.1,2,1,0.0024227704289185035,0.0024227704291177013,1.9919775636580543e-13
0.05,3,3,2.2584957973612515e-06,2.2584958046430294e-06,7.28177774227417e-15
0.01,14,88,2.310933903011043e-28,2.310933908445779e-28,5.434735753292859e-37
