tau,n_clusters,n_int_boxes,lower_bound,high_bound,bound_diff
1.0,1,0,1.0,1.0,0.0
0.9,1,0,1.0,1.0,0.0
0.8,1,0,1.0,1.0,0.0
0.7,1,0,1.0,1.0,0.0
0.6,1,0,1.0,1.0,0.0
0.5,1,0,1.0,1.0,0.0
0.4,1,0,1.0,1.0,0.0
0.3,1,0,1.0,1.0,0.0
0.2,1,0,1.0,1.0,0.0
0.1,1,0,1.0,1.0,0.0
0.05,2,1,0.04797569165288517,0.04797569166070208,7.816908413263974e-12
0.01,12,66,2.8525202764731514e-13,2.85252119885981e-13,9.223866583081301e-20
