tau,n_clusters,n_int_boxes,lower_bound,high_bound,bound_diff
1.0,1,0,1.0,1.0,0.0
0.9,1,0,1.0,1.0,0.0
0.8,1,0,1.0,1.0,0.0
0.7,1,0,1.0,1.0,0.0
0.6,1,0,1.0,1.0,0.0
0.5,2,1,0.00321460521439927,0.00321460521439927,1.0399871338664148e-35
0.4,2,1,0.00321460521439927,0.00321460521439927,1.0399871338664148e-35
0.3,2,1,0.00321460521439927,0.00321460521439927,1.0399871338664148e-35
0.2,3,2,0.0011204053659166857,0.0011204053659166857,5.700749021201935e-35
0.1,4,4,0.0006515371279649042,0.0006515371279649042,7.5016672492155325e-34
0.05,8,16,7.854273465424395e-09,7.854273465424395e-09,1.2835429456553414e-27
0.01,29,148,2.7096031049203224e-20,2.7096031049654746e-20,4.515220943904704e-31
