tau,n_clusters,n_int_boxes,lower_bound,high_bound,bound_diff
1.0,1,0,1.0,1.0,0.0
0.9,1,0,1.0,1.0,0.0
0.8,1,0,1.0,1.0,0.0
0.7,1,0,1.0,1.0,0.0
0.6,1,0,1.0,1.0,0.0
0.5,1,0,1.0,1.0,0.0
0.4,2,1,0.0001174044254277437,0.00011740442542834364,5.999433411427574e-16
0.3,2,1,0.0001174044254277437,0.00011740442542834364,5.999433411427574e-16
0.2,3,1,5.507438638706528e-10,5.507438815764734e-10,1.7705820572699384e-17
0.1,5,2,7.260461353660158e-18,7.260461353660169e-18,1.0257405816403975e-32
0.05,8,4,4.9498438221405344e-23,4.949843822141371e-23,8.363824738567438e-36
0.01,54,1,2.7365171852944817e-42,2.7365171858736056e-42,5.79124019299221e-52
