1.0,0.9,0.8,0.7,0.6,0.5,0.4,0.3,0.2,0.1,0.05,0.01
0,0,0,0,0,0,0,0,0,0,3,15
0,0,0,0,0,0,0,1,2,2,2,47
0,0,0,0,0,0,0,0,0,0,3,75
0,0,0,0,0,0,0,0,0,0,3,67
0,0,0,0,0,0,0,1,1,1,0,49
0,0,0,0,0,0,0,0,0,0,3,29
0,0,0,0,0,0,0,0,0,3,1,62
0,0,0,0,0,0,0,1,1,4,5,22
0,0,0,0,0,0,0,1,1,1,6,28
0,0,0,0,0,0,0,1,1,1,6,21
0,0,0,0,0,0,0,1,2,2,8,24
0,0,0,0,0,0,0,1,2,2,2,19
0,0,0,0,0,0,0,0,0,0,3,31
0,0,0,0,0,0,0,1,1,4,5,8
0,0,0,0,0,0,0,1,1,1,4,41
0,0,0,0,0,0,0,1,1,1,6,33
0,0,0,0,0,0,0,1,1,1,6,68
0,0,0,0,0,0,0,1,2,2,10,16
0,0,0,0,0,0,0,0,0,3,1,26
0,0,0,0,0,0,0,1,2,2,8,57
0,0,0,0,0,0,0,1,2,2,2,3
0,0,0,0,0,0,0,1,2,2,2,64
0,0,0,0,0,0,0,0,0,0,7,70
0,0,0,0,0,0,0,1,2,2,8,11
0,0,0,0,0,0,0,1,2,2,10,37
0,0,0,0,0,0,0,1,2,2,2,27
0,0,0,0,0,0,0,0,0,0,7,32
0,0,0,0,0,0,0,1,0,3,1,38
0,0,0,0,0,0,0,0,0,0,3,63
0,0,0,0,0,0,0,0,0,0,7,86
0,0,0,0,0,0,0,0,0,3,1,74
0,0,0,0,0,0,0,1,1,1,4,35
0,0,0,0,0,0,0,0,0,0,3,82
0,0,0,0,0,0,0,0,0,0,3,65
0,0,0,0,0,0,0,1,2,2,8,45
0,0,0,0,0,0,0,1,2,2,2,88
0,0,0,0,0,0,0,0,0,3,1,1
0,0,0,0,0,0,0,0,0,3,1,36
0,0,0,0,0,0,0,1,1,4,9,9
0,0,0,0,0,0,0,0,0,3,1,5
0,0,0,0,0,0,0,0,0,3,1,81
0,0,0,0,0,0,0,1,1,4,9,23
0,0,0,0,0,0,0,0,0,3,1,66
0,0,0,0,0,0,0,0,0,0,3,84
0,0,0,0,0,0,0,0,0,0,3,76
0,0,0,0,0,0,0,0,0,3,1,51
0,0,0,0,0,0,0,1,1,1,6,7
0,0,0,0,0,0,0,1,2,2,10,17
0,0,0,0,0,0,0,0,0,3,1,14
0,0,0,0,0,0,0,1,1,1,0,79
0,0,0,0,0,0,0,0,0,0,7,0
0,0,0,0,0,0,0,0,0,3,1,44
0,0,0,0,0,0,0,0,0,0,3,58
0,0,0,0,0,0,0,0,0,3,1,73
0,0,0,0,0,0,0,0,0,0,3,87
0,0,0,0,0,0,0,0,0,3,3,61
0,0,0,0,0,0,0,1,2,2,10,48
0,0,0,0,0,0,0,0,0,0,7,69
0,0,0,0,0,0,0,1,1,1,6,60
0,0,0,0,0,0,0,1,1,1,0,56
0,0,0,0,0,0,0,0,0,0,7,18
0,0,0,0,0,0,0,0,0,0,3,85
0,0,0,0,0,0,0,0,0,3,1,42
0,0,0,0,0,0,0,0,0,0,3,39
0,0,0,0,0,0,0,1,2,2,10,50
0,0,0,0,0,0,0,0,0,0,3,4
0,0,0,0,0,0,0,0,0,3,1,59
0,0,0,0,0,0,0,0,0,0,3,54
0,0,0,0,0,0,0,0,0,3,1,12
0,0,0,0,0,0,0,1,1,1,0,13
0,0,0,0,0,0,0,0,0,0,3,83
0,0,0,0,0,0,0,0,0,0,3,40
0,0,0,0,0,0,0,1,2,2,2,46
0,0,0,0,0,0,0,1,2,2,10,52
0,0,0,0,0,0,0,1,1,1,4,2
0,0,0,0,0,0,0,1,2,2,2,34
0,0,0,0,0,0,0,1,1,1,6,71
0,0,0,0,0,0,0,1,2,2,8,20
0,0,0,0,0,0,0,0,0,0,7,55
0,0,0,0,0,0,0,1,1,1,0,30
0,0,0,0,0,0,0,0,0,0,7,80
0,0,0,0,0,0,0,1,2,2,2,6
0,0,0,0,0,0,0,1,0,3,1,72
0,0,0,0,0,0,0,0,0,0,3,77
0,0,0,0,0,0,0,0,0,3,1,43
0,0,0,0,0,0,0,1,1,1,4,25
0,0,0,0,0,0,0,0,0,0,3,53
0,0,0,0,0,0,0,0,0,3,1,89
0,0,0,0,0,0,0,0,0,0,3,78
0,0,0,0,0,0,0,0,0,0,3,10
