tau,n_clusters,n_int_boxes,lower_bound,high_bound,bound_diff
1.0,1,0,1.0,1.0,0.0
0.9,1,0,1.0,1.0,0.0
0.8,1,0,1.0,1.0,0.0
0.7,1,0,1.0,1.0,0.0
0.6,1,0,1.0,1.0,0.0
0.5,1,0,1.0,1.0,0.0
0.4,1,0,1.0,1.0,0.0
0.3,5,10,0.04847774282889421,0.04895133679405648,0.00047359396516227255
0.2,6,15,0.02253355397406487,0.022804145035699053,0.00027059106163418114
0.1,11,19,0.0021957098941450585,0.00240784242945178,0.00021213253530672174
0.05,16,27,0.000545550163512319,0.0005564571601561722,1.0906996643853108e-05
0.01,33,39,2.7131203948971096e-05,2.7142593066448096e-05,1.1389117477001263e-08
