tau,n_clusters,n_int_boxes,lower_bound,high_bound,bound_diff
1.0,1,0,1.0,1.0,0.0
0.9,1,0,1.0,1.0,0.0
0.8,1,0,1.0,1.0,0.0
0.7,1,0,1.0,1.0,0.0
0.6,1,0,1.0,1.0,0.0
0.5,1,0,1.0,1.0,0.0
0.4,1,0,1.0,1.0,0.0
0.3,4,6,0.12204018730109223,0.12245587790659462,0.00041569060550239673
0.2,7,14,0.003605134604166849,0.003712708252082079,0.00010757364791523039
0.1,12,19,0.0024248780077054536,0.0027050058571069812,0.00028012784940152744
0.05,17,30,0.0010469852374784636,0.0011183337556239727,7.13485181455091e-05
0.01,60,41,1.2721384961137779e-06,1.2721740415656057e-06,3.554545182774193e-11
