tau,n_clusters,n_int_boxes,lower_bound,high_bound,bound_diff
1.0,1,0,1.0,1.0,0.0
0.9,1,0,1.0,1.0,0.0
0.8,1,0,1.0,1.0,0.0
0.7,1,0,1.0,1.0,0.0
0.6,1,0,1.0,1.0,0.0
0.5,2,1,0.2881131234042023,0.28811607565681585,2.9522526135232864e-06
0.4,2,1,0.2881131234042023,0.28811607565681585,2.9522526135232864e-06
0.3,3,3,0.07789895137510916,0.07790184857460322,2.897199494064075e-06
0.2,5,7,0.0008520630536807465,0.0008522609881848385,1.9793450409197585e-07
0.1,9,10,8.534065880779064e-05,8.554194078425448e-05,2.0128197646385132e-07
0.05,12,15,0.0014249506995599474,0.001425062476848181,1.1177728823354438e-07
0.01,55,20,5.2535329800669185e-12,5.254219869672499e-12,6.86889605580722e-16
