1.0,0.9,0.8,0.7,0.6,0.5,0.4,0.3,0.2,0.1,0.05,0.01
0,0,0,0,0,0,0,0,0,5,1,36
0,0,0,0,0,0,0,0,0,5,1,0
0,0,0,0,0,0,0,0,0,5,1,0
0,0,0,0,0,0,0,0,0,5,7,36
0,0,0,0,0,0,0,0,0,5,1,0
0,0,0,0,0,0,0,0,0,5,1,0
0,0,0,0,0,0,0,0,0,5,1,0
0,0,0,0,0,1,1,1,2,7,3,6
0,0,0,0,0,0,0,0,0,5,1,0
0,0,0,0,0,0,0,0,0,5,1,0
0,0,0,0,0,0,0,0,0,5,7,14
0,0,0,0,0,0,0,0,0,5,1,0
0,0,0,0,0,0,0,0,0,5,1,0
0,0,0,0,0,0,0,0,0,0,17,34
0,0,0,0,0,1,1,1,2,7,12,24
0,0,0,0,0,0,0,0,0,5,1,0
0,0,0,0,0,0,0,0,0,5,1,0
0,0,0,0,0,0,0,0,0,5,1,0
0,0,0,0,0,0,0,0,0,5,1,0
0,0,0,0,0,1,1,1,2,7,3,6
0,0,0,0,0,0,0,0,0,5,1,0
0,0,0,0,0,0,0,0,0,5,1,0
0,0,0,0,0,0,0,0,0,5,7,20
0,0,0,0,0,0,0,0,0,5,7,14
0,0,0,0,0,0,0,0,0,5,1,0
0,0,0,0,0,0,0,0,0,5,1,0
0,0,0,0,0,0,0,0,0,5,1,0
0,0,0,0,0,0,0,0,0,5,1,0
0,0,0,0,0,0,0,0,0,5,1,0
0,0,0,0,0,0,0,0,0,5,1,0
0,0,0,0,0,0,0,0,0,5,1,0
0,0,0,0,0,0,0,0,0,5,1,0
0,0,0,0,0,1,1,1,2,7,3,6
0,0,0,0,0,0,0,0,0,5,1,0
0,0,0,0,0,0,0,0,0,5,1,0
0,0,0,0,0,0,0,0,0,5,1,0
0,0,0,0,0,0,0,0,0,5,1,0
0,0,0,0,0,0,0,0,0,5,1,0
0,0,0,0,0,0,0,0,0,5,1,0
0,0,0,0,0,0,0,0,0,5,1,0
0,0,0,0,0,0,0,0,0,0,9,8
0,0,0,0,0,0,0,0,0,5,1,0
0,0,0,0,0,0,0,0,0,5,1,0
0,0,0,0,0,0,0,0,0,5,1,36
0,0,0,0,0,0,0,0,0,5,1,0
0,0,0,0,0,0,0,0,0,5,1,0
0,0,0,0,0,0,0,0,0,5,7,36
0,0,0,0,0,0,0,0,0,5,1,0
0,0,0,0,0,0,0,0,0,5,1,0
0,0,0,0,0,0,0,0,0,5,1,0
0,0,0,0,0,0,0,0,0,5,1,0
0,0,0,0,0,0,0,0,0,5,1,0
0,0,0,0,0,0,0,0,0,5,1,0
0,0,0,0,0,0,0,0,0,5,1,0
0,0,0,0,0,0,0,0,0,5,1,0
0,0,0,0,0,0,0,0,0,5,1,0
0,0,0,0,0,0,0,0,0,5,1,36
0,0,0,0,0,0,0,0,0,5,1,0
0,0,0,0,0,0,0,0,0,5,1,0
0,0,0,0,0,1,1,1,3,1,8,9
0,0,0,0,0,0,0,0,0,5,1,0
0,0,0,0,0,1,1,1,2,6,4,5
0,0,0,0,0,0,0,0,0,5,1,0
0,0,0,0,0,0,0,0,0,5,1,0
0,0,0,0,0,0,0,0,0,5,1,0
0,0,0,0,0,0,0,0,0,0,7,20
0,0,0,0,0,0,0,0,0,5,1,0
0,0,0,0,0,0,0,0,0,5,1,0
0,0,0,0,0,0,0,0,0,5,1,0
0,0,0,0,0,0,0,0,0,5,1,0
0,0,0,0,0,0,0,0,0,5,1,36
0,0,0,0,0,1,1,1,2,3,10,12
0,0,0,0,0,0,0,0,0,5,1,0
0,0,0,0,0,0,0,0,0,5,1,0
0,0,0,0,0,0,0,0,0,5,1,0
0,0,0,0,0,0,0,0,0,5,1,0
0,0,0,0,0,0,0,0,0,5,1,0
0,0,0,0,0,0,0,0,0,5,1,0
0,0,0,0,0,0,0,0,0,0,17,34
0,0,0,0,0,0,0,0,0,5,1,0
0,0,0,0,0,0,0,0,0,0,9,8
0,0,0,0,0,1,1,1,3,1,8,9
0,0,0,0,0,0,0,0,0,5,1,0
0,0,0,0,0,0,0,0,0,5,1,0
0,0,0,0,0,0,0,0,0,5,1,0
0,0,0,0,0,0,0,0,0,5,1,0
0,0,0,0,0,0,0,0,0,5,1,0
0,0,0,0,0,1,1,1,2,4,11,11
0,0,0,0,0,0,0,0,0,0,7,14
0,0,0,0,0,0,0,0,0,5,1,36
0,0,0,0,0,0,0,0,0,5,1,0
0,0,0,0,0,0,0,0,2,7,12,24
0,0,0,0,0,0,0,0,0,5,1,0
0,0,0,0,0,0,0,0,0,5,1,0
0,0,0,0,0,0,0,0,0,5,1,0
0,0,0,0,0,0,0,0,0,5,1,0
0,0,0,0,0,0,0,0,0,5,1,0
0,0,0,0,0,0,0,0,0,5,7,36
0,0,0,0,0,1,1,1,1,2,5,13
0,0,0,0,0,0,0,0,2,4,11,11
0,0,0,0,0,0,0,0,0,5,1,0
0,0,0,0,0,0,0,0,0,5,1,0
0,0,0,0,0,0,0,0,0,5,1,0
0,0,0,0,0,0,0,0,0,5,1,0
0,0,0,0,0,0,0,0,0,5,1,0
0,0,0,0,0,0,0,0,0,5,1,0
0,0,0,0,0,0,0,0,0,5,1,0
0,0,0,0,0,0,0,0,0,5,1,0
0,0,0,0,0,0,0,0,0,0,7,8
0,0,0,0,0,0,0,0,0,5,1,0
0,0,0,0,0,0,0,0,0,5,1,0
0,0,0,0,0,0,0,0,0,5,1,0
0,0,0,0,0,0,0,0,0,5,1,0
0,0,0,0,0,0,0,0,0,5,1,0
0,0,0,0,0,0,0,0,0,5,1,36
0,0,0,0,0,0,0,0,0,0,17,34
0,0,0,0,0,0,0,0,0,5,1,0
0,0,0,0,0,0,0,0,0,0,7,14
0,0,0,0,0,1,1,1,2,3,10,27
0,0,0,0,0,1,1,1,1,0,5,4
0,0,0,0,0,0,0,0,0,5,1,0
0,0,0,0,0,0,0,0,0,5,1,0
0,0,0,0,0,0,0,0,0,5,1,0
0,0,0,0,0,0,0,0,0,5,1,0
0,0,0,0,0,1,1,1,1,2,5,4
0,0,0,0,0,0,0,0,0,5,1,0
0,0,0,0,0,0,0,0,0,5,1,0
0,0,0,0,0,0,0,0,0,5,7,36
0,0,0,0,0,0,0,0,0,5,1,0
0,0,0,0,0,0,0,0,0,5,1,0
0,0,0,0,0,0,0,0,0,5,1,0
0,0,0,0,0,0,0,0,0,5,1,0
0,0,0,0,0,0,0,0,0,0,17,34
0,0,0,0,0,0,0,0,0,5,1,0
0,0,0,0,0,1,1,1,2,0,9,19
0,0,0,0,0,0,0,0,0,5,1,0
0,0,0,0,0,0,0,0,0,0,7,35
0,0,0,0,0,0,0,0,0,0,17,4
0,0,0,0,0,1,1,1,2,3,10,12
0,0,0,0,0,0,0,0,0,5,1,0
0,0,0,0,0,1,1,1,1,2,5,13
0,0,0,0,0,0,0,0,0,5,1,0
0,0,0,0,0,0,0,0,0,5,1,0
0,0,0,0,0,1,1,1,2,4,6,7
0,0,0,0,0,0,0,0,0,5,1,0
0,0,0,0,0,0,0,0,0,5,1,0
0,0,0,0,0,1,1,1,2,0,9,8
0,0,0,0,0,0,0,0,0,5,7,36
0,0,0,0,0,1,1,1,1,0,17,4
0,0,0,0,0,1,1,1,2,7,12,24
0,0,0,0,0,0,0,0,0,5,1,36
0,0,0,0,0,0,0,0,0,5,1,0
0,0,0,0,0,0,0,0,0,5,1,0
0,0,0,0,0,0,0,0,0,5,1,0
0,0,0,0,0,0,0,0,0,5,1,0
0,0,0,0,0,1,1,1,1,2,5,13
0,0,0,0,0,0,0,0,0,5,1,0
0,0,0,0,0,0,0,0,0,5,1,0
0,0,0,0,0,0,0,0,0,5,7,36
0,0,0,0,0,0,0,0,0,0,17,34
0,0,0,0,0,0,0,0,0,5,1,0
0,0,0,0,0,0,0,0,0,5,1,0
0,0,0,0,0,0,0,0,0,5,1,0
0,0,0,0,0,0,0,0,0,5,1,0
0,0,0,0,0,1,1,1,3,1,0,26
0,0,0,0,0,0,0,0,0,5,1,0
0,0,0,0,0,0,0,0,0,5,1,0
0,0,0,0,0,0,0,0,0,5,1,0
0,0,0,0,0,0,0,0,0,5,1,0
0,0,0,0,0,0,0,0,0,5,1,0
0,0,0,0,0,0,0,0,0,0,16,25
0,0,0,0,0,1,1,1,1,2,2,21
0,0,0,0,0,0,0,0,0,5,1,0
0,0,0,0,0,0,0,0,0,5,1,0
0,0,0,0,0,0,0,0,0,5,1,0
0,0,0,0,0,0,0,0,0,5,1,0
0,0,0,0,0,0,0,0,0,5,7,36
0,0,0,0,0,0,0,0,0,5,1,0
0,0,0,0,0,0,0,0,0,0,7,35
0,0,0,0,0,0,0,0,0,5,1,0
0,0,0,0,0,0,0,0,0,5,1,36
0,0,0,0,0,0,0,0,0,5,1,0
0,0,0,0,0,0,0,0,0,5,1,0
0,0,0,0,0,0,0,0,0,5,1,0
0,0,0,0,0,0,0,0,0,5,7,20
0,0,0,0,0,0,0,0,2,0,9,23
0,0,0,0,0,0,0,0,0,5,1,0
0,0,0,0,0,0,0,0,0,5,7,36
0,0,0,0,0,1,1,1,2,7,3,31
0,0,0,0,0,0,0,0,0,5,1,0
0,0,0,0,0,0,0,0,0,0,7,14
0,0,0,0,0,1,1,1,1,2,2,16
0,0,0,0,0,0,0,0,0,5,1,0
0,0,0,0,0,1,1,1,2,6,4,5
0,0,0,0,0,0,0,0,0,5,1,0
0,0,0,0,0,0,0,0,0,5,1,0
0,0,0,0,0,1,1,1,1,2,5,13
0,0,0,0,0,0,0,0,0,5,1,0
0,0,0,0,0,0,0,0,0,5,1,36
0,0,0,0,0,0,0,0,0,0,7,14
0,0,0,0,0,0,0,0,0,5,1,0
0,0,0,0,0,0,0,0,0,0,7,29
0,0,0,0,0,0,0,0,0,5,7,14
0,0,0,0,0,0,0,0,0,5,1,0
0,0,0,0,0,1,1,1,2,3,15,17
0,0,0,0,0,0,0,0,0,5,1,0
0,0,0,0,0,0,0,0,0,0,12,14
0,0,0,0,0,0,0,0,0,5,1,0
0,0,0,0,0,1,1,1,3,1,0,22
0,0,0,0,0,0,0,0,0,0,7,14
0,0,0,0,0,0,0,0,0,5,1,0
0,0,0,0,0,0,0,0,0,5,1,0
0,0,0,0,0,1,1,1,2,4,6,7
0,0,0,0,0,0,0,0,0,5,1,0
0,0,0,0,0,0,0,0,0,5,1,36
0,0,0,0,0,0,0,0,0,5,1,0
0,0,0,0,0,0,0,0,0,5,1,0
0,0,0,0,0,0,0,0,0,5,1,36
0,0,0,0,0,0,0,0,0,5,1,0
0,0,0,0,0,0,0,0,0,5,1,0
0,0,0,0,0,0,0,0,0,0,7,14
0,0,0,0,0,0,0,0,0,5,1,0
0,0,0,0,0,0,0,0,0,5,1,0
0,0,0,0,0,0,0,0,0,0,17,34
0,0,0,0,0,0,0,0,0,5,1,0
0,0,0,0,0,0,0,0,0,0,9,8
0,0,0,0,0,0,0,0,0,5,1,0
0,0,0,0,0,0,0,0,0,5,1,0
0,0,0,0,0,0,0,0,0,0,7,29
0,0,0,0,0,0,0,0,0,5,1,36
0,0,0,0,0,0,0,0,0,5,1,0
0,0,0,0,0,0,0,0,0,5,7,36
0,0,0,0,0,0,0,0,0,5,1,0
0,0,0,0,0,1,1,1,0,0,17,4
0,0,0,0,0,0,0,0,0,5,1,0
0,0,0,0,0,0,0,0,0,5,1,36
0,0,0,0,0,0,0,0,0,5,7,20
0,0,0,0,0,0,0,0,0,5,1,36
0,0,0,0,0,0,0,0,0,0,9,8
0,0,0,0,0,0,0,0,0,5,1,0
0,0,0,0,0,0,0,0,0,5,1,0
0,0,0,0,0,0,0,0,0,5,1,0
0,0,0,0,0,0,0,0,0,5,1,36
0,0,0,0,0,1,1,1,3,1,0,22
0,0,0,0,0,1,1,1,1,2,5,13
0,0,0,0,0,0,0,0,0,5,1,0
0,0,0,0,0,1,1,1,3,1,8,9
0,0,0,0,0,1,1,1,2,7,3,6
0,0,0,0,0,0,0,0,0,5,1,0
0,0,0,0,0,0,0,0,0,5,1,0
0,0,0,0,0,0,0,0,0,5,1,0
0,0,0,0,0,0,0,0,0,5,1,0
0,0,0,0,0,1,1,1,1,2,5,37
0,0,0,0,0,0,0,0,0,5,1,0
0,0,0,0,0,0,0,0,0,5,1,0
0,0,0,0,0,0,0,0,0,5,1,0
0,0,0,0,0,0,0,0,0,5,1,0
0,0,0,0,0,0,0,0,0,5,1,0
0,0,0,0,0,0,0,0,0,5,1,0
0,0,0,0,0,1,1,1,1,2,5,13
0,0,0,0,0,0,0,0,0,5,1,0
0,0,0,0,0,0,0,0,0,5,1,0
0,0,0,0,0,1,1,1,2,7,3,6
0,0,0,0,0,0,0,0,2,7,12,24
0,0,0,0,0,0,0,0,0,0,7,20
0,0,0,0,0,0,0,0,0,5,1,0
0,0,0,0,0,0,0,0,0,5,1,0
0,0,0,0,0,0,0,0,0,0,17,34
0,0,0,0,0,0,0,0,0,5,1,0
0,0,0,0,0,0,0,0,0,5,1,0
0,0,0,0,0,0,0,0,0,5,1,0
0,0,0,0,0,0,0,0,0,0,7,20
0,0,0,0,0,0,0,0,0,5,1,0
0,0,0,0,0,0,0,0,0,5,1,0
0,0,0,0,0,0,0,0,0,5,1,0
0,0,0,0,0,1,1,1,2,3,10,12
0,0,0,0,0,0,0,0,0,5,1,0
0,0,0,0,0,1,1,1,2,3,10,27
0,0,0,0,0,0,0,0,0,5,1,0
0,0,0,0,0,0,0,0,0,5,7,36
0,0,0,0,0,0,0,0,0,5,1,0
0,0,0,0,0,0,0,0,2,7,12,24
0,0,0,0,0,1,1,1,2,3,10,12
0,0,0,0,0,0,0,0,0,5,1,0
0,0,0,0,0,1,1,1,1,2,2,1
0,0,0,0,0,1,1,1,2,7,3,6
0,0,0,0,0,0,0,0,0,5,1,0
0,0,0,0,0,0,0,0,0,0,7,14
0,0,0,0,0,1,1,1,1,2,2,16
0,0,0,0,0,0,0,0,0,5,1,0
0,0,0,0,0,1,1,1,1,2,2,1
0,0,0,0,0,0,0,0,0,0,12,14
0,0,0,0,0,1,1,1,2,0,16,25
0,0,0,0,0,0,0,0,0,5,1,0
0,0,0,0,0,0,0,0,0,5,7,36
0,0,0,0,0,1,1,1,1,2,5,33
0,0,0,0,0,0,0,0,0,0,7,20
0,0,0,0,0,0,0,0,0,5,1,0
0,0,0,0,0,0,0,0,0,5,1,0
0,0,0,0,0,0,0,0,0,5,1,0
0,0,0,0,0,1,1,1,2,4,11,11
0,0,0,0,0,1,1,1,3,1,0,26
0,0,0,0,0,1,1,1,1,2,2,16
0,0,0,0,0,0,0,0,0,5,1,0
0,0,0,0,0,1,1,1,2,6,4,5
0,0,0,0,0,0,0,0,0,5,1,0
0,0,0,0,0,1,1,1,3,1,0,22
0,0,0,0,0,1,1,1,1,2,2,16
0,0,0,0,0,0,0,0,0,5,1,0
0,0,0,0,0,0,0,0,0,0,9,23
0,0,0,0,0,0,0,0,0,5,1,0
0,0,0,0,0,0,0,0,0,5,1,0
0,0,0,0,0,0,0,0,0,5,1,0
0,0,0,0,0,0,0,0,0,5,1,0
0,0,0,0,0,0,0,0,0,5,1,0
0,0,0,0,0,0,0,0,0,0,9,8
0,0,0,0,0,1,1,1,2,7,3,6
0,0,0,0,0,1,1,1,3,1,8,9
0,0,0,0,0,1,1,1,1,2,5,13
0,0,0,0,0,0,0,0,0,5,1,0
0,0,0,0,0,0,0,0,0,5,7,29
0,0,0,0,0,1,1,1,1,2,2,1
0,0,0,0,0,0,0,0,0,5,1,0
0,0,0,0,0,1,1,1,1,0,17,4
0,0,0,0,0,0,0,0,0,5,1,0
0,0,0,0,0,0,0,0,0,5,1,0
0,0,0,0,0,1,1,1,3,0,0,26
0,0,0,0,0,1,1,1,1,2,2,16
0,0,0,0,0,0,0,0,0,5,1,0
0,0,0,0,0,0,0,0,0,5,1,0
0,0,0,0,0,1,1,1,1,2,2,16
0,0,0,0,0,0,0,0,0,5,1,0
0,0,0,0,0,0,0,0,0,5,1,0
0,0,0,0,0,0,0,0,0,5,1,0
0,0,0,0,0,0,0,0,0,5,1,36
0,0,0,0,0,0,0,0,0,5,1,0
0,0,0,0,0,0,0,0,0,5,7,20
0,0,0,0,0,0,0,0,0,5,1,0
0,0,0,0,0,0,0,0,0,5,1,36
0,0,0,0,0,0,0,0,0,5,1,0
0,0,0,0,0,0,0,0,0,5,1,0
0,0,0,0,0,0,0,0,0,5,1,0
0,0,0,0,0,1,1,1,2,4,11,11
0,0,0,0,0,0,0,0,0,5,1,0
0,0,0,0,0,0,0,0,0,5,1,0
0,0,0,0,0,0,0,0,0,5,1,0
0,0,0,0,0,0,0,0,0,5,1,0
0,0,0,0,0,0,0,0,0,5,1,0
0,0,0,0,0,0,0,0,0,0,17,34
0,0,0,0,0,0,0,0,0,5,1,0
0,0,0,0,0,0,0,0,0,5,1,0
0,0,0,0,0,0,0,0,0,5,1,0
0,0,0,0,0,0,0,0,0,5,1,0
0,0,0,0,0,1,1,1,3,1,0,22
0,0,0,0,0,0,0,0,0,5,1,0
0,0,0,0,0,1,1,1,3,1,8,9
0,0,0,0,0,0,0,0,0,5,1,0
0,0,0,0,0,1,1,1,3,1,14,15
0,0,0,0,0,0,0,0,0,5,1,0
0,0,0,0,0,0,0,0,0,5,1,0
0,0,0,0,0,0,0,0,0,5,1,0
0,0,0,0,0,0,0,0,0,5,1,0
0,0,0,0,0,0,0,0,0,5,1,0
0,0,0,0,0,0,0,0,0,0,17,34
0,0,0,0,0,0,0,0,0,0,7,20
0,0,0,0,0,0,0,0,0,5,1,0
0,0,0,0,0,0,0,0,0,5,1,0
0,0,0,0,0,1,1,1,2,8,13,10
0,0,0,0,0,0,0,0,0,5,1,0
0,0,0,0,0,1,1,1,2,7,5,31
0,0,0,0,0,0,0,0,0,0,17,34
0,0,0,0,0,0,0,0,0,5,1,36
0,0,0,0,0,0,0,0,0,0,17,34
0,0,0,0,0,0,0,0,0,5,1,0
0,0,0,0,0,0,0,0,0,5,1,0
0,0,0,0,0,0,0,0,0,5,1,0
0,0,0,0,0,0,0,0,0,5,1,0
0,0,0,0,0,0,0,0,0,5,1,0
0,0,0,0,0,1,1,1,2,7,12,19
0,0,0,0,0,1,1,1,1,2,5,13
0,0,0,0,0,1,1,1,3,1,8,9
0,0,0,0,0,1,1,1,0,0,17,4
0,0,0,0,0,0,0,0,0,5,1,0
0,0,0,0,0,0,0,0,0,5,1,36
0,0,0,0,0,0,0,0,0,0,17,34
0,0,0,0,0,0,0,0,0,5,1,0
0,0,0,0,0,0,0,0,0,5,1,0
0,0,0,0,0,0,0,0,0,5,1,0
0,0,0,0,0,0,0,0,0,5,1,0
0,0,0,0,0,0,0,0,0,5,1,0
0,0,0,0,0,0,0,0,0,5,1,0
0,0,0,0,0,1,1,1,2,0,12,24
0,0,0,0,0,0,0,0,2,4,11,11
0,0,0,0,0,0,0,0,0,5,7,36
0,0,0,0,0,0,0,0,0,5,1,0
0,0,0,0,0,1,1,1,3,1,0,22
0,0,0,0,0,0,0,0,0,5,7,36
0,0,0,0,0,0,0,0,0,5,1,0
0,0,0,0,0,0,0,0,0,5,1,0
0,0,0,0,0,1,1,1,1,2,5,37
0,0,0,0,0,0,0,0,0,5,1,0
0,0,0,0,0,0,0,0,0,5,7,29
0,0,0,0,0,0,0,0,0,5,1,0
0,0,0,0,0,0,0,0,0,5,1,0
0,0,0,0,0,0,0,0,0,5,1,0
0,0,0,0,0,0,0,0,0,5,1,0
0,0,0,0,0,1,1,1,1,2,2,16
0,0,0,0,0,1,1,1,1,2,5,13
0,0,0,0,0,1,1,1,1,2,2,1
0,0,0,0,0,0,0,0,0,5,1,0
0,0,0,0,0,0,0,0,0,5,1,0
0,0,0,0,0,1,1,1,2,7,3,6
0,0,0,0,0,0,0,0,0,5,1,0
0,0,0,0,0,0,0,0,0,5,1,0
0,0,0,0,0,0,0,0,0,5,1,0
0,0,0,0,0,0,0,0,0,0,9,8
0,0,0,0,0,1,1,1,3,1,8,22
0,0,0,0,0,0,0,0,0,5,1,0
0,0,0,0,0,0,0,0,0,5,1,0
0,0,0,0,0,0,0,0,0,5,1,0
0,0,0,0,0,0,0,0,0,5,1,0
0,0,0,0,0,0,0,0,0,5,1,0
0,0,0,0,0,0,0,0,0,5,1,0
0,0,0,0,0,1,1,1,3,6,4,28
0,0,0,0,0,1,1,1,2,8,13,10
0,0,0,0,0,1,1,1,2,0,12,24
0,0,0,0,0,0,0,0,0,5,7,29
0,0,0,0,0,0,0,0,0,0,9,14
0,0,0,0,0,1,1,1,2,8,13,18
0,0,0,0,0,0,0,0,0,0,16,25
0,0,0,0,0,0,0,0,0,5,1,0
0,0,0,0,0,0,0,0,0,5,1,0
0,0,0,0,0,0,0,0,0,5,1,0
0,0,0,0,0,0,0,0,0,5,1,0
0,0,0,0,0,0,0,0,0,5,1,0
0,0,0,0,0,0,0,0,0,5,1,0
0,0,0,0,0,0,0,0,0,5,1,0
0,0,0,0,0,0,0,0,0,5,1,0
0,0,0,0,0,0,0,0,0,5,1,0
0,0,0,0,0,0,0,0,0,5,1,36
0,0,0,0,0,0,0,0,0,5,1,0
0,0,0,0,0,0,0,0,0,5,1,0
0,0,0,0,0,0,0,0,0,5,1,0
0,0,0,0,0,0,0,0,0,5,1,0
0,0,0,0,0,0,0,0,0,5,1,0
0,0,0,0,0,0,0,0,0,5,1,0
0,0,0,0,0,0,0,0,0,5,1,0
0,0,0,0,0,0,0,0,0,5,1,36
0,0,0,0,0,0,0,0,0,5,1,0
0,0,0,0,0,0,0,0,0,0,7,34
0,0,0,0,0,0,0,0,0,0,17,34
0,0,0,0,0,1,1,1,3,1,0,2
0,0,0,0,0,0,0,0,0,5,7,36
0,0,0,0,0,0,0,0,0,5,1,0
0,0,0,0,0,0,0,0,0,0,9,8
0,0,0,0,0,0,0,0,0,5,1,0
0,0,0,0,0,0,0,0,0,5,1,0
0,0,0,0,0,0,0,0,0,5,1,0
0,0,0,0,0,0,0,0,0,5,1,0
0,0,0,0,0,0,0,0,0,5,1,0
0,0,0,0,0,0,0,0,0,5,1,0
0,0,0,0,0,0,0,0,0,5,7,29
0,0,0,0,0,1,1,1,3,1,8,9
0,0,0,0,0,1,1,1,1,2,2,16
0,0,0,0,0,0,0,0,0,0,7,20
0,0,0,0,0,0,0,0,0,5,7,36
0,0,0,0,0,0,0,0,0,0,7,29
0,0,0,0,0,1,1,1,2,3,10,3
0,0,0,0,0,1,1,1,1,2,5,4
0,0,0,0,0,0,0,0,0,5,1,0
0,0,0,0,0,0,0,0,0,5,7,36
0,0,0,0,0,0,0,0,0,5,1,0
0,0,0,0,0,0,0,0,0,5,7,20
0,0,0,0,0,0,0,0,0,5,1,0
0,0,0,0,0,1,1,1,1,2,5,13
0,0,0,0,0,0,0,0,0,5,1,0
0,0,0,0,0,0,0,0,0,0,17,34
0,0,0,0,0,0,0,0,0,5,1,0
0,0,0,0,0,0,0,0,0,5,1,0
0,0,0,0,0,1,1,1,2,4,6,7
0,0,0,0,0,0,0,0,0,5,1,0
0,0,0,0,0,1,1,1,3,1,8,38
0,0,0,0,0,0,0,0,0,0,9,8
0,0,0,0,0,0,0,0,0,5,1,0
0,0,0,0,0,0,0,0,0,5,1,0
0,0,0,0,0,0,0,0,0,5,1,36
0,0,0,0,0,1,1,1,2,7,12,24
0,0,0,0,0,1,1,1,1,2,5,37
0,0,0,0,0,0,0,0,0,5,1,0
0,0,0,0,0,0,0,0,0,5,1,0
0,0,0,0,0,0,0,0,0,5,1,0
0,0,0,0,0,0,0,0,0,5,1,0
0,0,0,0,0,1,1,1,1,2,5,13
0,0,0,0,0,0,0,0,0,5,1,0
0,0,0,0,0,0,0,0,0,5,1,0
0,0,0,0,0,0,0,0,0,5,1,0
0,0,0,0,0,0,0,0,0,5,1,0
0,0,0,0,0,0,0,0,0,5,1,0
0,0,0,0,0,0,0,0,0,5,1,0
0,0,0,0,0,0,0,0,0,5,1,0
0,0,0,0,0,0,0,0,0,5,1,0
0,0,0,0,0,0,0,0,0,5,1,0
0,0,0,0,0,0,0,0,2,7,12,24
0,0,0,0,0,0,0,0,0,0,12,14
0,0,0,0,0,0,0,0,0,5,1,0
0,0,0,0,0,0,0,0,0,5,1,0
0,0,0,0,0,0,0,0,0,0,9,8
0,0,0,0,0,0,0,0,0,5,1,36
0,0,0,0,0,0,0,0,0,5,1,0
0,0,0,0,0,1,1,1,1,2,2,1
0,0,0,0,0,0,0,0,0,5,1,0
0,0,0,0,0,0,0,0,0,5,1,0
0,0,0,0,0,1,1,1,3,1,0,2
0,0,0,0,0,0,0,0,0,5,1,0
0,0,0,0,0,0,0,0,0,5,1,0
0,0,0,0,0,0,0,0,0,5,1,0
0,0,0,0,0,0,0,0,0,0,7,20
0,0,0,0,0,0,0,0,0,5,1,36
0,0,0,0,0,0,0,0,0,0,17,34
0,0,0,0,0,0,0,0,0,0,7,20
0,0,0,0,0,0,0,0,0,5,1,0
0,0,0,0,0,0,0,0,0,5,1,36
0,0,0,0,0,1,1,1,2,4,11,2
0,0,0,0,0,0,0,0,0,5,1,0
0,0,0,0,0,0,0,0,0,5,1,0
0,0,0,0,0,0,0,0,0,5,1,0
0,0,0,0,0,0,0,0,0,5,1,0
0,0,0,0,0,0,0,0,0,5,1,0
0,0,0,0,0,0,0,0,0,5,1,0
0,0,0,0,0,0,0,0,0,0,9,19
0,0,0,0,0,1,1,1,1,2,5,13
0,0,0,0,0,0,0,0,0,5,1,0
0,0,0,0,0,0,0,0,0,5,1,0
0,0,0,0,0,0,0,0,0,5,1,0
0,0,0,0,0,0,0,0,0,0,7,20
0,0,0,0,0,0,0,0,0,5,1,0
0,0,0,0,0,0,0,0,0,5,1,0
0,0,0,0,0,0,0,0,0,5,1,0
0,0,0,0,0,0,0,0,0,5,1,0
0,0,0,0,0,0,0,0,0,5,1,0
0,0,0,0,0,0,0,0,0,5,1,0
0,0,0,0,0,1,1,1,2,3,10,27
0,0,0,0,0,0,0,0,0,5,1,36
0,0,0,0,0,0,0,0,0,5,1,0
0,0,0,0,0,0,0,0,0,5,7,14
0,0,0,0,0,1,1,1,3,1,8,30
0,0,0,0,0,0,0,0,0,5,1,36
0,0,0,0,0,0,0,0,0,5,1,0
0,0,0,0,0,0,0,0,0,5,1,0
0,0,0,0,0,1,1,1,2,6,9,32
0,0,0,0,0,0,0,0,0,5,1,0
0,0,0,0,0,0,0,0,0,5,1,0
0,0,0,0,0,1,1,1,1,2,5,37
0,0,0,0,0,0,0,0,0,5,1,0
0,0,0,0,0,1,1,1,3,1,0,22
0,0,0,0,0,1,1,1,2,7,3,24
0,0,0,0,0,0,0,0,0,5,1,0
0,0,0,0,0,1,1,1,1,2,2,1
0,0,0,0,0,0,0,0,0,5,1,0
0,0,0,0,0,0,0,0,0,5,1,0
0,0,0,0,0,1,1,1,2,4,11,11
0,0,0,0,0,0,0,0,0,0,9,20
0,0,0,0,0,0,0,0,0,0,17,34
0,0,0,0,0,0,0,0,0,5,1,0
0,0,0,0,0,0,0,0,0,5,1,0
0,0,0,0,0,0,0,0,0,5,1,0
0,0,0,0,0,0,0,0,0,5,1,0
0,0,0,0,0,0,0,0,0,5,1,0
0,0,0,0,0,0,0,0,0,5,1,0
0,0,0,0,0,0,0,0,0,0,17,34
0,0,0,0,0,0,0,0,0,0,17,34
0,0,0,0,0,0,0,0,0,5,1,0
0,0,0,0,0,0,0,0,0,5,1,0
0,0,0,0,0,0,0,0,0,5,1,0
0,0,0,0,0,0,0,0,0,5,1,0
0,0,0,0,0,0,0,0,0,5,1,0
0,0,0,0,0,1,1,1,1,2,5,13
0,0,0,0,0,0,0,0,0,5,1,0
0,0,0,0,0,0,0,0,0,5,1,36
0,0,0,0,0,0,0,0,0,0,17,34
0,0,0,0,0,0,0,0,0,0,7,29
0,0,0,0,0,0,0,0,0,5,1,0
0,0,0,0,0,0,0,0,0,0,7,14
0,0,0,0,0,0,0,0,0,5,1,0
0,0,0,0,0,0,0,0,2,7,12,24
0,0,0,0,0,0,0,0,0,5,1,36
0,0,0,0,0,0,0,0,0,5,1,0
0,0,0,0,0,0,0,0,0,5,7,20
0,0,0,0,0,1,1,1,1,2,2,1
0,0,0,0,0,0,0,0,0,5,1,0
0,0,0,0,0,0,0,0,0,5,1,0
0,0,0,0,0,0,0,0,0,5,1,36
0,0,0,0,0,0,0,0,0,5,1,0
0,0,0,0,0,0,0,0,0,5,1,0
0,0,0,0,0,0,0,0,0,5,1,0
0,0,0,0,0,0,0,0,0,5,1,0
0,0,0,0,0,0,0,0,0,5,1,0
0,0,0,0,0,0,0,0,0,5,1,0
0,0,0,0,0,0,0,0,0,5,1,0
0,0,0,0,0,0,0,0,0,5,1,36
0,0,0,0,0,0,0,0,0,5,1,0
0,0,0,0,0,1,1,1,2,6,4,5
0,0,0,0,0,0,0,0,0,0,7,14
0,0,0,0,0,1,1,1,3,1,0,26
0,0,0,0,0,0,0,0,0,5,1,0
0,0,0,0,0,0,0,0,0,5,1,0
0,0,0,0,0,0,0,0,2,8,13,10
0,0,0,0,0,1,1,1,2,4,6,7
0,0,0,0,0,1,1,1,1,2,2,37
0,0,0,0,0,0,0,0,0,5,1,0
0,0,0,0,0,0,0,0,0,5,1,0
0,0,0,0,0,0,0,0,0,5,1,36
0,0,0,0,0,0,0,0,0,0,9,20
0,0,0,0,0,0,0,0,0,5,7,20
0,0,0,0,0,0,0,0,0,5,1,0
0,0,0,0,0,0,0,0,0,5,1,0
0,0,0,0,0,0,0,0,0,5,1,0
0,0,0,0,0,0,0,0,0,5,1,0
0,0,0,0,0,0,0,0,0,5,1,0
0,0,0,0,0,0,0,0,0,5,1,0
0,0,0,0,0,0,0,0,0,5,1,0
0,0,0,0,0,0,0,0,0,5,1,0
0,0,0,0,0,0,0,0,0,5,1,0
0,0,0,0,0,1,1,1,2,3,10,27
0,0,0,0,0,0,0,0,0,0,17,34
0,0,0,0,0,0,0,0,0,5,1,0
0,0,0,0,0,0,0,0,2,7,12,24
0,0,0,0,0,0,0,0,0,5,1,0
0,0,0,0,0,0,0,0,0,0,7,14
0,0,0,0,0,1,1,1,1,2,2,16
0,0,0,0,0,0,0,0,0,5,1,0
0,0,0,0,0,0,0,0,0,5,1,0
0,0,0,0,0,0,0,0,0,5,1,0
0,0,0,0,0,0,0,0,0,5,7,36
0,0,0,0,0,0,0,0,0,5,1,0
0,0,0,0,0,0,0,0,0,5,1,0
0,0,0,0,0,0,0,0,0,5,1,0
0,0,0,0,0,0,0,0,0,5,7,36
0,0,0,0,0,0,0,0,0,0,7,14
0,0,0,0,0,1,1,1,1,2,2,16
0,0,0,0,0,0,0,0,0,5,1,0
0,0,0,0,0,0,0,0,0,5,1,36
