1.0,0.9,0.8,0.7,0.6,0.5,0.4,0.3,0.2,0.1,0.05,0.01
0,0,0,0,0,0,0,3,3,6,11,14
0,0,0,0,0,0,1,2,2,0,6,1
0,0,0,0,0,0,0,1,1,1,0,10
0,0,0,0,0,0,0,0,0,2,13,16
0,0,0,0,0,0,0,0,0,2,2,2
0,0,0,0,0,0,1,2,2,8,14,21
0,0,0,0,0,0,0,3,3,9,3,15
0,0,0,0,0,0,0,1,1,7,7,7
0,0,0,0,0,0,1,2,2,8,1,21
0,0,0,0,0,0,1,2,2,8,1,8
0,0,0,0,0,0,0,3,3,6,10,3
0,0,0,0,0,0,1,2,2,0,6,1
0,0,0,0,0,0,1,2,2,0,1,18
0,0,0,0,0,0,1,2,2,0,6,1
0,0,0,0,0,0,0,1,1,7,7,7
0,0,0,0,0,0,0,1,1,7,16,7
0,0,0,0,0,0,1,2,2,8,16,18
0,0,0,0,0,0,1,2,2,0,6,1
0,0,0,0,0,0,0,0,0,2,13,16
0,0,0,0,0,0,1,2,2,0,6,1
0,0,0,0,0,0,0,1,1,7,15,17
0,0,0,0,0,0,1,2,2,0,6,1
0,0,0,0,0,0,1,3,3,6,11,14
0,0,0,0,0,0,0,1,1,7,7,9
0,0,0,0,0,0,0,3,3,9,3,15
0,0,0,0,0,0,0,0,0,2,13,16
0,0,0,0,0,0,0,1,1,7,7,9
0,0,0,0,0,0,0,1,1,1,0,10
0,0,0,0,0,0,0,0,0,5,5,29
0,0,0,0,0,0,0,0,0,2,2,11
0,0,0,0,0,0,0,0,0,2,2,28
0,0,0,0,0,0,0,0,0,5,5,2
0,0,0,0,0,0,0,1,1,7,15,17
0,0,0,0,0,0,1,2,2,0,6,8
0,0,0,0,0,0,0,1,1,1,0,10
0,0,0,0,0,0,0,1,1,1,0,10
0,0,0,0,0,0,0,4,4,4,9,13
0,0,0,0,0,0,0,0,0,5,5,29
0,0,0,0,0,0,0,0,0,5,5,2
0,0,0,0,0,0,0,0,0,2,2,11
0,0,0,0,0,0,0,1,1,1,0,10
0,0,0,0,0,0,0,1,1,1,0,10
0,0,0,0,0,0,0,3,3,9,3,3
0,0,0,0,0,0,0,1,1,1,0,10
0,0,0,0,0,0,0,3,3,6,10,19
0,0,0,0,0,0,0,0,0,2,13,16
0,0,0,0,0,0,1,2,2,8,1,23
0,0,0,0,0,0,0,3,3,9,3,15
0,0,0,0,0,0,0,0,0,5,5,2
0,0,0,0,0,0,1,2,2,0,1,8
0,0,0,0,0,0,1,2,2,0,6,1
0,0,0,0,0,0,1,2,2,0,6,1
0,0,0,0,0,0,1,2,2,0,6,1
0,0,0,0,0,0,0,1,1,1,0,10
0,0,0,0,0,0,1,2,2,0,6,1
0,0,0,0,0,0,0,1,1,7,15,17
0,0,0,0,0,0,1,2,2,0,6,1
0,0,0,0,0,0,0,0,0,5,5,29
0,0,0,0,0,0,0,1,1,1,0,10
0,0,0,0,0,0,0,0,0,5,5,29
0,0,0,0,0,0,0,3,3,9,3,15
0,0,0,0,0,0,1,2,2,0,6,1
0,0,0,0,0,0,0,3,3,6,10,3
0,0,0,0,0,0,0,1,1,1,0,0
0,0,0,0,0,0,1,2,2,8,14,6
0,0,0,0,0,0,1,2,2,0,6,1
0,0,0,0,0,0,0,1,1,3,8,20
0,0,0,0,0,0,1,2,2,0,6,1
0,0,0,0,0,0,1,2,2,0,1,8
0,0,0,0,0,0,1,2,2,8,16,18
0,0,0,0,0,0,1,2,2,0,6,8
0,0,0,0,0,0,0,0,0,5,5,29
0,0,0,0,0,0,1,2,2,0,6,1
0,0,0,0,0,0,0,0,0,5,5,29
0,0,0,0,0,0,0,4,4,4,9,13
0,0,0,0,0,0,1,2,2,0,6,1
0,0,0,0,0,0,0,1,1,7,7,9
0,0,0,0,0,0,1,2,2,0,6,1
0,0,0,0,0,0,0,1,1,1,0,10
0,0,0,0,0,0,0,0,0,5,5,29
0,0,0,0,0,0,1,2,2,0,6,8
0,0,0,0,0,0,0,3,3,6,10,3
0,0,0,0,0,0,1,2,2,8,16,18
0,0,0,0,0,0,0,1,1,1,0,10
0,0,0,0,0,0,1,2,2,0,6,1
0,0,0,0,0,0,0,1,1,1,0,10
0,0,0,0,0,0,1,2,2,6,11,14
0,0,0,0,0,0,0,1,1,7,0,0
0,0,0,0,0,0,0,0,0,5,5,29
0,0,0,0,0,0,0,1,1,1,0,10
0,0,0,0,0,0,0,0,0,5,5,29
0,0,0,0,0,0,1,2,2,0,6,1
0,0,0,0,0,0,1,2,2,0,6,1
0,0,0,0,0,0,0,0,0,5,5,29
0,0,0,0,0,0,0,1,1,1,0,0
0,0,0,0,0,0,0,1,1,1,0,10
0,0,0,0,0,0,1,2,2,0,6,1
0,0,0,0,0,0,0,1,1,1,0,10
0,0,0,0,0,0,0,1,1,1,0,10
0,0,0,0,0,0,0,4,4,4,9,13
0,0,0,0,0,0,0,1,1,1,0,10
0,0,0,0,0,0,1,2,2,8,16,18
0,0,0,0,0,0,0,0,0,5,5,2
0,0,0,0,0,0,1,2,2,0,1,8
0,0,0,0,0,0,1,2,2,0,6,1
0,0,0,0,0,0,1,2,2,0,6,1
0,0,0,0,0,0,1,2,2,0,6,1
0,0,0,0,0,0,0,3,3,9,3,15
0,0,0,0,0,0,1,2,2,0,1,8
0,0,0,0,0,0,0,1,1,7,7,7
0,0,0,0,0,0,0,1,1,1,0,10
0,0,0,0,0,0,0,3,3,9,3,15
0,0,0,0,0,0,0,0,0,5,5,2
0,0,0,0,0,0,0,3,3,9,3,15
0,0,0,0,0,0,0,1,1,7,7,9
0,0,0,0,0,0,1,2,2,8,14,21
0,0,0,0,0,0,1,2,2,0,6,1
0,0,0,0,0,0,1,2,2,0,6,1
0,0,0,0,0,0,1,2,2,8,1,21
0,0,0,0,0,0,0,1,1,1,0,0
0,0,0,0,0,0,0,0,0,5,5,29
0,0,0,0,0,0,0,3,3,6,10,3
0,0,0,0,0,0,0,0,0,2,2,28
0,0,0,0,0,0,0,1,1,1,0,10
0,0,0,0,0,0,0,1,1,7,7,7
0,0,0,0,0,0,1,2,2,0,6,1
0,0,0,0,0,0,0,4,4,7,4,9
0,0,0,0,0,0,0,0,0,5,5,29
0,0,0,0,0,0,1,2,2,0,1,8
0,0,0,0,0,0,1,2,2,0,6,1
0,0,0,0,0,0,1,2,2,8,14,6
0,0,0,0,0,0,0,1,1,1,0,10
0,0,0,0,0,0,0,4,4,4,4,31
0,0,0,0,0,0,1,2,2,8,14,6
0,0,0,0,0,0,1,2,2,8,14,6
0,0,0,0,0,0,0,0,0,2,2,11
0,0,0,0,0,0,0,1,1,1,0,10
0,0,0,0,0,0,1,2,2,0,6,1
0,0,0,0,0,0,0,3,3,9,3,15
0,0,0,0,0,0,1,2,2,0,6,1
0,0,0,0,0,0,0,3,3,9,3,15
0,0,0,0,0,0,0,4,4,4,9,13
0,0,0,0,0,0,0,1,1,1,15,0
0,0,0,0,0,0,1,2,2,0,6,1
0,0,0,0,0,0,1,2,2,0,6,1
0,0,0,0,0,0,1,2,2,0,6,1
0,0,0,0,0,0,1,2,2,0,6,1
0,0,0,0,0,0,1,2,2,0,6,8
0,0,0,0,0,0,0,3,3,6,11,14
0,0,0,0,0,0,1,2,2,0,6,1
0,0,0,0,0,0,1,2,2,0,6,1
0,0,0,0,0,0,1,2,2,0,1,8
0,0,0,0,0,0,1,2,2,0,6,8
0,0,0,0,0,0,1,2,2,0,6,1
0,0,0,0,0,0,1,2,2,0,6,1
0,0,0,0,0,0,1,2,2,0,1,8
0,0,0,0,0,0,1,2,2,0,6,1
0,0,0,0,0,0,0,3,3,9,3,15
0,0,0,0,0,0,0,0,0,5,5,29
0,0,0,0,0,0,0,4,4,4,9,4
0,0,0,0,0,0,0,3,3,9,3,3
0,0,0,0,0,0,1,2,2,0,1,8
0,0,0,0,0,0,0,1,1,7,7,7
0,0,0,0,0,0,0,0,0,5,5,29
0,0,0,0,0,0,0,4,4,4,4,4
0,0,0,0,0,0,1,2,2,0,6,1
0,0,0,0,0,0,0,4,4,4,9,13
0,0,0,0,0,0,1,2,2,0,1,8
0,0,0,0,0,0,1,2,2,0,6,1
0,0,0,0,0,0,0,0,0,5,5,29
0,0,0,0,0,0,0,1,1,7,15,28
0,0,0,0,0,0,0,1,1,1,0,10
0,0,0,0,0,0,0,1,1,1,0,10
0,0,0,0,0,0,0,0,0,5,5,29
0,0,0,0,0,0,1,2,2,0,6,1
0,0,0,0,0,0,1,2,2,8,16,18
0,0,0,0,0,0,0,0,0,5,5,2
0,0,0,0,0,0,1,2,2,0,6,1
0,0,0,0,0,0,0,0,0,5,5,29
0,0,0,0,0,0,1,2,2,0,1,8
0,0,0,0,0,0,1,2,2,8,14,21
0,0,0,0,0,0,1,2,2,0,6,1
0,0,0,0,0,0,1,2,2,0,6,1
0,0,0,0,0,0,1,2,2,8,14,6
0,0,0,0,0,0,0,3,3,9,3,15
0,0,0,0,0,0,1,2,2,0,6,1
0,0,0,0,0,0,0,1,1,1,0,10
0,0,0,0,0,0,1,2,2,0,6,1
0,0,0,0,0,0,0,3,3,9,3,15
0,0,0,0,0,0,0,0,0,5,5,2
0,0,0,0,0,0,1,2,2,0,6,1
0,0,0,0,0,0,1,2,2,8,14,6
0,0,0,0,0,0,1,2,2,0,6,1
0,0,0,0,0,0,1,2,2,0,6,1
0,0,0,0,0,0,0,0,0,2,2,2
0,0,0,0,0,0,1,2,2,0,6,1
0,0,0,0,0,0,0,2,2,8,16,7
0,0,0,0,0,0,0,1,1,1,0,10
0,0,0,0,0,0,0,4,4,4,9,13
0,0,0,0,0,0,0,3,3,9,3,15
0,0,0,0,0,0,0,1,1,1,0,10
0,0,0,0,0,0,1,2,2,0,6,1
0,0,0,0,0,0,1,2,2,0,6,1
0,0,0,0,0,0,1,2,2,0,6,1
0,0,0,0,0,0,0,1,1,1,0,10
0,0,0,0,0,0,1,2,2,0,6,1
0,0,0,0,0,0,1,2,2,8,14,6
0,0,0,0,0,0,1,2,2,8,14,21
0,0,0,0,0,0,1,2,2,0,6,1
0,0,0,0,0,0,1,2,2,0,6,1
0,0,0,0,0,0,1,2,2,8,16,18
0,0,0,0,0,0,0,3,3,6,10,19
0,0,0,0,0,0,1,2,2,0,6,1
0,0,0,0,0,0,1,2,2,0,6,1
0,0,0,0,0,0,0,1,1,1,0,10
0,0,0,0,0,0,0,2,2,6,11,14
0,0,0,0,0,0,0,1,1,1,0,10
0,0,0,0,0,0,1,2,2,0,6,1
0,0,0,0,0,0,0,1,1,1,0,10
0,0,0,0,0,0,0,0,0,2,2,11
0,0,0,0,0,0,1,2,2,8,1,21
0,0,0,0,0,0,0,1,1,1,0,0
0,0,0,0,0,0,0,1,1,1,0,10
0,0,0,0,0,0,1,2,2,8,14,6
0,0,0,0,0,0,1,2,2,0,6,1
0,0,0,0,0,0,0,2,2,8,16,7
0,0,0,0,0,0,0,1,1,7,15,17
0,0,0,0,0,0,0,3,3,6,10,19
0,0,0,0,0,0,1,2,2,0,6,1
0,0,0,0,0,0,1,2,2,0,6,1
0,0,0,0,0,0,1,2,2,0,6,1
0,0,0,0,0,0,0,1,1,1,0,0
0,0,0,0,0,0,0,3,3,9,3,15
0,0,0,0,0,0,1,2,2,0,6,1
0,0,0,0,0,0,0,0,0,5,5,29
0,0,0,0,0,0,0,3,3,9,3,15
0,0,0,0,0,0,0,1,1,1,0,10
0,0,0,0,0,0,1,2,2,8,16,7
0,0,0,0,0,0,0,1,1,7,15,17
0,0,0,0,0,0,0,4,4,3,8,24
0,0,0,0,0,0,0,3,3,9,3,3
0,0,0,0,0,0,1,2,2,0,6,1
0,0,0,0,0,0,0,4,4,4,9,13
0,0,0,0,0,0,1,2,2,0,1,18
0,0,0,0,0,0,0,1,1,1,0,0
0,0,0,0,0,0,1,2,2,0,6,1
0,0,0,0,0,0,0,1,1,1,0,0
0,0,0,0,0,0,1,2,2,0,6,1
0,0,0,0,0,0,1,2,2,0,1,8
0,0,0,0,0,0,0,0,0,5,5,29
0,0,0,0,0,0,1,2,2,0,6,1
0,0,0,0,0,0,0,1,1,1,0,0
0,0,0,0,0,0,0,0,0,5,5,2
0,0,0,0,0,0,0,1,1,7,13,28
0,0,0,0,0,0,1,2,2,8,1,8
0,0,0,0,0,0,1,2,2,8,16,18
0,0,0,0,0,0,0,1,1,1,0,10
0,0,0,0,0,0,1,2,2,0,6,1
0,0,0,0,0,0,1,2,2,0,6,1
0,0,0,0,0,0,0,1,1,1,0,0
0,0,0,0,0,0,0,1,1,1,0,10
0,0,0,0,0,0,1,2,2,0,6,1
0,0,0,0,0,0,0,1,1,1,0,10
0,0,0,0,0,0,1,2,2,0,6,1
0,0,0,0,0,0,1,2,2,0,6,1
0,0,0,0,0,0,1,2,2,0,6,1
0,0,0,0,0,0,1,2,2,0,6,1
0,0,0,0,0,0,1,2,2,0,6,1
0,0,0,0,0,0,1,2,2,0,1,18
0,0,0,0,0,0,0,3,3,9,3,3
0,0,0,0,0,0,0,1,1,1,0,0
0,0,0,0,0,0,1,2,2,0,6,1
0,0,0,0,0,0,1,2,2,0,6,1
0,0,0,0,0,0,1,2,2,0,6,1
0,0,0,0,0,0,1,2,2,0,1,8
0,0,0,0,0,0,0,1,1,1,0,0
0,0,0,0,0,0,1,2,2,0,6,1
0,0,0,0,0,0,1,2,2,0,6,1
0,0,0,0,0,0,0,1,1,1,0,10
0,0,0,0,0,0,1,2,2,0,1,8
0,0,0,0,0,0,1,2,2,0,6,8
0,0,0,0,0,0,1,2,2,8,14,6
0,0,0,0,0,0,1,2,2,0,6,1
0,0,0,0,0,0,1,2,2,8,11,14
0,0,0,0,0,0,1,2,2,0,6,1
0,0,0,0,0,0,1,2,2,0,6,1
0,0,0,0,0,0,0,3,3,9,3,15
0,0,0,0,0,0,1,2,2,0,6,1
0,0,0,0,0,0,1,2,2,0,6,1
0,0,0,0,0,0,1,2,2,8,14,6
0,0,0,0,0,0,0,0,0,5,5,29
0,0,0,0,0,0,1,2,2,0,6,1
0,0,0,0,0,0,1,2,2,0,6,1
0,0,0,0,0,0,1,2,2,0,6,1
0,0,0,0,0,0,1,2,2,0,6,1
0,0,0,0,0,0,1,2,2,0,6,1
0,0,0,0,0,0,1,2,2,8,16,18
0,0,0,0,0,0,0,0,0,2,2,28
0,0,0,0,0,0,1,2,2,0,1,8
0,0,0,0,0,0,1,2,2,0,6,1
0,0,0,0,0,0,1,2,2,0,6,1
0,0,0,0,0,0,0,1,1,1,0,10
0,0,0,0,0,0,0,1,1,1,0,10
0,0,0,0,0,0,1,2,2,0,1,8
0,0,0,0,0,0,0,3,3,6,10,27
0,0,0,0,0,0,1,2,2,0,6,8
0,0,0,0,0,0,1,2,2,0,6,1
0,0,0,0,0,0,0,3,3,9,3,15
0,0,0,0,0,0,0,2,2,6,11,14
0,0,0,0,0,0,1,2,2,0,6,1
0,0,0,0,0,0,0,4,4,4,9,13
0,0,0,0,0,0,1,2,2,8,16,18
0,0,0,0,0,0,0,3,3,9,3,15
0,0,0,0,0,0,0,1,1,7,7,7
0,0,0,0,0,0,1,2,2,8,1,21
0,0,0,0,0,0,1,2,2,0,6,1
0,0,0,0,0,0,0,1,1,1,0,10
0,0,0,0,0,0,1,2,2,0,6,1
0,0,0,0,0,0,1,2,2,0,6,1
0,0,0,0,0,0,0,1,1,7,15,17
0,0,0,0,0,0,0,0,0,5,5,29
0,0,0,0,0,0,1,2,2,0,6,8
0,0,0,0,0,0,1,2,2,0,6,1
0,0,0,0,0,0,0,1,1,1,0,0
0,0,0,0,0,0,1,2,2,0,6,1
0,0,0,0,0,0,1,2,2,0,6,1
0,0,0,0,0,0,0,1,1,1,0,0
0,0,0,0,0,0,1,2,2,0,1,21
0,0,0,0,0,0,1,2,2,0,1,21
0,0,0,0,0,0,0,1,1,1,0,0
0,0,0,0,0,0,0,4,4,3,8,5
0,0,0,0,0,0,1,2,2,8,14,21
0,0,0,0,0,0,0,4,4,4,9,4
0,0,0,0,0,0,0,1,1,1,0,10
0,0,0,0,0,0,0,1,1,1,0,0
0,0,0,0,0,0,0,1,1,1,0,10
0,0,0,0,0,0,1,2,2,0,6,1
0,0,0,0,0,0,0,4,4,4,4,31
0,0,0,0,0,0,1,2,2,0,6,1
0,0,0,0,0,0,1,2,2,0,6,1
0,0,0,0,0,0,1,2,2,0,6,1
0,0,0,0,0,0,1,2,2,0,6,1
0,0,0,0,0,0,1,2,2,0,6,1
0,0,0,0,0,0,1,2,2,0,6,1
0,0,0,0,0,0,0,4,4,4,9,13
0,0,0,0,0,0,0,1,1,7,15,17
0,0,0,0,0,0,1,2,2,0,6,1
0,0,0,0,0,0,0,3,3,6,10,27
0,0,0,0,0,0,1,2,2,8,14,6
0,0,0,0,0,0,0,0,0,5,5,29
0,0,0,0,0,0,1,2,2,0,6,1
0,0,0,0,0,0,0,0,0,5,5,29
0,0,0,0,0,0,0,0,0,5,5,2
0,0,0,0,0,0,0,0,0,2,2,11
0,0,0,0,0,0,1,2,2,8,16,18
0,0,0,0,0,0,0,3,3,9,3,15
0,0,0,0,0,0,1,2,2,0,6,1
0,0,0,0,0,0,1,2,2,0,1,8
0,0,0,0,0,0,0,3,3,9,3,15
0,0,0,0,0,0,0,1,1,1,0,0
0,0,0,0,0,0,0,0,0,2,2,31
0,0,0,0,0,0,1,2,2,8,1,21
0,0,0,0,0,0,0,1,1,1,0,10
0,0,0,0,0,0,1,2,2,0,6,8
0,0,0,0,0,0,0,0,0,2,2,28
0,0,0,0,0,0,0,3,3,9,3,15
0,0,0,0,0,0,1,2,2,0,6,8
0,0,0,0,0,0,0,4,4,3,8,20
0,0,0,0,0,0,1,2,2,8,13,23
0,0,0,0,0,0,1,2,2,8,13,23
0,0,0,0,0,0,0,0,0,5,5,29
0,0,0,0,0,0,1,2,2,0,6,1
0,0,0,0,0,0,1,2,2,0,6,8
0,0,0,0,0,0,1,2,2,0,1,8
0,0,0,0,0,0,0,0,0,5,5,29
0,0,0,0,0,0,0,0,0,5,5,29
0,0,0,0,0,0,1,2,2,0,6,1
0,0,0,0,0,0,0,3,3,6,10,3
0,0,0,0,0,0,1,2,2,0,6,1
0,0,0,0,0,0,0,4,4,4,9,13
0,0,0,0,0,0,0,1,1,7,7,7
0,0,0,0,0,0,0,0,0,2,13,16
0,0,0,0,0,0,0,3,3,6,11,19
0,0,0,0,0,0,1,2,2,0,1,8
0,0,0,0,0,0,1,2,2,0,6,1
0,0,0,0,0,0,0,4,4,3,8,5
0,0,0,0,0,0,0,0,0,2,2,11
0,0,0,0,0,0,0,4,4,4,4,4
0,0,0,0,0,0,1,2,2,0,6,1
0,0,0,0,0,0,0,0,0,5,5,29
0,0,0,0,0,0,0,1,1,7,15,17
0,0,0,0,0,0,0,1,1,1,0,10
0,0,0,0,0,0,0,3,3,9,10,19
0,0,0,0,0,0,1,2,2,8,14,6
0,0,0,0,0,0,0,0,0,5,2,2
0,0,0,0,0,0,0,1,1,1,0,0
0,0,0,0,0,0,0,1,1,1,0,0
0,0,0,0,0,0,1,2,2,0,6,1
0,0,0,0,0,0,1,2,2,8,16,18
0,0,0,0,0,0,0,3,3,9,3,3
0,0,0,0,0,0,1,2,2,0,6,1
0,0,0,0,0,0,0,0,0,5,5,29
0,0,0,0,0,0,1,2,2,0,6,1
0,0,0,0,0,0,0,3,3,6,11,14
0,0,0,0,0,0,1,2,2,8,14,6
0,0,0,0,0,0,0,1,1,1,0,0
0,0,0,0,0,0,1,2,2,0,6,1
0,0,0,0,0,0,1,2,2,0,6,1
0,0,0,0,0,0,1,2,2,0,6,1
0,0,0,0,0,0,1,2,2,0,6,1
0,0,0,0,0,0,1,2,2,0,6,1
0,0,0,0,0,0,0,1,1,7,7,9
0,0,0,0,0,0,0,0,0,5,5,29
0,0,0,0,0,0,0,1,1,7,7,9
0,0,0,0,0,0,1,2,2,0,6,1
0,0,0,0,0,0,0,3,3,6,10,3
0,0,0,0,0,0,0,1,1,1,0,10
0,0,0,0,0,0,1,2,2,0,6,1
0,0,0,0,0,0,0,1,1,1,0,10
0,0,0,0,0,0,0,1,1,1,0,10
0,0,0,0,0,0,1,2,2,8,14,6
0,0,0,0,0,0,0,1,1,1,0,10
0,0,0,0,0,0,0,0,0,5,2,28
0,0,0,0,0,0,1,2,2,0,6,1
0,0,0,0,0,0,1,2,2,0,6,1
0,0,0,0,0,0,1,2,2,8,1,14
0,0,0,0,0,0,0,4,4,4,4,30
0,0,0,0,0,0,1,2,2,0,6,1
0,0,0,0,0,0,0,3,3,6,10,19
0,0,0,0,0,0,1,2,2,8,1,21
0,0,0,0,0,0,0,0,0,2,2,28
0,0,0,0,0,0,1,2,2,8,13,23
0,0,0,0,0,0,1,2,2,0,6,1
0,0,0,0,0,0,1,2,2,0,6,1
0,0,0,0,0,0,1,2,2,0,6,1
0,0,0,0,0,0,1,2,2,0,6,1
0,0,0,0,0,0,1,2,2,0,6,1
0,0,0,0,0,0,1,2,2,0,1,8
0,0,0,0,0,0,1,2,2,0,1,8
0,0,0,0,0,0,1,2,2,0,6,1
0,0,0,0,0,0,0,3,3,9,3,15
0,0,0,0,0,0,1,2,2,0,6,1
0,0,0,0,0,0,0,0,0,5,5,29
0,0,0,0,0,0,1,2,2,0,6,1
0,0,0,0,0,0,0,1,1,1,0,10
0,0,0,0,0,0,1,2,2,0,1,8
0,0,0,0,0,0,1,2,2,0,6,1
0,0,0,0,0,0,0,4,4,4,9,4
0,0,0,0,0,0,1,2,2,0,6,1
0,0,0,0,0,0,0,3,3,6,10,3
0,0,0,0,0,0,0,1,1,1,0,0
0,0,0,0,0,0,0,4,4,10,12,26
0,0,0,0,0,0,0,0,0,5,5,29
0,0,0,0,0,0,0,1,1,1,0,10
0,0,0,0,0,0,1,2,2,8,14,6
0,0,0,0,0,0,1,2,2,0,1,8
0,0,0,0,0,0,1,2,2,0,6,1
0,0,0,0,0,0,0,4,4,3,8,20
0,0,0,0,0,0,0,4,4,2,4,30
0,0,0,0,0,0,1,2,2,0,6,1
0,0,0,0,0,0,1,2,2,0,6,1
0,0,0,0,0,0,1,2,2,0,6,8
0,0,0,0,0,0,1,2,2,0,6,1
0,0,0,0,0,0,1,2,2,0,6,1
0,0,0,0,0,0,1,2,2,0,6,1
0,0,0,0,0,0,1,2,2,0,6,1
0,0,0,0,0,0,1,2,2,0,6,8
0,0,0,0,0,0,1,2,2,0,6,1
0,0,0,0,0,0,0,4,4,4,9,13
0,0,0,0,0,0,1,4,4,8,4,30
0,0,0,0,0,0,0,0,0,5,5,2
0,0,0,0,0,0,1,4,4,8,4,30
0,0,0,0,0,0,1,2,2,8,16,18
0,0,0,0,0,0,1,2,2,0,6,1
0,0,0,0,0,0,1,2,2,8,16,7
0,0,0,0,0,0,0,4,4,4,9,13
0,0,0,0,0,0,1,2,2,0,6,8
0,0,0,0,0,0,0,0,0,5,5,29
0,0,0,0,0,0,1,2,2,0,6,1
0,0,0,0,0,0,0,0,0,5,5,29
0,0,0,0,0,0,0,3,3,9,3,15
0,0,0,0,0,0,0,1,1,7,15,17
0,0,0,0,0,0,1,2,2,0,1,8
0,0,0,0,0,0,0,1,1,7,7,9
0,0,0,0,0,0,1,2,2,0,6,1
0,0,0,0,0,0,1,2,2,8,13,23
0,0,0,0,0,0,0,1,1,7,15,17
0,0,0,0,0,0,0,3,3,6,10,3
0,0,0,0,0,0,0,4,4,3,8,20
0,0,0,0,0,0,1,2,2,0,1,8
0,0,0,0,0,0,1,2,2,0,6,1
0,0,0,0,0,0,1,2,2,0,6,1
0,0,0,0,0,0,1,2,2,0,6,1
0,0,0,0,0,0,0,1,1,1,0,10
0,0,0,0,0,0,1,2,2,0,6,1
0,0,0,0,0,0,1,2,2,0,1,8
0,0,0,0,0,0,0,1,1,1,0,10
0,0,0,0,0,0,0,1,1,7,7,7
0,0,0,0,0,0,0,0,0,5,5,29
0,0,0,0,0,0,1,2,2,8,14,6
0,0,0,0,0,0,1,2,2,0,6,1
0,0,0,0,0,0,0,4,4,4,9,13
0,0,0,0,0,0,1,2,2,0,6,1
0,0,0,0,0,0,1,2,2,0,6,1
0,0,0,0,0,0,1,2,2,0,6,1
0,0,0,0,0,0,0,1,1,1,0,10
0,0,0,0,0,0,1,2,2,0,6,1
0,0,0,0,0,0,1,2,2,6,11,14
0,0,0,0,0,0,1,2,2,0,6,1
0,0,0,0,0,0,1,2,2,0,6,1
0,0,0,0,0,0,0,1,1,1,0,10
0,0,0,0,0,0,0,1,1,1,0,10
0,0,0,0,0,0,1,2,2,0,6,1
0,0,0,0,0,0,1,2,2,0,1,8
0,0,0,0,0,0,0,1,1,1,0,10
0,0,0,0,0,0,0,0,0,5,5,29
0,0,0,0,0,0,0,1,1,1,0,10
0,0,0,0,0,0,1,2,2,8,14,6
0,0,0,0,0,0,1,2,2,8,11,14
0,0,0,0,0,0,0,0,0,2,2,11
0,0,0,0,0,0,0,0,0,2,2,31
0,0,0,0,0,0,1,2,2,0,1,8
0,0,0,0,0,0,0,1,1,7,7,9
0,0,0,0,0,0,1,2,2,0,1,8
0,0,0,0,0,0,0,3,3,9,3,15
0,0,0,0,0,0,0,4,4,3,14,24
0,0,0,0,0,0,1,2,2,0,6,1
0,0,0,0,0,0,0,0,0,5,5,29
0,0,0,0,0,0,1,2,2,0,6,1
0,0,0,0,0,0,1,2,2,0,6,1
0,0,0,0,0,0,0,0,0,5,5,29
0,0,0,0,0,0,1,2,2,0,6,1
0,0,0,0,0,0,1,2,2,0,6,1
0,0,0,0,0,0,0,1,1,1,0,10
0,0,0,0,0,0,1,2,2,0,6,1
0,0,0,0,0,0,0,0,0,5,5,29
0,0,0,0,0,0,0,0,0,2,2,28
0,0,0,0,0,0,1,2,2,0,6,1
0,0,0,0,0,0,1,2,2,0,6,1
0,0,0,0,0,0,1,2,2,0,6,1
0,0,0,0,0,0,1,2,2,0,6,1
0,0,0,0,0,0,1,2,2,0,6,1
0,0,0,0,0,0,1,2,2,0,6,1
0,0,0,0,0,0,1,2,2,0,1,8
0,0,0,0,0,0,0,0,0,2,13,16
0,0,0,0,0,0,0,1,1,7,7,9
0,0,0,0,0,0,1,2,2,0,6,8
0,0,0,0,0,0,1,2,2,0,6,1
0,0,0,0,0,0,1,2,2,0,6,1
0,0,0,0,0,0,0,4,4,4,4,31
0,0,0,0,0,0,1,2,2,0,1,21
0,0,0,0,0,0,1,2,2,0,6,1
0,0,0,0,0,0,1,2,2,0,6,1
0,0,0,0,0,0,0,1,1,7,7,9
0,0,0,0,0,0,1,2,2,0,6,1
0,0,0,0,0,0,1,2,2,8,14,6
0,0,0,0,0,0,0,0,0,2,13,16
0,0,0,0,0,0,0,0,0,2,2,11
0,0,0,0,0,0,1,2,2,0,6,1
0,0,0,0,0,0,1,2,2,0,6,1
0,0,0,0,0,0,0,4,4,3,8,5
0,0,0,0,0,0,1,2,2,0,6,1
0,0,0,0,0,0,1,2,2,0,1,8
0,0,0,0,0,0,1,2,2,0,6,1
0,0,0,0,0,0,0,4,4,3,8,5
0,0,0,0,0,0,1,2,2,0,6,8
0,0,0,0,0,0,0,4,4,3,8,20
0,0,0,0,0,0,1,2,2,0,6,1
0,0,0,0,0,0,0,1,1,7,7,9
0,0,0,0,0,0,0,1,1,1,0,10
0,0,0,0,0,0,0,0,0,5,5,29
0,0,0,0,0,0,1,2,2,0,6,1
0,0,0,0,0,0,1,2,2,6,11,14
0,0,0,0,0,0,0,3,3,9,3,15
0,0,0,0,0,0,1,2,2,0,1,8
0,0,0,0,0,0,1,2,2,0,6,1
0,0,0,0,0,0,0,0,0,5,5,29
0,0,0,0,0,0,1,2,2,0,6,1
0,0,0,0,0,0,0,0,0,5,5,29
0,0,0,0,0,0,1,2,2,0,6,1
0,0,0,0,0,0,0,4,4,3,8,5
0,0,0,0,0,0,0,0,0,2,2,11
0,0,0,0,0,0,0,3,3,9,3,15
0,0,0,0,0,0,1,2,2,8,14,6
0,0,0,0,0,0,1,2,2,0,6,1
0,0,0,0,0,0,0,1,1,1,0,0
0,0,0,0,0,0,1,2,2,0,6,1
0,0,0,0,0,0,0,1,1,1,0,10
0,0,0,0,0,0,1,2,2,0,6,1
0,0,0,0,0,0,1,2,2,0,6,8
0,0,0,0,0,0,1,4,4,8,4,30
0,0,0,0,0,0,0,1,1,1,0,0
0,0,0,0,0,0,1,2,2,8,14,6
0,0,0,0,0,0,0,0,0,2,13,16
0,0,0,0,0,0,0,0,0,2,2,11
0,0,0,0,0,0,1,2,2,0,6,1
0,0,0,0,0,0,0,0,0,5,5,29
0,0,0,0,0,0,0,1,1,1,0,10
0,0,0,0,0,0,0,0,0,5,5,29
0,0,0,0,0,0,1,2,2,0,1,21
0,0,0,0,0,0,0,0,0,2,2,16
0,0,0,0,0,0,1,2,2,0,1,8
0,0,0,0,0,0,0,4,4,4,9,13
0,0,0,0,0,0,1,2,2,0,6,1
0,0,0,0,0,0,0,0,0,5,5,29
0,0,0,0,0,0,1,2,2,0,6,1
0,0,0,0,0,0,0,3,3,9,3,15
0,0,0,0,0,0,1,2,2,0,6,1
0,0,0,0,0,0,1,2,2,8,16,6
0,0,0,0,0,0,1,2,2,0,6,1
0,0,0,0,0,0,1,2,2,0,6,1
0,0,0,0,0,0,1,2,2,0,6,1
0,0,0,0,0,0,0,1,1,1,0,10
0,0,0,0,0,0,0,0,0,5,5,29
0,0,0,0,0,0,1,2,2,0,1,8
0,0,0,0,0,0,1,2,2,0,6,1
0,0,0,0,0,0,1,2,2,8,1,21
0,0,0,0,0,0,0,0,0,5,5,29
0,0,0,0,0,0,0,1,1,7,7,7
0,0,0,0,0,0,0,1,1,7,15,17
0,0,0,0,0,0,1,2,2,0,6,1
0,0,0,0,0,0,0,1,1,7,7,9
0,0,0,0,0,0,0,3,3,9,3,15
0,0,0,0,0,0,1,2,2,0,1,8
0,0,0,0,0,0,0,1,1,7,7,9
0,0,0,0,0,0,1,2,2,8,14,21
0,0,0,0,0,0,1,2,2,0,6,1
0,0,0,0,0,0,1,2,2,0,6,1
0,0,0,0,0,0,1,2,2,0,6,1
0,0,0,0,0,0,1,2,2,0,6,1
0,0,0,0,0,0,1,2,2,0,6,1
0,0,0,0,0,0,1,2,2,8,1,23
0,0,0,0,0,0,0,1,1,1,0,0
0,0,0,0,0,0,1,2,2,8,16,18
0,0,0,0,0,0,1,2,2,0,6,1
0,0,0,0,0,0,0,0,0,2,2,28
0,0,0,0,0,0,1,2,2,0,6,1
0,0,0,0,0,0,1,2,2,0,1,21
0,0,0,0,0,0,0,0,0,5,5,29
0,0,0,0,0,0,0,1,1,7,7,9
0,0,0,0,0,0,0,1,1,1,0,10
0,0,0,0,0,0,1,2,2,0,6,1
0,0,0,0,0,0,0,0,0,2,2,28
0,0,0,0,0,0,0,3,3,9,3,15
0,0,0,0,0,0,0,1,1,1,0,10
0,0,0,0,0,0,0,3,3,6,10,3
0,0,0,0,0,0,0,0,0,2,2,27
0,0,0,0,0,0,1,2,2,0,1,8
0,0,0,0,0,0,0,1,1,7,7,7
0,0,0,0,0,0,1,2,2,0,6,1
0,0,0,0,0,0,0,4,4,4,9,13
0,0,0,0,0,0,1,2,2,8,16,18
0,0,0,0,0,0,1,2,2,0,6,1
0,0,0,0,0,0,1,2,2,0,6,1
0,0,0,0,0,0,0,1,1,1,0,10
0,0,0,0,0,0,1,2,2,0,6,1
0,0,0,0,0,0,0,3,3,6,10,3
0,0,0,0,0,0,1,2,2,0,6,1
0,0,0,0,0,0,1,2,2,8,16,18
0,0,0,0,0,0,1,2,2,0,6,1
0,0,0,0,0,0,1,2,2,0,6,1
0,0,0,0,0,0,1,2,2,0,6,1
0,0,0,0,0,0,1,2,2,0,6,1
0,0,0,0,0,0,1,2,2,0,6,1
0,0,0,0,0,0,1,2,2,0,6,1
0,0,0,0,0,0,1,2,2,0,6,1
0,0,0,0,0,0,1,2,2,8,16,18
0,0,0,0,0,0,0,4,4,10,12,26
0,0,0,0,0,0,0,1,1,1,0,0
0,0,0,0,0,0,1,2,2,8,14,6
0,0,0,0,0,0,0,1,1,1,0,0
0,0,0,0,0,0,1,2,2,0,6,8
0,0,0,0,0,0,0,0,0,2,2,11
0,0,0,0,0,0,1,2,2,8,1,21
0,0,0,0,0,0,0,1,1,7,15,17
0,0,0,0,0,0,1,2,2,0,1,8
0,0,0,0,0,0,1,2,2,8,1,21
0,0,0,0,0,0,1,2,2,0,6,1
0,0,0,0,0,0,0,4,4,3,8,20
0,0,0,0,0,0,0,1,1,1,0,0
0,0,0,0,0,0,1,2,2,0,6,1
0,0,0,0,0,0,0,3,3,6,10,25
0,0,0,0,0,0,0,0,0,2,2,2
0,0,0,0,0,0,0,4,4,3,8,20
0,0,0,0,0,0,1,2,2,0,1,8
0,0,0,0,0,0,1,2,2,0,6,1
0,0,0,0,0,0,1,2,2,0,1,8
0,0,0,0,0,0,0,1,1,7,7,9
0,0,0,0,0,0,0,1,1,1,0,0
0,0,0,0,0,0,1,2,2,0,6,1
0,0,0,0,0,0,1,2,2,0,6,1
0,0,0,0,0,0,1,2,2,0,6,1
0,0,0,0,0,0,0,3,3,9,3,15
0,0,0,0,0,0,0,1,1,1,0,10
0,0,0,0,0,0,0,0,0,2,2,11
0,0,0,0,0,0,1,2,2,8,16,7
0,0,0,0,0,0,0,0,0,2,2,2
0,0,0,0,0,0,0,3,3,9,3,15
0,0,0,0,0,0,1,2,2,0,6,1
0,0,0,0,0,0,0,0,0,2,13,16
0,0,0,0,0,0,1,2,2,0,6,1
0,0,0,0,0,0,0,3,3,9,3,15
0,0,0,0,0,0,1,2,2,0,6,1
0,0,0,0,0,0,1,2,2,0,6,1
0,0,0,0,0,0,1,2,2,0,6,1
0,0,0,0,0,0,1,2,2,0,6,1
0,0,0,0,0,0,0,0,0,5,5,29
0,0,0,0,0,0,1,2,2,0,6,1
0,0,0,0,0,0,1,2,2,0,6,1
0,0,0,0,0,0,0,3,3,9,3,15
0,0,0,0,0,0,1,2,2,8,14,6
0,0,0,0,0,0,0,1,1,1,0,10
0,0,0,0,0,0,0,0,0,2,2,11
0,0,0,0,0,0,0,1,1,1,0,0
0,0,0,0,0,0,0,0,0,5,5,29
0,0,0,0,0,0,0,3,3,9,3,15
0,0,0,0,0,0,0,3,3,9,3,15
0,0,0,0,0,0,1,2,2,0,6,1
0,0,0,0,0,0,0,1,1,1,0,0
0,0,0,0,0,0,0,1,1,1,0,10
0,0,0,0,0,0,0,0,0,5,5,29
0,0,0,0,0,0,1,2,2,0,6,1
0,0,0,0,0,0,1,2,2,0,6,8
0,0,0,0,0,0,0,3,3,9,3,15
0,0,0,0,0,0,1,2,2,0,6,1
0,0,0,0,0,0,0,3,3,6,10,25
0,0,0,0,0,0,0,3,3,9,3,15
0,0,0,0,0,0,0,3,3,6,10,3
0,0,0,0,0,0,1,2,2,0,6,1
0,0,0,0,0,0,1,2,2,0,6,1
0,0,0,0,0,0,1,2,2,0,6,1
0,0,0,0,0,0,1,2,2,0,6,1
0,0,0,0,0,0,0,1,1,1,0,10
0,0,0,0,0,0,1,2,2,8,1,21
0,0,0,0,0,0,0,1,1,7,7,9
0,0,0,0,0,0,0,3,3,9,3,3
0,0,0,0,0,0,0,0,0,2,2,11
0,0,0,0,0,0,0,4,4,4,9,31
0,0,0,0,0,0,1,2,2,8,1,21
0,0,0,0,0,0,1,2,2,0,6,1
0,0,0,0,0,0,1,2,2,0,1,21
0,0,0,0,0,0,0,0,0,5,5,29
0,0,0,0,0,0,1,2,2,0,6,1
0,0,0,0,0,0,1,2,2,0,1,8
0,0,0,0,0,0,1,2,2,0,6,1
0,0,0,0,0,0,0,3,3,9,3,15
0,0,0,0,0,0,0,1,1,7,15,17
0,0,0,0,0,0,1,2,2,0,6,1
0,0,0,0,0,0,0,1,1,1,0,10
0,0,0,0,0,0,1,2,2,0,6,1
0,0,0,0,0,0,1,2,2,0,6,1
0,0,0,0,0,0,1,2,2,0,6,1
0,0,0,0,0,0,1,2,2,0,6,1
0,0,0,0,0,0,0,1,1,1,0,10
0,0,0,0,0,0,0,1,1,1,0,10
0,0,0,0,0,0,1,2,2,0,6,8
0,0,0,0,0,0,1,2,2,8,14,6
0,0,0,0,0,0,1,2,2,0,6,1
0,0,0,0,0,0,1,2,2,0,6,1
0,0,0,0,0,0,1,2,2,0,6,1
0,0,0,0,0,0,1,2,2,0,6,1
0,0,0,0,0,0,1,2,2,0,6,1
0,0,0,0,0,0,1,2,2,0,6,1
0,0,0,0,0,0,1,2,2,0,1,21
0,0,0,0,0,0,0,1,1,1,0,10
0,0,0,0,0,0,1,2,2,0,1,8
0,0,0,0,0,0,0,3,3,9,3,15
0,0,0,0,0,0,0,0,0,5,5,2
0,0,0,0,0,0,0,0,0,5,5,2
0,0,0,0,0,0,1,2,2,0,1,21
0,0,0,0,0,0,0,1,1,1,0,10
0,0,0,0,0,0,1,2,2,0,6,1
0,0,0,0,0,0,1,2,2,8,16,18
0,0,0,0,0,0,1,2,2,0,6,1
0,0,0,0,0,0,1,2,2,0,6,1
0,0,0,0,0,0,0,1,1,1,0,0
0,0,0,0,0,0,0,3,3,9,3,15
0,0,0,0,0,0,0,1,1,1,0,10
0,0,0,0,0,0,1,2,2,0,6,1
0,0,0,0,0,0,0,0,0,5,5,29
0,0,0,0,0,0,1,2,2,0,6,1
0,0,0,0,0,0,1,2,2,8,16,18
0,0,0,0,0,0,0,0,0,5,5,29
0,0,0,0,0,0,1,2,2,0,6,1
0,0,0,0,0,0,1,2,2,0,6,1
0,0,0,0,0,0,0,4,4,4,4,4
0,0,0,0,0,0,0,4,4,6,4,30
0,0,0,0,0,0,0,1,1,7,7,7
0,0,0,0,0,0,1,2,2,0,6,1
0,0,0,0,0,0,0,1,1,1,0,10
0,0,0,0,0,0,1,2,2,0,6,1
0,0,0,0,0,0,0,4,4,3,8,5
0,0,0,0,0,0,1,2,2,0,6,1
0,0,0,0,0,0,1,2,2,8,14,21
0,0,0,0,0,0,0,1,1,1,0,10
0,0,0,0,0,0,0,3,3,9,3,15
0,0,0,0,0,0,1,2,2,0,1,8
0,0,0,0,0,0,0,3,3,9,3,15
0,0,0,0,0,0,1,2,2,0,6,1
0,0,0,0,0,0,1,2,2,0,6,1
0,0,0,0,0,0,0,3,3,9,3,15
0,0,0,0,0,0,0,0,0,5,2,2
0,0,0,0,0,0,0,0,0,5,5,29
0,0,0,0,0,0,0,0,0,5,5,2
0,0,0,0,0,0,1,2,2,0,6,1
0,0,0,0,0,0,0,3,3,9,3,15
0,0,0,0,0,0,1,2,2,0,6,1
0,0,0,0,0,0,0,1,1,7,15,17
0,0,0,0,0,0,1,2,2,0,6,1
0,0,0,0,0,0,0,1,1,1,0,10
0,0,0,0,0,0,0,3,3,9,3,15
0,0,0,0,0,0,0,1,1,7,7,9
0,0,0,0,0,0,0,1,1,7,15,17
0,0,0,0,0,0,1,2,2,0,6,1
0,0,0,0,0,0,1,2,2,8,14,6
0,0,0,0,0,0,1,2,2,8,14,6
0,0,0,0,0,0,1,2,2,8,1,21
0,0,0,0,0,0,1,2,2,8,14,6
0,0,0,0,0,0,0,0,0,5,5,29
0,0,0,0,0,0,1,2,2,0,6,1
0,0,0,0,0,0,0,0,0,2,2,11
0,0,0,0,0,0,1,2,2,0,6,1
0,0,0,0,0,0,0,1,1,1,0,10
0,0,0,0,0,0,0,0,0,2,13,16
0,0,0,0,0,0,0,1,1,1,0,10
0,0,0,0,0,0,0,1,1,1,0,10
0,0,0,0,0,0,1,2,2,0,6,1
0,0,0,0,0,0,0,1,1,1,0,10
0,0,0,0,0,0,0,1,1,1,0,0
0,0,0,0,0,0,1,2,2,8,14,6
0,0,0,0,0,0,0,3,3,9,3,15
0,0,0,0,0,0,1,2,2,8,16,18
0,0,0,0,0,0,1,2,2,8,1,23
0,0,0,0,0,0,1,2,2,0,6,1
0,0,0,0,0,0,1,2,2,0,1,8
0,0,0,0,0,0,1,2,2,0,6,1
0,0,0,0,0,0,1,2,2,8,1,8
0,0,0,0,0,0,1,2,2,0,6,1
0,0,0,0,0,0,1,2,2,0,6,1
0,0,0,0,0,0,0,1,1,1,0,10
0,0,0,0,0,0,0,1,1,1,0,10
0,0,0,0,0,0,0,1,1,1,0,10
0,0,0,0,0,0,0,3,3,9,3,15
0,0,0,0,0,0,1,2,2,0,6,1
0,0,0,0,0,0,0,1,1,1,0,10
0,0,0,0,0,0,1,2,2,0,6,1
0,0,0,0,0,0,0,1,1,7,15,17
0,0,0,0,0,0,1,2,2,0,6,1
0,0,0,0,0,0,1,2,2,0,1,8
0,0,0,0,0,0,1,2,2,0,6,1
0,0,0,0,0,0,1,2,2,0,6,1
0,0,0,0,0,0,1,2,2,0,6,1
0,0,0,0,0,0,0,3,3,9,3,15
0,0,0,0,0,0,0,3,3,9,3,15
0,0,0,0,0,0,1,2,2,0,6,1
0,0,0,0,0,0,0,1,1,7,7,9
0,0,0,0,0,0,0,4,4,4,4,4
0,0,0,0,0,0,1,2,2,0,6,1
0,0,0,0,0,0,0,1,1,1,0,0
0,0,0,0,0,0,1,2,2,8,14,6
0,0,0,0,0,0,1,2,2,0,6,1
0,0,0,0,0,0,0,4,4,4,9,13
0,0,0,0,0,0,1,2,2,0,1,8
0,0,0,0,0,0,0,3,3,9,3,15
0,0,0,0,0,0,1,2,2,0,6,1
0,0,0,0,0,0,0,1,1,1,0,10
0,0,0,0,0,0,1,2,2,8,14,21
0,0,0,0,0,0,0,4,4,3,8,5
0,0,0,0,0,0,0,3,3,9,3,15
0,0,0,0,0,0,1,2,2,0,6,1
0,0,0,0,0,0,1,2,2,0,6,1
0,0,0,0,0,0,1,2,2,8,14,6
0,0,0,0,0,0,1,2,2,0,6,1
0,0,0,0,0,0,0,3,3,9,3,15
0,0,0,0,0,0,0,1,1,1,0,0
0,0,0,0,0,0,1,2,2,8,14,21
0,0,0,0,0,0,0,3,3,9,3,15
0,0,0,0,0,0,1,2,2,0,6,1
0,0,0,0,0,0,1,2,2,0,6,8
0,0,0,0,0,0,1,2,2,0,6,1
0,0,0,0,0,0,1,2,2,0,6,1
0,0,0,0,0,0,0,3,3,6,10,27
0,0,0,0,0,0,0,0,0,2,13,16
0,0,0,0,0,0,0,3,3,6,11,14
0,0,0,0,0,0,0,3,3,6,10,3
0,0,0,0,0,0,1,2,2,0,6,1
0,0,0,0,0,0,0,1,1,1,0,0
0,0,0,0,0,0,0,1,1,7,7,0
0,0,0,0,0,0,0,1,1,1,0,10
0,0,0,0,0,0,1,2,2,0,6,1
0,0,0,0,0,0,0,3,3,9,3,3
0,0,0,0,0,0,1,2,2,8,16,18
0,0,0,0,0,0,1,2,2,0,6,1
0,0,0,0,0,0,1,2,2,0,6,1
0,0,0,0,0,0,0,3,3,6,10,19
0,0,0,0,0,0,1,2,2,8,16,18
0,0,0,0,0,0,1,2,2,0,6,1
0,0,0,0,0,0,0,1,1,7,7,9
0,0,0,0,0,0,1,2,2,0,6,1
0,0,0,0,0,0,1,2,2,0,1,8
0,0,0,0,0,0,1,2,2,0,6,1
0,0,0,0,0,0,1,2,2,8,1,23
0,0,0,0,0,0,0,4,4,3,8,5
0,0,0,0,0,0,1,2,2,0,6,1
0,0,0,0,0,0,1,2,2,0,1,8
0,0,0,0,0,0,1,2,2,0,6,1
0,0,0,0,0,0,1,2,2,0,6,1
0,0,0,0,0,0,1,2,2,0,6,1
0,0,0,0,0,0,0,3,3,9,3,3
0,0,0,0,0,0,0,1,1,1,0,0
0,0,0,0,0,0,0,0,0,5,5,29
0,0,0,0,0,0,0,1,1,7,15,17
0,0,0,0,0,0,1,2,2,8,14,21
0,0,0,0,0,0,0,1,1,1,0,10
0,0,0,0,0,0,0,3,3,9,10,3
0,0,0,0,0,0,0,0,0,2,2,16
0,0,0,0,0,0,0,0,0,5,5,29
0,0,0,0,0,0,0,0,0,5,5,29
0,0,0,0,0,0,1,2,2,0,6,1
0,0,0,0,0,0,1,2,2,0,6,1
0,0,0,0,0,0,1,2,2,8,16,18
0,0,0,0,0,0,1,2,2,0,6,1
0,0,0,0,0,0,0,0,0,5,5,2
0,0,0,0,0,0,0,0,0,5,5,2
0,0,0,0,0,0,0,3,3,6,10,25
0,0,0,0,0,0,1,2,2,0,6,1
0,0,0,0,0,0,0,4,4,6,11,22
0,0,0,0,0,0,0,0,0,2,2,11
0,0,0,0,0,0,0,3,3,9,3,3
0,0,0,0,0,0,1,2,2,0,6,1
0,0,0,0,0,0,1,2,2,0,6,8
0,0,0,0,0,0,0,3,3,6,11,14
0,0,0,0,0,0,0,1,1,1,0,10
0,0,0,0,0,0,0,1,1,1,0,0
0,0,0,0,0,0,1,2,2,8,1,21
0,0,0,0,0,0,1,2,2,0,6,1
0,0,0,0,0,0,1,2,2,8,14,6
0,0,0,0,0,0,1,2,2,8,14,6
0,0,0,0,0,0,1,2,2,0,6,1
0,0,0,0,0,0,1,2,2,0,6,1
0,0,0,0,0,0,0,0,0,5,5,29
0,0,0,0,0,0,1,2,2,8,14,6
0,0,0,0,0,0,0,2,2,8,14,6
0,0,0,0,0,0,0,1,1,1,0,10
0,0,0,0,0,0,0,0,0,5,5,29
0,0,0,0,0,0,0,4,4,4,9,13
0,0,0,0,0,0,0,1,1,1,0,0
0,0,0,0,0,0,1,2,2,0,6,1
0,0,0,0,0,0,1,2,2,0,6,1
0,0,0,0,0,0,0,1,1,1,0,10
0,0,0,0,0,0,0,1,1,1,0,0
0,0,0,0,0,0,1,2,2,8,16,18
0,0,0,0,0,0,1,2,2,0,6,1
0,0,0,0,0,0,0,1,1,1,0,10
0,0,0,0,0,0,0,1,1,1,0,10
0,0,0,0,0,0,1,2,2,0,6,1
0,0,0,0,0,0,1,2,2,0,6,8
0,0,0,0,0,0,1,2,2,0,6,1
0,0,0,0,0,0,1,2,2,0,6,1
0,0,0,0,0,0,0,3,3,9,3,15
0,0,0,0,0,0,1,2,2,8,1,21
0,0,0,0,0,0,1,2,2,0,6,1
0,0,0,0,0,0,0,0,0,2,2,2
0,0,0,0,0,0,1,2,2,0,6,1
0,0,0,0,0,0,0,0,0,5,5,29
0,0,0,0,0,0,0,0,0,2,2,11
0,0,0,0,0,0,0,1,1,7,7,7
0,0,0,0,0,0,1,2,2,8,14,6
0,0,0,0,0,0,0,1,1,1,0,0
0,0,0,0,0,0,1,2,2,0,6,1
0,0,0,0,0,0,0,0,0,2,2,27
0,0,0,0,0,0,0,0,0,5,5,29
0,0,0,0,0,0,0,0,0,5,5,29
0,0,0,0,0,0,0,1,1,7,14,7
0,0,0,0,0,0,0,0,0,5,5,29
0,0,0,0,0,0,0,1,1,1,0,10
0,0,0,0,0,0,1,2,2,0,6,1
0,0,0,0,0,0,1,2,2,8,16,7
0,0,0,0,0,0,1,2,2,0,1,8
0,0,0,0,0,0,1,2,2,8,16,18
0,0,0,0,0,0,0,1,1,1,0,0
0,0,0,0,0,0,0,3,3,9,3,15
0,0,0,0,0,0,1,2,2,0,6,1
0,0,0,0,0,0,0,1,1,1,0,10
0,0,0,0,0,0,1,2,2,0,6,1
0,0,0,0,0,0,1,2,2,8,1,23
0,0,0,0,0,0,0,0,0,5,5,2
0,0,0,0,0,0,1,2,2,0,6,1
0,0,0,0,0,0,1,2,2,0,6,1
0,0,0,0,0,0,0,1,1,1,0,10
0,0,0,0,0,0,1,2,2,0,6,1
0,0,0,0,0,0,0,1,1,7,7,9
0,0,0,0,0,0,0,0,0,5,5,29
0,0,0,0,0,0,0,1,1,1,0,10
0,0,0,0,0,0,0,1,1,1,0,10
0,0,0,0,0,0,0,4,4,4,9,13
0,0,0,0,0,0,1,2,2,8,1,21
0,0,0,0,0,0,1,2,2,0,6,8
0,0,0,0,0,0,1,2,2,0,6,1
0,0,0,0,0,0,0,3,3,9,3,3
0,0,0,0,0,0,0,1,1,1,0,10
0,0,0,0,0,0,1,2,2,0,1,8
0,0,0,0,0,0,0,1,1,1,0,10
0,0,0,0,0,0,0,3,3,9,3,3
0,0,0,0,0,0,0,3,3,6,10,3
0,0,0,0,0,0,1,2,2,0,6,1
0,0,0,0,0,0,1,2,2,0,6,1
0,0,0,0,0,0,0,1,1,1,0,0
0,0,0,0,0,0,1,2,2,0,6,1
0,0,0,0,0,0,0,0,0,2,2,11
0,0,0,0,0,0,0,1,1,1,0,0
0,0,0,0,0,0,1,2,2,0,6,1
0,0,0,0,0,0,0,0,0,5,5,29
0,0,0,0,0,0,1,2,2,0,1,8
0,0,0,0,0,0,1,2,2,8,16,18
0,0,0,0,0,0,1,2,2,8,11,14
0,0,0,0,0,0,0,1,1,1,0,10
0,0,0,0,0,0,1,2,2,8,16,18
0,0,0,0,0,0,1,2,2,0,1,18
0,0,0,0,0,0,1,2,2,0,6,1
0,0,0,0,0,0,0,4,4,3,8,5
0,0,0,0,0,0,0,4,4,10,12,26
0,0,0,0,0,0,0,1,1,7,7,9
0,0,0,0,0,0,0,0,0,5,5,2
0,0,0,0,0,0,1,2,2,0,6,1
0,0,0,0,0,0,1,2,2,0,6,1
0,0,0,0,0,0,0,3,3,9,3,15
0,0,0,0,0,0,1,2,2,0,6,1
0,0,0,0,0,0,1,2,2,0,6,1
0,0,0,0,0,0,1,2,2,8,13,23
0,0,0,0,0,0,0,1,1,7,15,17
0,0,0,0,0,0,0,0,0,5,5,29
0,0,0,0,0,0,0,3,3,6,11,19
0,0,0,0,0,0,1,2,2,0,6,1
0,0,0,0,0,0,1,2,2,0,6,1
0,0,0,0,0,0,0,0,0,2,5,2
0,0,0,0,0,0,1,2,2,0,6,1
0,0,0,0,0,0,1,2,2,0,6,8
0,0,0,0,0,0,1,2,2,0,6,1
0,0,0,0,0,0,0,1,1,7,7,9
0,0,0,0,0,0,0,3,3,6,11,19
0,0,0,0,0,0,1,2,2,0,6,1
0,0,0,0,0,0,0,3,3,9,3,15
0,0,0,0,0,0,0,3,3,9,3,15
0,0,0,0,0,0,1,2,2,0,1,8
0,0,0,0,0,0,0,0,0,5,5,2
0,0,0,0,0,0,1,2,2,0,1,8
0,0,0,0,0,0,1,2,2,0,6,1
0,0,0,0,0,0,1,2,2,0,6,1
0,0,0,0,0,0,0,3,3,9,3,15
0,0,0,0,0,0,1,2,2,8,14,6
0,0,0,0,0,0,0,1,1,1,0,10
0,0,0,0,0,0,1,2,2,0,6,1
0,0,0,0,0,0,1,2,2,8,11,14
0,0,0,0,0,0,1,2,2,0,6,1
0,0,0,0,0,0,1,2,2,0,6,8
0,0,0,0,0,0,0,4,4,4,9,13
0,0,0,0,0,0,0,1,1,1,0,10
0,0,0,0,0,0,1,2,2,0,1,8
0,0,0,0,0,0,1,2,2,0,1,8
0,0,0,0,0,0,1,2,2,0,6,1
0,0,0,0,0,0,0,4,4,8,11,22
0,0,0,0,0,0,1,2,2,0,6,1
0,0,0,0,0,0,1,2,2,0,1,8
0,0,0,0,0,0,1,2,2,0,6,1
0,0,0,0,0,0,0,3,3,9,3,3
0,0,0,0,0,0,0,0,0,5,5,2
0,0,0,0,0,0,0,1,1,1,0,0
0,0,0,0,0,0,0,1,1,1,0,10
0,0,0,0,0,0,0,3,3,6,10,27
0,0,0,0,0,0,1,2,2,8,16,18
0,0,0,0,0,0,0,1,1,1,0,10
0,0,0,0,0,0,0,0,0,5,5,29
0,0,0,0,0,0,0,1,1,1,0,10
0,0,0,0,0,0,1,2,2,0,1,21
0,0,0,0,0,0,1,2,2,0,6,1
0,0,0,0,0,0,0,0,0,5,5,29
0,0,0,0,0,0,0,1,1,7,7,9
0,0,0,0,0,0,0,0,0,5,5,2
0,0,0,0,0,0,0,0,0,5,5,29
0,0,0,0,0,0,1,2,2,0,6,1
0,0,0,0,0,0,1,2,2,0,6,1
0,0,0,0,0,0,1,2,2,0,6,1
0,0,0,0,0,0,1,2,2,0,6,8
0,0,0,0,0,0,1,2,2,0,6,1
0,0,0,0,0,0,1,2,2,0,6,1
0,0,0,0,0,0,1,2,2,0,6,1
0,0,0,0,0,0,0,1,1,1,0,0
0,0,0,0,0,0,1,2,2,0,6,1
0,0,0,0,0,0,0,1,1,1,0,10
0,0,0,0,0,0,1,2,2,0,6,1
0,0,0,0,0,0,0,1,1,1,0,10
0,0,0,0,0,0,0,1,1,1,0,10
0,0,0,0,0,0,0,0,0,5,5,29
0,0,0,0,0,0,1,2,2,0,6,1
0,0,0,0,0,0,1,2,2,0,6,1
0,0,0,0,0,0,0,1,1,1,0,10
0,0,0,0,0,0,0,3,3,9,3,15
0,0,0,0,0,0,1,2,2,0,6,1
0,0,0,0,0,0,1,2,2,0,6,1
0,0,0,0,0,0,0,0,0,5,5,29
0,0,0,0,0,0,1,2,2,0,1,8
0,0,0,0,0,0,1,2,2,0,6,1
0,0,0,0,0,0,0,4,4,2,4,31
0,0,0,0,0,0,0,3,3,9,3,15
0,0,0,0,0,0,1,2,2,0,6,1
0,0,0,0,0,0,1,2,2,0,6,1
0,0,0,0,0,0,1,2,2,0,6,1
0,0,0,0,0,0,0,1,1,7,15,17
0,0,0,0,0,0,1,2,2,0,6,1
0,0,0,0,0,0,0,0,0,2,2,11
0,0,0,0,0,0,1,2,2,0,6,1
0,0,0,0,0,0,1,2,2,0,6,1
0,0,0,0,0,0,1,2,2,8,16,18
0,0,0,0,0,0,1,2,2,8,13,23
0,0,0,0,0,0,1,2,2,0,6,1
0,0,0,0,0,0,1,2,2,0,6,1
0,0,0,0,0,0,1,2,2,0,6,1
0,0,0,0,0,0,1,2,2,0,6,1
0,0,0,0,0,0,1,2,2,0,6,1
0,0,0,0,0,0,0,2,2,7,16,7
0,0,0,0,0,0,1,2,2,8,14,6
0,0,0,0,0,0,1,2,2,0,6,8
0,0,0,0,0,0,1,2,2,0,6,1
0,0,0,0,0,0,1,2,2,0,6,1
0,0,0,0,0,0,1,2,2,0,1,8
0,0,0,0,0,0,1,2,2,0,6,1
0,0,0,0,0,0,0,1,1,7,15,17
0,0,0,0,0,0,0,1,1,1,0,10
0,0,0,0,0,0,0,1,1,1,0,10
0,0,0,0,0,0,1,2,2,0,6,8
0,0,0,0,0,0,1,2,2,8,16,23
0,0,0,0,0,0,1,2,2,0,6,1
0,0,0,0,0,0,1,2,2,8,13,23
0,0,0,0,0,0,0,1,1,7,7,7
0,0,0,0,0,0,1,2,2,0,1,8
0,0,0,0,0,0,1,2,2,0,6,1
0,0,0,0,0,0,0,1,1,1,0,10
0,0,0,0,0,0,0,1,1,1,0,0
0,0,0,0,0,0,0,4,4,4,4,4
0,0,0,0,0,0,0,1,1,1,0,0
0,0,0,0,0,0,1,2,2,0,6,1
0,0,0,0,0,0,1,2,2,0,6,1
0,0,0,0,0,0,0,1,1,1,0,0
0,0,0,0,0,0,0,0,0,5,5,29
0,0,0,0,0,0,1,2,2,8,1,21
0,0,0,0,0,0,1,2,2,0,6,1
0,0,0,0,0,0,0,4,4,3,8,5
0,0,0,0,0,0,1,2,2,0,6,1
0,0,0,0,0,0,0,0,0,2,2,11
0,0,0,0,0,0,0,0,0,5,5,2
0,0,0,0,0,0,1,2,2,8,13,23
0,0,0,0,0,0,0,0,0,5,5,29
0,0,0,0,0,0,0,1,1,7,7,9
0,0,0,0,0,0,1,2,2,0,6,1
0,0,0,0,0,0,0,3,3,9,3,3
0,0,0,0,0,0,1,2,2,0,6,1
0,0,0,0,0,0,1,2,2,0,1,8
0,0,0,0,0,0,0,3,3,9,3,15
0,0,0,0,0,0,1,2,2,0,6,1
0,0,0,0,0,0,1,2,2,0,6,1
0,0,0,0,0,0,0,0,0,5,5,29
0,0,0,0,0,0,1,2,2,8,13,23
0,0,0,0,0,0,0,3,3,9,3,15
0,0,0,0,0,0,0,1,1,7,7,7
0,0,0,0,0,0,0,1,1,7,7,9
0,0,0,0,0,0,1,2,2,0,6,1
0,0,0,0,0,0,1,2,2,0,6,1
0,0,0,0,0,0,0,0,0,5,5,29
0,0,0,0,0,0,1,2,2,0,1,8
0,0,0,0,0,0,1,2,2,0,1,21
0,0,0,0,0,0,1,2,2,0,6,8
0,0,0,0,0,0,0,0,0,2,2,11
0,0,0,0,0,0,0,4,4,4,9,13
0,0,0,0,0,0,0,1,1,1,0,0
0,0,0,0,0,0,1,2,2,0,6,1
0,0,0,0,0,0,1,2,2,0,6,1
0,0,0,0,0,0,1,2,2,0,6,1
0,0,0,0,0,0,1,2,2,0,6,1
0,0,0,0,0,0,1,2,2,0,6,1
0,0,0,0,0,0,0,1,1,1,0,10
0,0,0,0,0,0,1,2,2,0,1,8
0,0,0,0,0,0,1,2,2,0,6,1
0,0,0,0,0,0,0,0,0,5,5,29
0,0,0,0,0,0,1,2,2,8,13,23
0,0,0,0,0,0,0,0,0,2,13,16
0,0,0,0,0,0,1,2,2,0,6,1
0,0,0,0,0,0,1,2,2,0,6,1
0,0,0,0,0,0,1,2,2,0,6,1
0,0,0,0,0,0,0,1,1,1,0,0
0,0,0,0,0,0,1,2,2,8,16,7
0,0,0,0,0,0,0,1,1,1,0,10
0,0,0,0,0,0,0,1,1,7,15,17
0,0,0,0,0,0,1,2,2,2,13,16
0,0,0,0,0,0,0,1,1,7,7,9
0,0,0,0,0,0,1,2,2,0,6,1
0,0,0,0,0,0,0,1,1,1,0,10
0,0,0,0,0,0,0,4,4,4,4,30
0,0,0,0,0,0,0,0,0,5,5,29
0,0,0,0,0,0,1,2,2,0,6,1
0,0,0,0,0,0,0,1,1,1,0,10
0,0,0,0,0,0,1,2,2,0,6,1
0,0,0,0,0,0,0,3,3,9,3,15
0,0,0,0,0,0,0,0,0,2,2,2
0,0,0,0,0,0,0,4,4,4,9,4
0,0,0,0,0,0,0,1,1,1,0,10
0,0,0,0,0,0,0,0,0,5,5,29
0,0,0,0,0,0,1,2,2,0,6,1
0,0,0,0,0,0,1,2,2,0,6,1
0,0,0,0,0,0,1,2,2,0,6,1
0,0,0,0,0,0,1,2,2,0,6,1
0,0,0,0,0,0,0,1,1,7,7,7
0,0,0,0,0,0,0,1,1,7,15,0
0,0,0,0,0,0,1,2,2,0,1,8
0,0,0,0,0,0,0,3,3,9,3,15
0,0,0,0,0,0,1,2,2,0,6,1
0,0,0,0,0,0,0,3,3,9,3,15
0,0,0,0,0,0,0,1,1,7,15,0
0,0,0,0,0,0,1,2,2,8,16,18
0,0,0,0,0,0,1,2,2,8,1,21
0,0,0,0,0,0,1,3,3,6,11,14
0,0,0,0,0,0,0,0,0,5,5,29
0,0,0,0,0,0,1,2,2,0,6,1
0,0,0,0,0,0,1,2,2,0,6,1
0,0,0,0,0,0,1,2,2,8,16,18
0,0,0,0,0,0,0,0,0,5,5,29
0,0,0,0,0,0,1,2,2,0,6,1
0,0,0,0,0,0,1,2,2,8,16,18
0,0,0,0,0,0,0,0,0,5,5,29
0,0,0,0,0,0,0,1,1,7,7,9
0,0,0,0,0,0,0,3,3,9,3,15
0,0,0,0,0,0,1,2,2,0,6,1
0,0,0,0,0,0,0,1,1,7,0,0
0,0,0,0,0,0,1,2,2,0,6,1
0,0,0,0,0,0,0,0,0,5,5,29
0,0,0,0,0,0,0,1,1,7,15,17
0,0,0,0,0,0,0,3,3,9,3,3
0,0,0,0,0,0,0,1,1,1,0,10
0,0,0,0,0,0,1,2,2,0,6,1
0,0,0,0,0,0,1,2,2,0,6,1
0,0,0,0,0,0,1,2,2,0,6,1
0,0,0,0,0,0,1,2,2,8,14,6
0,0,0,0,0,0,0,1,1,7,15,17
0,0,0,0,0,0,1,2,2,8,14,6
0,0,0,0,0,0,1,2,2,0,6,8
0,0,0,0,0,0,1,2,2,8,1,21
0,0,0,0,0,0,1,2,2,0,6,1
0,0,0,0,0,0,1,2,2,0,6,1
0,0,0,0,0,0,0,1,1,7,7,7
0,0,0,0,0,0,1,2,2,0,6,1
0,0,0,0,0,0,0,0,0,5,5,29
0,0,0,0,0,0,1,2,2,0,6,1
0,0,0,0,0,0,0,1,1,1,0,10
0,0,0,0,0,0,1,2,2,0,6,1
0,0,0,0,0,0,1,2,2,0,6,1
0,0,0,0,0,0,1,2,2,0,6,1
0,0,0,0,0,0,0,1,1,1,0,10
0,0,0,0,0,0,0,1,1,7,7,9
0,0,0,0,0,0,1,2,2,8,14,6
0,0,0,0,0,0,0,3,3,9,3,15
0,0,0,0,0,0,0,1,1,1,0,10
0,0,0,0,0,0,0,4,4,4,9,4
0,0,0,0,0,0,0,4,4,4,9,13
0,0,0,0,0,0,1,2,2,0,6,1
0,0,0,0,0,0,1,2,2,0,6,1
0,0,0,0,0,0,0,0,0,5,5,29
0,0,0,0,0,0,1,2,2,0,6,1
0,0,0,0,0,0,0,1,1,7,15,17
0,0,0,0,0,0,0,1,1,1,0,10
0,0,0,0,0,0,1,2,2,0,6,1
0,0,0,0,0,0,1,2,2,0,6,1
0,0,0,0,0,0,1,2,2,0,1,8
0,0,0,0,0,0,0,3,3,9,3,15
0,0,0,0,0,0,0,1,1,1,0,10
0,0,0,0,0,0,1,2,2,0,6,1
0,0,0,0,0,0,1,2,2,0,1,8
0,0,0,0,0,0,0,3,3,6,11,14
0,0,0,0,0,0,1,2,2,0,1,8
0,0,0,0,0,0,1,2,2,0,6,1
0,0,0,0,0,0,0,3,3,9,3,3
0,0,0,0,0,0,0,4,4,4,9,13
0,0,0,0,0,0,1,2,2,0,6,8
0,0,0,0,0,0,1,2,2,0,6,1
0,0,0,0,0,0,1,2,2,0,1,8
0,0,0,0,0,0,1,2,2,0,6,1
0,0,0,0,0,0,0,1,1,1,0,10
0,0,0,0,0,0,0,1,1,1,0,10
0,0,0,0,0,0,1,2,2,0,6,1
0,0,0,0,0,0,0,1,1,1,0,10
0,0,0,0,0,0,1,2,2,0,6,1
0,0,0,0,0,0,0,1,1,1,0,10
0,0,0,0,0,0,1,2,2,0,6,1
0,0,0,0,0,0,0,4,4,4,4,30
0,0,0,0,0,0,1,2,2,0,1,21
0,0,0,0,0,0,1,2,2,0,6,1
0,0,0,0,0,0,1,2,2,0,6,1
0,0,0,0,0,0,1,2,2,8,1,21
0,0,0,0,0,0,1,2,2,0,6,1
0,0,0,0,0,0,1,2,2,0,1,8
0,0,0,0,0,0,1,2,2,0,6,1
0,0,0,0,0,0,1,2,2,0,6,1
0,0,0,0,0,0,0,4,4,4,9,13
0,0,0,0,0,0,1,2,2,0,6,1
0,0,0,0,0,0,1,2,2,0,6,1
0,0,0,0,0,0,0,4,4,4,4,4
0,0,0,0,0,0,1,2,2,0,1,8
0,0,0,0,0,0,1,2,2,0,6,1
0,0,0,0,0,0,0,1,1,1,0,10
0,0,0,0,0,0,0,0,0,2,2,11
0,0,0,0,0,0,1,2,2,0,6,1
0,0,0,0,0,0,1,2,2,0,6,1
0,0,0,0,0,0,1,2,2,0,6,8
0,0,0,0,0,0,0,1,1,1,0,10
0,0,0,0,0,0,0,2,2,6,11,14
0,0,0,0,0,0,1,2,2,0,6,1
0,0,0,0,0,0,1,2,2,0,6,1
0,0,0,0,0,0,1,2,2,8,16,18
0,0,0,0,0,0,0,3,3,6,10,3
0,0,0,0,0,0,1,2,2,0,6,1
0,0,0,0,0,0,0,1,1,1,0,10
0,0,0,0,0,0,1,2,2,8,14,6
0,0,0,0,0,0,1,2,2,0,6,1
0,0,0,0,0,0,1,4,4,8,4,30
0,0,0,0,0,0,0,4,4,4,4,4
0,0,0,0,0,0,1,2,2,0,6,1
0,0,0,0,0,0,0,1,1,1,0,0
0,0,0,0,0,0,1,2,2,8,14,6
0,0,0,0,0,0,1,2,2,0,6,8
0,0,0,0,0,0,1,2,2,0,6,1
0,0,0,0,0,0,1,2,2,0,6,1
0,0,0,0,0,0,1,2,2,0,6,1
0,0,0,0,0,0,0,1,1,1,0,0
0,0,0,0,0,0,0,1,1,1,0,10
0,0,0,0,0,0,0,1,1,7,7,9
0,0,0,0,0,0,0,1,1,1,0,10
0,0,0,0,0,0,0,3,3,6,10,25
0,0,0,0,0,0,0,2,2,7,16,7
0,0,0,0,0,0,0,3,3,9,3,15
0,0,0,0,0,0,0,4,4,4,9,13
0,0,0,0,0,0,0,1,1,1,0,0
0,0,0,0,0,0,1,2,2,0,6,1
0,0,0,0,0,0,1,2,2,8,1,21
0,0,0,0,0,0,1,2,2,8,1,8
0,0,0,0,0,0,1,2,2,0,6,8
0,0,0,0,0,0,0,1,1,7,7,7
0,0,0,0,0,0,1,2,2,8,14,6
0,0,0,0,0,0,0,0,0,5,5,2
0,0,0,0,0,0,1,2,2,0,6,1
0,0,0,0,0,0,1,2,2,0,6,1
0,0,0,0,0,0,0,1,1,1,0,0
0,0,0,0,0,0,1,2,2,0,6,1
0,0,0,0,0,0,1,2,2,0,6,8
0,0,0,0,0,0,0,1,1,7,16,7
0,0,0,0,0,0,0,1,1,1,0,10
0,0,0,0,0,0,0,1,1,7,15,17
0,0,0,0,0,0,1,2,2,0,6,1
0,0,0,0,0,0,1,2,2,8,14,6
0,0,0,0,0,0,0,1,1,7,7,9
0,0,0,0,0,0,0,3,3,9,3,15
0,0,0,0,0,0,0,1,1,1,0,0
0,0,0,0,0,0,0,4,4,3,8,5
0,0,0,0,0,0,1,2,2,0,6,1
0,0,0,0,0,0,1,2,2,8,14,6
0,0,0,0,0,0,0,3,3,9,3,15
0,0,0,0,0,0,1,2,2,0,6,8
0,0,0,0,0,0,1,2,2,0,6,1
0,0,0,0,0,0,0,0,0,5,5,29
0,0,0,0,0,0,1,2,2,8,16,18
0,0,0,0,0,0,0,4,4,4,9,13
0,0,0,0,0,0,0,4,4,4,9,13
0,0,0,0,0,0,0,1,1,1,0,10
0,0,0,0,0,0,1,2,2,0,6,1
0,0,0,0,0,0,0,4,4,3,8,5
0,0,0,0,0,0,1,2,2,0,6,1
0,0,0,0,0,0,1,2,2,0,1,8
0,0,0,0,0,0,1,2,2,0,6,1
0,0,0,0,0,0,0,1,1,1,0,10
0,0,0,0,0,0,1,2,2,8,1,21
0,0,0,0,0,0,1,2,2,0,6,1
0,0,0,0,0,0,1,2,2,0,6,1
0,0,0,0,0,0,0,0,0,5,5,2
0,0,0,0,0,0,1,2,2,0,6,1
0,0,0,0,0,0,0,0,0,5,5,29
0,0,0,0,0,0,1,2,2,0,6,1
0,0,0,0,0,0,1,2,2,0,6,1
0,0,0,0,0,0,1,2,2,0,6,1
0,0,0,0,0,0,1,2,2,8,14,6
0,0,0,0,0,0,1,2,2,0,6,8
0,0,0,0,0,0,1,2,2,0,6,1
0,0,0,0,0,0,0,1,1,7,7,9
0,0,0,0,0,0,1,2,2,0,6,1
0,0,0,0,0,0,0,1,1,7,7,9
0,0,0,0,0,0,1,2,2,8,14,6
0,0,0,0,0,0,1,2,2,0,1,8
0,0,0,0,0,0,1,2,2,0,6,1
0,0,0,0,0,0,1,2,2,0,6,1
0,0,0,0,0,0,0,1,1,1,0,10
0,0,0,0,0,0,1,2,2,0,6,1
0,0,0,0,0,0,1,2,2,0,6,1
0,0,0,0,0,0,0,3,3,9,3,3
0,0,0,0,0,0,1,2,2,0,6,1
0,0,0,0,0,0,0,1,1,1,0,10
0,0,0,0,0,0,0,0,0,5,5,29
0,0,0,0,0,0,1,2,2,8,1,14
0,0,0,0,0,0,1,2,2,0,6,1
0,0,0,0,0,0,1,2,2,0,6,1
0,0,0,0,0,0,0,4,4,3,8,5
0,0,0,0,0,0,1,2,2,0,6,1
0,0,0,0,0,0,1,2,2,8,14,6
0,0,0,0,0,0,0,3,3,9,3,3
0,0,0,0,0,0,1,2,2,0,1,8
0,0,0,0,0,0,1,2,2,0,6,1
0,0,0,0,0,0,1,2,2,0,6,1
0,0,0,0,0,0,0,3,3,6,10,19
0,0,0,0,0,0,1,2,2,8,16,18
0,0,0,0,0,0,1,2,2,0,6,1
0,0,0,0,0,0,1,2,2,0,6,1
0,0,0,0,0,0,1,2,2,0,6,1
0,0,0,0,0,0,1,2,2,6,11,14
0,0,0,0,0,0,0,1,1,10,12,12
0,0,0,0,0,0,1,2,2,0,6,1
0,0,0,0,0,0,1,2,2,0,6,1
0,0,0,0,0,0,0,1,1,1,0,10
0,0,0,0,0,0,1,2,2,0,6,1
0,0,0,0,0,0,1,2,2,8,14,21
0,0,0,0,0,0,0,3,3,9,3,15
0,0,0,0,0,0,1,2,2,0,6,1
0,0,0,0,0,0,1,2,2,0,6,1
0,0,0,0,0,0,1,2,2,0,6,1
0,0,0,0,0,0,0,0,0,2,5,2
0,0,0,0,0,0,0,1,1,7,7,9
0,0,0,0,0,0,0,0,0,5,5,2
0,0,0,0,0,0,1,2,2,0,6,1
0,0,0,0,0,0,1,2,2,0,6,1
0,0,0,0,0,0,1,2,2,0,6,1
0,0,0,0,0,0,0,1,1,1,0,0
0,0,0,0,0,0,0,1,1,7,7,7
0,0,0,0,0,0,1,2,2,8,14,6
0,0,0,0,0,0,1,2,2,0,6,1
0,0,0,0,0,0,1,2,2,0,6,1
0,0,0,0,0,0,1,2,2,8,1,21
0,0,0,0,0,0,0,1,1,1,15,0
0,0,0,0,0,0,1,2,2,0,6,1
0,0,0,0,0,0,1,2,2,8,14,21
0,0,0,0,0,0,1,2,2,8,1,21
0,0,0,0,0,0,1,2,2,0,6,1
0,0,0,0,0,0,0,0,0,5,5,29
0,0,0,0,0,0,1,2,2,0,6,1
0,0,0,0,0,0,1,2,2,0,6,1
0,0,0,0,0,0,1,2,2,0,6,1
0,0,0,0,0,0,1,2,2,0,6,1
0,0,0,0,0,0,1,2,2,8,16,18
0,0,0,0,0,0,1,2,2,0,6,8
0,0,0,0,0,0,0,3,3,6,10,3
0,0,0,0,0,0,0,0,0,5,2,2
0,0,0,0,0,0,1,2,2,0,6,1
0,0,0,0,0,0,1,2,2,8,14,6
0,0,0,0,0,0,1,2,2,0,6,1
0,0,0,0,0,0,1,2,2,0,1,8
0,0,0,0,0,0,0,0,0,5,5,2
0,0,0,0,0,0,0,0,0,5,5,29
0,0,0,0,0,0,1,2,2,0,6,8
0,0,0,0,0,0,1,2,2,0,6,1
0,0,0,0,0,0,1,2,2,0,6,1
0,0,0,0,0,0,1,2,2,0,6,1
0,0,0,0,0,0,1,2,2,0,6,1
0,0,0,0,0,0,1,2,2,0,1,21
0,0,0,0,0,0,1,2,2,0,1,8
0,0,0,0,0,0,0,4,4,4,9,13
0,0,0,0,0,0,0,0,0,2,13,16
0,0,0,0,0,0,1,2,2,8,14,21
0,0,0,0,0,0,1,2,2,0,6,1
0,0,0,0,0,0,0,1,1,7,15,0
0,0,0,0,0,0,1,2,2,0,6,1
0,0,0,0,0,0,0,4,4,4,4,4
0,0,0,0,0,0,0,0,0,2,2,11
0,0,0,0,0,0,0,3,3,6,10,25
0,0,0,0,0,0,0,0,0,5,5,29
0,0,0,0,0,0,0,1,1,1,0,10
0,0,0,0,0,0,1,2,2,0,16,18
0,0,0,0,0,0,0,1,1,1,0,10
0,0,0,0,0,0,0,4,4,10,12,26
0,0,0,0,0,0,1,2,2,0,6,1
0,0,0,0,0,0,0,1,1,1,0,0
0,0,0,0,0,0,0,1,1,7,7,9
0,0,0,0,0,0,0,1,1,1,0,10
0,0,0,0,0,0,1,2,2,0,6,1
0,0,0,0,0,0,1,2,2,0,6,1
0,0,0,0,0,0,0,0,0,5,5,2
0,0,0,0,0,0,1,2,2,8,14,6
0,0,0,0,0,0,1,2,2,0,6,1
0,0,0,0,0,0,1,2,2,0,6,1
0,0,0,0,0,0,0,0,0,5,5,29
0,0,0,0,0,0,1,2,2,0,6,1
0,0,0,0,0,0,0,4,4,3,8,20
0,0,0,0,0,0,0,1,1,1,0,10
0,0,0,0,0,0,0,0,0,5,5,29
0,0,0,0,0,0,0,2,2,8,13,23
0,0,0,0,0,0,1,2,2,0,6,8
0,0,0,0,0,0,0,1,1,1,0,10
0,0,0,0,0,0,1,2,2,0,6,1
0,0,0,0,0,0,0,0,0,5,5,29
0,0,0,0,0,0,0,3,3,6,10,3
0,0,0,0,0,0,1,2,2,8,13,23
0,0,0,0,0,0,1,2,2,0,6,8
0,0,0,0,0,0,0,4,4,4,9,13
0,0,0,0,0,0,1,2,2,0,6,1
0,0,0,0,0,0,1,2,2,0,6,1
0,0,0,0,0,0,0,0,0,5,5,29
0,0,0,0,0,0,1,2,2,0,6,1
0,0,0,0,0,0,0,0,0,5,5,29
0,0,0,0,0,0,1,2,2,0,6,1
0,0,0,0,0,0,1,2,2,0,6,1
0,0,0,0,0,0,1,2,2,0,1,21
0,0,0,0,0,0,0,1,1,1,0,0
0,0,0,0,0,0,1,2,2,0,6,1
0,0,0,0,0,0,1,2,2,0,6,1
0,0,0,0,0,0,1,2,2,0,6,1
0,0,0,0,0,0,1,2,2,0,6,1
0,0,0,0,0,0,1,2,2,0,6,1
0,0,0,0,0,0,0,1,1,1,0,10
0,0,0,0,0,0,1,2,2,0,6,1
0,0,0,0,0,0,1,2,2,0,6,1
0,0,0,0,0,0,1,2,2,8,16,18
0,0,0,0,0,0,0,1,1,1,0,10
0,0,0,0,0,0,0,0,0,5,5,29
0,0,0,0,0,0,0,0,0,5,5,29
0,0,0,0,0,0,0,0,0,5,5,29
0,0,0,0,0,0,1,2,2,8,1,21
0,0,0,0,0,0,1,2,2,0,6,1
0,0,0,0,0,0,0,3,3,9,3,15
0,0,0,0,0,0,1,2,2,8,14,6
0,0,0,0,0,0,0,3,3,9,3,15
0,0,0,0,0,0,1,2,2,0,6,1
0,0,0,0,0,0,0,4,4,4,4,4
0,0,0,0,0,0,1,2,2,0,6,8
0,0,0,0,0,0,1,2,2,8,14,6
0,0,0,0,0,0,0,0,0,5,5,29
0,0,0,0,0,0,0,0,0,2,2,28
0,0,0,0,0,0,0,1,1,1,0,0
0,0,0,0,0,0,1,2,2,0,6,1
0,0,0,0,0,0,0,0,0,2,2,27
0,0,0,0,0,0,1,2,2,8,1,18
0,0,0,0,0,0,0,0,0,2,2,28
0,0,0,0,0,0,1,2,2,0,6,1
0,0,0,0,0,0,1,2,2,0,6,1
0,0,0,0,0,0,0,1,1,7,7,9
0,0,0,0,0,0,0,4,4,4,4,4
0,0,0,0,0,0,1,2,2,0,6,1
0,0,0,0,0,0,0,1,1,7,15,17
0,0,0,0,0,0,0,1,1,1,0,0
0,0,0,0,0,0,1,2,2,0,6,1
0,0,0,0,0,0,1,2,2,0,6,1
0,0,0,0,0,0,1,2,2,8,16,23
0,0,0,0,0,0,0,0,0,5,5,29
0,0,0,0,0,0,0,1,1,1,0,10
0,0,0,0,0,0,0,0,0,5,5,29
0,0,0,0,0,0,0,0,0,5,5,29
0,0,0,0,0,0,0,0,0,5,5,2
0,0,0,0,0,0,0,1,1,1,0,10
0,0,0,0,0,0,1,2,2,0,6,1
0,0,0,0,0,0,1,2,2,8,14,6
0,0,0,0,0,0,1,2,2,0,6,8
0,0,0,0,0,0,0,1,1,7,15,17
0,0,0,0,0,0,0,3,3,6,10,25
0,0,0,0,0,0,1,2,2,0,6,1
0,0,0,0,0,0,1,2,2,0,6,1
0,0,0,0,0,0,1,2,2,0,6,1
0,0,0,0,0,0,1,2,2,0,6,1
0,0,0,0,0,0,0,1,1,1,0,10
0,0,0,0,0,0,0,3,3,9,3,15
0,0,0,0,0,0,0,1,1,1,0,0
0,0,0,0,0,0,0,0,0,2,2,11
0,0,0,0,0,0,1,2,2,0,6,1
0,0,0,0,0,0,1,2,2,0,6,1
0,0,0,0,0,0,0,4,4,4,9,13
0,0,0,0,0,0,0,0,0,5,5,29
0,0,0,0,0,0,0,1,1,1,0,10
0,0,0,0,0,0,0,1,1,1,0,10
0,0,0,0,0,0,1,2,2,0,6,1
0,0,0,0,0,0,1,2,2,0,6,1
0,0,0,0,0,0,1,2,2,0,6,1
0,0,0,0,0,0,0,4,4,3,8,5
0,0,0,0,0,0,0,3,3,9,3,15
0,0,0,0,0,0,0,0,0,2,2,11
0,0,0,0,0,0,1,2,2,8,1,23
0,0,0,0,0,0,0,4,4,3,8,5
0,0,0,0,0,0,0,0,0,5,5,29
0,0,0,0,0,0,0,4,4,3,8,5
0,0,0,0,0,0,0,3,3,6,10,25
0,0,0,0,0,0,1,2,2,0,1,8
0,0,0,0,0,0,1,2,2,0,1,8
0,0,0,0,0,0,0,0,0,5,5,2
0,0,0,0,0,0,0,1,1,1,0,10
0,0,0,0,0,0,1,2,2,8,14,6
0,0,0,0,0,0,0,0,0,2,2,11
0,0,0,0,0,0,0,3,3,9,10,3
0,0,0,0,0,0,1,2,2,0,6,1
0,0,0,0,0,0,0,1,1,7,7,7
0,0,0,0,0,0,1,2,2,0,6,1
0,0,0,0,0,0,1,2,2,8,1,23
0,0,0,0,0,0,1,2,2,8,14,6
0,0,0,0,0,0,0,0,0,5,5,29
0,0,0,0,0,0,0,1,1,1,0,10
0,0,0,0,0,0,1,2,2,8,14,21
0,0,0,0,0,0,1,2,2,8,1,21
0,0,0,0,0,0,1,2,2,0,6,1
0,0,0,0,0,0,0,3,3,9,3,15
0,0,0,0,0,0,0,0,0,5,5,29
0,0,0,0,0,0,0,4,4,4,9,4
0,0,0,0,0,0,0,0,0,2,2,11
0,0,0,0,0,0,1,2,2,0,6,1
0,0,0,0,0,0,0,3,3,9,3,15
0,0,0,0,0,0,0,3,3,9,3,15
0,0,0,0,0,0,0,4,4,2,4,31
0,0,0,0,0,0,1,2,2,0,6,1
0,0,0,0,0,0,1,2,2,0,6,1
0,0,0,0,0,0,1,2,2,0,6,1
0,0,0,0,0,0,1,2,2,0,6,1
0,0,0,0,0,0,1,2,2,8,14,6
0,0,0,0,0,0,1,2,2,0,6,1
0,0,0,0,0,0,1,2,2,0,6,1
0,0,0,0,0,0,0,0,0,5,5,29
0,0,0,0,0,0,1,2,2,8,1,21
0,0,0,0,0,0,0,1,1,7,7,7
0,0,0,0,0,0,1,2,2,0,6,1
0,0,0,0,0,0,1,2,2,0,6,8
0,0,0,0,0,0,0,3,3,6,10,22
0,0,0,0,0,0,1,2,2,0,6,1
0,0,0,0,0,0,0,0,0,5,5,2
0,0,0,0,0,0,0,1,1,1,0,10
0,0,0,0,0,0,0,3,3,9,3,15
0,0,0,0,0,0,1,2,2,0,6,8
0,0,0,0,0,0,1,2,2,0,6,1
0,0,0,0,0,0,1,2,2,0,6,1
0,0,0,0,0,0,1,2,2,0,6,8
0,0,0,0,0,0,0,3,3,9,3,15
0,0,0,0,0,0,0,3,3,9,10,3
0,0,0,0,0,0,1,2,2,0,6,1
0,0,0,0,0,0,0,1,1,1,0,10
0,0,0,0,0,0,0,1,1,7,7,9
0,0,0,0,0,0,0,0,0,5,5,29
0,0,0,0,0,0,1,2,2,8,14,6
0,0,0,0,0,0,1,2,2,0,6,1
0,0,0,0,0,0,0,1,1,1,0,10
0,0,0,0,0,0,1,2,2,0,6,1
0,0,0,0,0,0,0,0,0,2,2,11
0,0,0,0,0,0,0,0,0,2,2,2
0,0,0,0,0,0,1,2,2,0,6,8
0,0,0,0,0,0,1,2,2,8,1,21
0,0,0,0,0,0,1,2,2,0,6,1
0,0,0,0,0,0,0,1,1,1,0,10
0,0,0,0,0,0,0,1,1,1,0,0
0,0,0,0,0,0,0,1,1,1,0,10
0,0,0,0,0,0,1,2,2,0,6,1
0,0,0,0,0,0,0,1,1,1,0,10
0,0,0,0,0,0,0,1,1,1,0,10
0,0,0,0,0,0,0,3,3,9,3,3
0,0,0,0,0,0,1,2,2,8,16,18
0,0,0,0,0,0,1,2,2,0,6,1
0,0,0,0,0,0,0,1,1,1,0,10
0,0,0,0,0,0,0,1,1,7,7,7
0,0,0,0,0,0,1,2,2,8,14,21
0,0,0,0,0,0,0,1,1,1,0,10
0,0,0,0,0,0,1,2,2,0,6,1
0,0,0,0,0,0,0,1,1,1,0,0
0,0,0,0,0,0,1,2,2,0,6,1
0,0,0,0,0,0,0,0,0,2,2,11
0,0,0,0,0,0,1,2,2,0,6,8
0,0,0,0,0,0,0,3,3,9,3,15
0,0,0,0,0,0,0,0,0,5,5,29
0,0,0,0,0,0,1,2,2,8,14,6
0,0,0,0,0,0,1,2,2,0,6,1
0,0,0,0,0,0,1,2,2,0,1,8
0,0,0,0,0,0,1,2,2,0,6,8
0,0,0,0,0,0,1,2,2,0,6,1
0,0,0,0,0,0,1,2,2,0,6,1
0,0,0,0,0,0,0,1,1,1,0,10
0,0,0,0,0,0,0,3,3,9,3,15
0,0,0,0,0,0,1,2,2,0,6,1
0,0,0,0,0,0,0,1,1,1,0,10
0,0,0,0,0,0,1,2,2,8,1,21
0,0,0,0,0,0,1,2,2,8,14,30
0,0,0,0,0,0,1,2,2,0,6,1
0,0,0,0,0,0,0,0,0,2,2,11
0,0,0,0,0,0,0,4,4,4,9,13
0,0,0,0,0,0,1,2,2,0,6,1
0,0,0,0,0,0,1,2,2,8,14,6
0,0,0,0,0,0,1,2,2,0,6,8
0,0,0,0,0,0,0,0,0,5,5,29
0,0,0,0,0,0,1,2,2,0,6,1
0,0,0,0,0,0,1,2,2,8,16,18
0,0,0,0,0,0,1,2,2,0,6,1
0,0,0,0,0,0,1,2,2,0,6,8
0,0,0,0,0,0,1,2,2,0,6,1
0,0,0,0,0,0,1,2,2,0,6,1
0,0,0,0,0,0,0,1,1,1,0,10
0,0,0,0,0,0,0,4,4,3,8,5
0,0,0,0,0,0,0,3,3,9,3,3
0,0,0,0,0,0,0,4,4,10,12,26
0,0,0,0,0,0,0,1,1,7,7,9
0,0,0,0,0,0,0,1,1,1,0,10
0,0,0,0,0,0,0,4,4,3,8,5
0,0,0,0,0,0,0,1,1,1,0,10
0,0,0,0,0,0,0,3,3,9,3,15
0,0,0,0,0,0,0,0,0,2,5,16
0,0,0,0,0,0,0,1,1,1,0,0
0,0,0,0,0,0,1,2,2,0,6,1
0,0,0,0,0,0,0,4,4,4,9,13
0,0,0,0,0,0,0,1,1,1,0,10
0,0,0,0,0,0,0,0,0,5,5,29
0,0,0,0,0,0,0,3,3,6,10,27
0,0,0,0,0,0,0,1,1,7,7,9
0,0,0,0,0,0,0,3,3,9,3,15
0,0,0,0,0,0,0,0,0,5,5,29
0,0,0,0,0,0,0,1,1,1,0,10
0,0,0,0,0,0,0,3,3,6,10,25
0,0,0,0,0,0,1,2,2,0,1,8
0,0,0,0,0,0,0,4,4,3,8,5
0,0,0,0,0,0,1,2,2,0,6,1
0,0,0,0,0,0,1,2,2,0,6,1
0,0,0,0,0,0,0,3,3,6,11,14
0,0,0,0,0,0,1,2,2,0,6,1
0,0,0,0,0,0,1,2,2,0,6,1
0,0,0,0,0,0,0,4,4,4,4,4
0,0,0,0,0,0,1,2,2,8,14,21
0,0,0,0,0,0,1,2,2,0,6,1
0,0,0,0,0,0,0,1,1,1,0,10
0,0,0,0,0,0,1,2,2,0,6,1
0,0,0,0,0,0,1,2,2,0,6,1
0,0,0,0,0,0,1,2,2,0,6,1
0,0,0,0,0,0,1,2,2,0,1,8
0,0,0,0,0,0,0,1,1,1,0,0
0,0,0,0,0,0,0,1,1,1,0,10
0,0,0,0,0,0,0,3,3,9,3,15
0,0,0,0,0,0,1,2,2,0,6,1
0,0,0,0,0,0,0,3,3,9,3,15
0,0,0,0,0,0,0,1,1,7,7,9
0,0,0,0,0,0,0,3,3,9,3,15
0,0,0,0,0,0,1,2,2,0,6,1
0,0,0,0,0,0,1,2,2,0,6,1
0,0,0,0,0,0,1,2,2,8,16,18
0,0,0,0,0,0,0,3,3,9,3,3
0,0,0,0,0,0,1,2,2,0,6,1
0,0,0,0,0,0,0,1,1,1,0,0
0,0,0,0,0,0,1,2,2,0,1,8
0,0,0,0,0,0,1,2,2,0,6,1
0,0,0,0,0,0,0,1,1,1,0,10
0,0,0,0,0,0,1,2,2,0,6,1
0,0,0,0,0,0,0,3,3,9,3,15
0,0,0,0,0,0,1,2,2,8,16,18
0,0,0,0,0,0,1,2,2,0,6,1
0,0,0,0,0,0,0,1,1,7,15,17
0,0,0,0,0,0,1,2,2,0,1,8
0,0,0,0,0,0,1,2,2,0,6,1
0,0,0,0,0,0,0,1,1,7,15,17
0,0,0,0,0,0,1,2,2,0,6,1
0,0,0,0,0,0,0,3,3,9,3,15
0,0,0,0,0,0,0,3,3,9,3,15
0,0,0,0,0,0,0,0,0,2,13,16
0,0,0,0,0,0,1,2,2,0,6,1
0,0,0,0,0,0,1,2,2,8,16,18
0,0,0,0,0,0,0,4,4,4,9,13
0,0,0,0,0,0,0,1,1,1,0,10
0,0,0,0,0,0,1,2,2,0,6,1
0,0,0,0,0,0,1,2,2,0,6,1
0,0,0,0,0,0,0,1,1,1,0,10
0,0,0,0,0,0,1,2,2,0,6,1
0,0,0,0,0,0,0,4,4,8,4,30
0,0,0,0,0,0,1,2,2,0,1,8
0,0,0,0,0,0,1,2,2,0,6,1
0,0,0,0,0,0,1,2,2,0,1,8
0,0,0,0,0,0,0,1,1,1,0,0
0,0,0,0,0,0,0,4,4,3,8,5
0,0,0,0,0,0,1,2,2,0,6,1
0,0,0,0,0,0,1,2,2,0,6,1
0,0,0,0,0,0,0,1,1,1,0,0
0,0,0,0,0,0,0,3,3,6,10,3
0,0,0,0,0,0,1,2,2,0,6,1
0,0,0,0,0,0,1,2,2,0,6,1
0,0,0,0,0,0,1,2,2,8,14,21
0,0,0,0,0,0,0,4,4,10,12,26
0,0,0,0,0,0,1,2,2,0,6,1
0,0,0,0,0,0,1,2,2,0,6,1
0,0,0,0,0,0,1,2,2,0,1,8
0,0,0,0,0,0,1,2,2,8,14,6
0,0,0,0,0,0,0,1,1,1,0,0
0,0,0,0,0,0,1,2,2,8,16,18
0,0,0,0,0,0,0,0,0,5,5,2
0,0,0,0,0,0,1,2,2,8,1,21
0,0,0,0,0,0,1,2,2,0,6,1
0,0,0,0,0,0,1,2,2,0,6,1
0,0,0,0,0,0,0,0,0,5,5,29
0,0,0,0,0,0,1,2,2,0,1,8
0,0,0,0,0,0,1,2,2,8,1,8
0,0,0,0,0,0,0,1,1,7,15,17
0,0,0,0,0,0,1,2,2,8,14,6
0,0,0,0,0,0,0,1,1,7,15,17
0,0,0,0,0,0,0,0,0,2,13,16
0,0,0,0,0,0,0,1,1,7,7,7
0,0,0,0,0,0,1,2,2,0,6,1
0,0,0,0,0,0,1,2,2,0,6,1
0,0,0,0,0,0,1,2,2,8,1,21
0,0,0,0,0,0,1,2,2,0,6,1
0,0,0,0,0,0,1,2,2,0,6,1
0,0,0,0,0,0,0,0,0,5,5,29
0,0,0,0,0,0,0,3,3,9,3,15
0,0,0,0,0,0,0,0,0,5,5,29
0,0,0,0,0,0,1,2,2,0,6,1
0,0,0,0,0,0,0,1,1,7,7,9
0,0,0,0,0,0,0,1,1,1,0,10
0,0,0,0,0,0,0,0,0,5,5,29
0,0,0,0,0,0,0,3,3,9,3,15
0,0,0,0,0,0,1,2,2,0,6,8
0,0,0,0,0,0,1,2,2,0,6,8
0,0,0,0,0,0,1,2,2,0,6,1
0,0,0,0,0,0,0,0,0,5,5,29
0,0,0,0,0,0,1,2,2,0,1,8
0,0,0,0,0,0,1,2,2,0,6,1
0,0,0,0,0,0,0,1,1,7,7,9
0,0,0,0,0,0,0,1,1,1,0,0
0,0,0,0,0,0,1,2,2,0,1,8
0,0,0,0,0,0,0,0,0,2,2,2
0,0,0,0,0,0,0,4,4,4,9,13
0,0,0,0,0,0,0,3,3,6,11,14
0,0,0,0,0,0,1,2,2,8,14,6
0,0,0,0,0,0,0,3,3,9,3,15
0,0,0,0,0,0,0,1,1,7,15,17
0,0,0,0,0,0,0,1,1,1,0,10
0,0,0,0,0,0,1,2,2,8,1,21
0,0,0,0,0,0,0,4,4,4,4,13
0,0,0,0,0,0,0,1,1,1,0,10
0,0,0,0,0,0,1,2,2,0,6,1
0,0,0,0,0,0,1,2,2,0,1,8
0,0,0,0,0,0,1,2,2,8,1,24
0,0,0,0,0,0,1,2,2,0,6,1
0,0,0,0,0,0,1,2,2,0,6,1
0,0,0,0,0,0,1,2,2,0,6,1
0,0,0,0,0,0,0,1,1,7,7,7
0,0,0,0,0,0,1,2,2,0,6,1
0,0,0,0,0,0,1,2,2,8,14,6
0,0,0,0,0,0,0,3,3,9,3,15
0,0,0,0,0,0,0,3,3,6,11,14
0,0,0,0,0,0,1,2,2,0,6,1
0,0,0,0,0,0,0,1,1,7,15,17
0,0,0,0,0,0,1,2,2,0,6,1
0,0,0,0,0,0,0,3,3,6,11,19
0,0,0,0,0,0,1,2,2,0,6,8
0,0,0,0,0,0,0,1,1,7,15,17
0,0,0,0,0,0,0,1,1,1,0,10
0,0,0,0,0,0,0,1,1,1,0,10
0,0,0,0,0,0,1,2,2,0,6,1
0,0,0,0,0,0,1,2,2,0,6,1
0,0,0,0,0,0,0,4,4,3,8,5
0,0,0,0,0,0,1,2,2,8,16,18
0,0,0,0,0,0,1,2,2,0,6,8
0,0,0,0,0,0,1,2,2,0,6,1
0,0,0,0,0,0,1,2,2,8,14,6
0,0,0,0,0,0,1,2,2,0,6,8
0,0,0,0,0,0,0,4,4,3,8,20
0,0,0,0,0,0,0,4,4,4,9,13
0,0,0,0,0,0,1,2,2,8,13,23
0,0,0,0,0,0,1,2,2,0,6,1
0,0,0,0,0,0,0,4,4,3,8,24
0,0,0,0,0,0,1,2,2,0,6,1
0,0,0,0,0,0,0,0,0,5,5,29
0,0,0,0,0,0,1,2,2,8,14,6
0,0,0,0,0,0,0,1,1,1,0,10
0,0,0,0,0,0,1,2,2,8,16,18
0,0,0,0,0,0,0,3,3,9,3,3
0,0,0,0,0,0,1,2,2,0,6,1
0,0,0,0,0,0,0,4,4,3,8,20
0,0,0,0,0,0,1,2,2,0,6,1
0,0,0,0,0,0,0,1,1,1,0,10
0,0,0,0,0,0,1,2,2,0,6,1
0,0,0,0,0,0,0,1,1,1,0,10
0,0,0,0,0,0,1,2,2,0,6,1
0,0,0,0,0,0,0,1,1,7,15,17
0,0,0,0,0,0,1,0,0,2,13,16
0,0,0,0,0,0,1,2,2,0,6,1
0,0,0,0,0,0,1,2,2,8,14,6
0,0,0,0,0,0,1,2,2,0,6,1
0,0,0,0,0,0,0,1,1,1,0,0
0,0,0,0,0,0,0,1,1,7,15,17
0,0,0,0,0,0,0,1,1,7,7,19
0,0,0,0,0,0,1,2,2,8,1,21
0,0,0,0,0,0,0,4,4,8,14,30
0,0,0,0,0,0,1,2,2,0,6,1
0,0,0,0,0,0,1,2,2,0,6,1
0,0,0,0,0,0,1,2,2,0,6,1
0,0,0,0,0,0,1,2,2,0,6,1
0,0,0,0,0,0,0,3,3,9,3,15
0,0,0,0,0,0,1,2,2,0,6,1
0,0,0,0,0,0,0,4,4,3,8,20
0,0,0,0,0,0,0,3,3,6,10,27
0,0,0,0,0,0,1,2,2,8,16,18
0,0,0,0,0,0,0,0,0,2,2,2
0,0,0,0,0,0,0,3,3,9,3,15
0,0,0,0,0,0,0,0,0,5,5,29
0,0,0,0,0,0,1,2,2,0,6,1
0,0,0,0,0,0,0,3,3,9,3,15
0,0,0,0,0,0,0,1,1,1,0,10
0,0,0,0,0,0,1,2,2,0,1,8
0,0,0,0,0,0,1,2,2,0,6,1
0,0,0,0,0,0,1,2,2,0,6,1
0,0,0,0,0,0,1,2,2,0,6,1
0,0,0,0,0,0,0,1,1,1,0,10
0,0,0,0,0,0,1,2,2,8,14,21
0,0,0,0,0,0,1,2,2,0,6,1
0,0,0,0,0,0,1,2,2,0,1,8
0,0,0,0,0,0,1,2,2,0,6,1
0,0,0,0,0,0,1,2,2,0,6,1
0,0,0,0,0,0,1,2,2,0,1,21
0,0,0,0,0,0,1,2,2,0,6,1
0,0,0,0,0,0,1,2,2,0,6,1
0,0,0,0,0,0,0,4,4,4,9,13
0,0,0,0,0,0,1,2,2,0,1,8
0,0,0,0,0,0,0,1,1,7,15,17
0,0,0,0,0,0,0,4,4,4,4,4
0,0,0,0,0,0,1,2,2,0,1,8
0,0,0,0,0,0,1,2,2,0,6,1
0,0,0,0,0,0,1,2,2,0,1,8
0,0,0,0,0,0,0,2,2,8,14,6
0,0,0,0,0,0,0,0,0,5,5,29
0,0,0,0,0,0,0,0,0,5,5,2
0,0,0,0,0,0,1,2,2,0,6,1
0,0,0,0,0,0,1,2,2,0,6,1
0,0,0,0,0,0,1,2,2,0,6,1
0,0,0,0,0,0,0,3,3,9,3,3
0,0,0,0,0,0,0,1,1,7,7,7
0,0,0,0,0,0,1,2,2,0,6,8
0,0,0,0,0,0,0,0,0,5,5,2
0,0,0,0,0,0,0,1,1,1,0,10
0,0,0,0,0,0,0,4,4,4,9,13
0,0,0,0,0,0,0,0,0,5,5,29
0,0,0,0,0,0,1,2,2,8,16,7
0,0,0,0,0,0,1,2,2,0,6,1
0,0,0,0,0,0,1,2,2,0,6,1
0,0,0,0,0,0,0,0,0,5,5,29
0,0,0,0,0,0,0,1,1,1,0,0
0,0,0,0,0,0,1,2,2,0,6,1
0,0,0,0,0,0,1,2,2,0,6,1
0,0,0,0,0,0,1,2,2,0,6,1
0,0,0,0,0,0,1,2,2,8,1,8
0,0,0,0,0,0,1,2,2,8,14,6
0,0,0,0,0,0,0,1,1,1,0,10
0,0,0,0,0,0,1,2,2,8,16,18
0,0,0,0,0,0,1,2,2,0,6,1
0,0,0,0,0,0,1,2,2,0,6,1
0,0,0,0,0,0,0,3,3,9,3,3
0,0,0,0,0,0,0,1,1,1,0,10
0,0,0,0,0,0,1,2,2,0,6,1
0,0,0,0,0,0,1,2,2,0,6,1
0,0,0,0,0,0,0,4,4,3,8,5
0,0,0,0,0,0,1,2,2,0,6,1
0,0,0,0,0,0,1,2,2,8,14,6
0,0,0,0,0,0,1,2,2,0,6,1
0,0,0,0,0,0,1,2,2,0,6,1
0,0,0,0,0,0,1,2,2,0,1,8
0,0,0,0,0,0,0,4,4,3,8,20
0,0,0,0,0,0,1,2,2,0,6,1
0,0,0,0,0,0,1,2,2,8,16,18
0,0,0,0,0,0,0,0,0,2,2,11
0,0,0,0,0,0,0,1,1,1,0,0
0,0,0,0,0,0,1,2,2,0,6,8
0,0,0,0,0,0,0,1,1,1,0,10
0,0,0,0,0,0,1,2,2,0,1,8
0,0,0,0,0,0,1,2,2,0,6,1
0,0,0,0,0,0,0,0,0,2,2,11
0,0,0,0,0,0,1,2,2,0,6,1
0,0,0,0,0,0,1,2,2,0,6,1
0,0,0,0,0,0,0,4,4,4,9,13
0,0,0,0,0,0,0,1,1,1,0,10
0,0,0,0,0,0,0,3,3,9,3,15
0,0,0,0,0,0,1,2,2,0,6,1
0,0,0,0,0,0,0,0,0,5,5,29
0,0,0,0,0,0,1,2,2,8,16,7
0,0,0,0,0,0,1,2,2,8,1,21
0,0,0,0,0,0,0,3,3,9,3,15
0,0,0,0,0,0,1,2,2,0,6,8
0,0,0,0,0,0,1,2,2,0,6,1
0,0,0,0,0,0,0,1,1,1,0,10
0,0,0,0,0,0,1,2,2,0,6,1
0,0,0,0,0,0,1,2,2,0,6,1
0,0,0,0,0,0,0,0,0,2,2,2
0,0,0,0,0,0,0,3,3,6,11,14
0,0,0,0,0,0,1,2,2,0,1,8
0,0,0,0,0,0,0,3,3,6,10,3
0,0,0,0,0,0,1,2,2,0,6,1
0,0,0,0,0,0,1,2,2,0,6,1
0,0,0,0,0,0,0,1,1,1,0,10
0,0,0,0,0,0,1,2,2,8,13,23
0,0,0,0,0,0,0,0,0,5,5,29
0,0,0,0,0,0,1,2,2,0,6,1
0,0,0,0,0,0,0,4,4,4,9,13
0,0,0,0,0,0,1,2,2,0,6,1
0,0,0,0,0,0,0,1,1,7,7,7
0,0,0,0,0,0,1,2,2,0,6,1
0,0,0,0,0,0,1,2,2,0,6,1
0,0,0,0,0,0,0,3,3,9,3,3
0,0,0,0,0,0,0,3,3,6,10,27
0,0,0,0,0,0,1,2,2,0,6,1
0,0,0,0,0,0,1,2,2,0,6,1
0,0,0,0,0,0,1,2,2,0,1,8
0,0,0,0,0,0,0,1,1,7,7,9
0,0,0,0,0,0,1,2,2,0,1,8
0,0,0,0,0,0,1,2,2,8,1,21
0,0,0,0,0,0,1,2,2,0,1,21
0,0,0,0,0,0,1,2,2,0,6,1
0,0,0,0,0,0,0,3,3,9,3,15
0,0,0,0,0,0,0,4,4,4,4,4
0,0,0,0,0,0,1,2,2,8,14,6
0,0,0,0,0,0,1,2,2,0,6,1
0,0,0,0,0,0,0,1,1,7,15,17
0,0,0,0,0,0,0,0,0,5,5,29
0,0,0,0,0,0,0,1,1,1,0,10
0,0,0,0,0,0,0,1,1,1,0,0
0,0,0,0,0,0,1,2,2,0,6,1
0,0,0,0,0,0,0,1,1,1,0,10
0,0,0,0,0,0,1,2,2,0,6,1
0,0,0,0,0,0,0,0,0,5,5,29
0,0,0,0,0,0,1,2,2,0,6,1
0,0,0,0,0,0,0,1,1,7,7,9
0,0,0,0,0,0,0,0,0,5,5,29
0,0,0,0,0,0,0,1,1,7,7,9
0,0,0,0,0,0,0,1,1,1,0,10
0,0,0,0,0,0,1,2,2,8,16,18
0,0,0,0,0,0,1,2,2,0,6,8
0,0,0,0,0,0,1,2,2,0,1,8
0,0,0,0,0,0,1,2,2,0,6,1
0,0,0,0,0,0,0,0,0,5,5,2
0,0,0,0,0,0,1,2,2,0,6,8
0,0,0,0,0,0,1,2,2,0,6,1
0,0,0,0,0,0,1,2,2,0,6,1
0,0,0,0,0,0,1,2,2,8,14,21
0,0,0,0,0,0,1,2,2,0,6,1
0,0,0,0,0,0,1,2,2,0,6,1
0,0,0,0,0,0,1,2,2,0,6,1
0,0,0,0,0,0,1,2,2,0,6,1
0,0,0,0,0,0,0,0,0,5,5,29
0,0,0,0,0,0,1,2,2,0,6,1
0,0,0,0,0,0,1,2,2,0,6,1
0,0,0,0,0,0,0,1,1,1,15,0
0,0,0,0,0,0,0,3,3,9,10,3
0,0,0,0,0,0,1,2,2,0,6,1
0,0,0,0,0,0,1,2,2,8,14,21
0,0,0,0,0,0,1,2,2,0,6,1
0,0,0,0,0,0,0,3,3,9,3,15
0,0,0,0,0,0,1,2,2,0,6,1
0,0,0,0,0,0,0,3,3,9,3,15
0,0,0,0,0,0,1,2,2,8,14,6
0,0,0,0,0,0,0,4,4,4,9,13
0,0,0,0,0,0,0,1,1,1,0,10
0,0,0,0,0,0,1,2,2,0,6,1
0,0,0,0,0,0,0,4,4,3,8,24
0,0,0,0,0,0,0,1,1,1,0,10
0,0,0,0,0,0,0,1,1,1,0,10
0,0,0,0,0,0,1,2,2,0,6,1
0,0,0,0,0,0,1,2,2,0,6,1
0,0,0,0,0,0,0,1,1,7,15,17
0,0,0,0,0,0,0,0,0,5,5,29
0,0,0,0,0,0,1,2,2,0,6,1
0,0,0,0,0,0,0,1,1,1,0,10
0,0,0,0,0,0,0,1,1,1,0,10
0,0,0,0,0,0,0,1,1,1,0,10
0,0,0,0,0,0,1,2,2,0,6,1
0,0,0,0,0,0,0,4,4,3,8,5
0,0,0,0,0,0,0,1,1,1,0,10
0,0,0,0,0,0,1,2,2,0,1,8
0,0,0,0,0,0,0,0,0,5,5,2
0,0,0,0,0,0,1,2,2,0,1,8
0,0,0,0,0,0,1,2,2,0,6,1
0,0,0,0,0,0,0,1,1,7,7,7
0,0,0,0,0,0,1,2,2,8,14,6
0,0,0,0,0,0,1,2,2,0,6,1
0,0,0,0,0,0,0,3,3,9,3,15
0,0,0,0,0,0,0,3,3,9,3,15
0,0,0,0,0,0,0,3,3,9,3,15
0,0,0,0,0,0,1,2,2,8,1,21
0,0,0,0,0,0,1,2,2,0,6,1
0,0,0,0,0,0,0,3,3,9,3,15
0,0,0,0,0,0,0,1,1,7,15,17
0,0,0,0,0,0,0,1,1,7,15,17
0,0,0,0,0,0,0,1,1,1,0,10
0,0,0,0,0,0,1,2,2,0,6,1
0,0,0,0,0,0,1,2,2,0,6,1
0,0,0,0,0,0,1,2,2,8,16,23
0,0,0,0,0,0,0,4,4,3,8,20
0,0,0,0,0,0,1,2,2,2,13,16
0,0,0,0,0,0,1,2,2,8,1,23
0,0,0,0,0,0,0,0,0,5,5,29
0,0,0,0,0,0,1,2,2,0,6,1
0,0,0,0,0,0,0,1,1,7,15,17
0,0,0,0,0,0,1,2,2,0,6,1
0,0,0,0,0,0,0,1,1,7,7,7
0,0,0,0,0,0,1,2,2,0,6,1
0,0,0,0,0,0,1,2,2,0,6,1
0,0,0,0,0,0,1,2,2,0,6,1
0,0,0,0,0,0,1,2,2,0,6,1
0,0,0,0,0,0,0,0,0,5,5,2
0,0,0,0,0,0,0,1,1,1,0,0
0,0,0,0,0,0,1,2,2,8,14,6
0,0,0,0,0,0,0,1,1,1,0,10
0,0,0,0,0,0,0,0,0,5,5,29
0,0,0,0,0,0,0,3,3,9,10,3
0,0,0,0,0,0,0,1,1,1,0,10
0,0,0,0,0,0,1,2,2,0,6,1
0,0,0,0,0,0,0,0,0,5,5,2
0,0,0,0,0,0,0,3,3,9,3,15
0,0,0,0,0,0,1,2,2,8,14,6
0,0,0,0,0,0,1,2,2,0,6,1
0,0,0,0,0,0,1,2,2,0,6,1
0,0,0,0,0,0,1,2,2,0,6,1
0,0,0,0,0,0,1,2,2,0,6,1
0,0,0,0,0,0,1,2,2,8,14,6
0,0,0,0,0,0,0,0,0,2,2,11
0,0,0,0,0,0,1,2,2,0,6,1
0,0,0,0,0,0,1,2,2,0,6,1
0,0,0,0,0,0,0,0,0,5,5,29
0,0,0,0,0,0,0,0,0,5,5,29
0,0,0,0,0,0,0,0,0,2,2,2
0,0,0,0,0,0,0,0,0,2,13,16
0,0,0,0,0,0,1,2,2,8,16,18
0,0,0,0,0,0,1,2,2,0,6,1
0,0,0,0,0,0,0,1,1,1,0,10
0,0,0,0,0,0,1,2,2,0,6,1
0,0,0,0,0,0,0,1,1,1,0,10
0,0,0,0,0,0,1,2,2,0,6,1
0,0,0,0,0,0,1,2,2,0,6,1
0,0,0,0,0,0,1,2,2,0,6,1
0,0,0,0,0,0,1,2,2,8,16,18
0,0,0,0,0,0,0,1,1,7,7,9
0,0,0,0,0,0,0,1,1,1,0,10
0,0,0,0,0,0,1,2,2,8,14,6
0,0,0,0,0,0,0,0,0,2,2,27
0,0,0,0,0,0,1,2,2,0,6,1
0,0,0,0,0,0,1,2,2,0,6,1
0,0,0,0,0,0,1,2,2,8,1,8
0,0,0,0,0,0,1,2,2,0,6,1
0,0,0,0,0,0,1,2,2,0,6,1
0,0,0,0,0,0,1,2,2,8,14,6
0,0,0,0,0,0,1,2,2,8,14,6
0,0,0,0,0,0,0,1,1,7,7,9
0,0,0,0,0,0,0,1,1,1,0,0
0,0,0,0,0,0,1,2,2,0,6,1
0,0,0,0,0,0,0,0,0,5,5,29
0,0,0,0,0,0,1,2,2,0,6,1
0,0,0,0,0,0,1,2,2,0,6,1
0,0,0,0,0,0,1,2,2,0,6,1
0,0,0,0,0,0,0,1,1,7,15,17
0,0,0,0,0,0,1,2,2,0,6,1
0,0,0,0,0,0,0,0,0,5,5,29
0,0,0,0,0,0,1,2,2,0,6,1
0,0,0,0,0,0,0,3,3,6,11,14
0,0,0,0,0,0,1,2,2,0,6,1
0,0,0,0,0,0,1,2,2,0,6,1
0,0,0,0,0,0,0,0,0,5,5,29
0,0,0,0,0,0,0,1,1,1,0,10
0,0,0,0,0,0,1,2,2,0,6,1
0,0,0,0,0,0,1,2,2,0,6,1
0,0,0,0,0,0,1,2,2,0,6,1
0,0,0,0,0,0,1,2,2,8,1,21
0,0,0,0,0,0,0,1,1,6,10,19
0,0,0,0,0,0,0,0,0,2,13,16
0,0,0,0,0,0,1,2,2,8,16,18
0,0,0,0,0,0,1,2,2,0,6,1
0,0,0,0,0,0,0,1,1,7,7,9
0,0,0,0,0,0,1,2,2,0,6,1
0,0,0,0,0,0,1,2,2,0,6,1
0,0,0,0,0,0,0,4,4,4,9,13
0,0,0,0,0,0,1,2,2,0,6,1
0,0,0,0,0,0,1,2,2,0,6,1
0,0,0,0,0,0,1,2,2,0,1,8
0,0,0,0,0,0,1,2,2,8,14,21
0,0,0,0,0,0,1,2,2,0,6,1
0,0,0,0,0,0,1,2,2,8,16,18
0,0,0,0,0,0,1,2,2,0,1,8
0,0,0,0,0,0,0,4,4,10,12,26
0,0,0,0,0,0,1,2,2,8,16,18
0,0,0,0,0,0,0,4,4,3,8,5
0,0,0,0,0,0,1,2,2,0,6,1
0,0,0,0,0,0,0,1,1,1,0,10
0,0,0,0,0,0,1,2,2,0,6,1
0,0,0,0,0,0,0,1,1,1,0,10
0,0,0,0,0,0,0,0,0,5,5,29
0,0,0,0,0,0,1,2,2,0,1,8
0,0,0,0,0,0,1,2,2,8,14,6
0,0,0,0,0,0,0,0,0,5,5,29
0,0,0,0,0,0,0,0,0,5,5,29
0,0,0,0,0,0,1,2,2,0,6,1
0,0,0,0,0,0,1,2,2,0,6,1
0,0,0,0,0,0,1,2,2,0,6,1
0,0,0,0,0,0,0,1,1,1,0,10
0,0,0,0,0,0,1,2,2,8,14,6
0,0,0,0,0,0,1,2,2,0,6,1
0,0,0,0,0,0,0,2,2,8,14,6
0,0,0,0,0,0,0,1,1,1,0,10
0,0,0,0,0,0,1,2,2,0,6,1
0,0,0,0,0,0,0,3,3,9,3,15
0,0,0,0,0,0,0,1,1,1,0,10
0,0,0,0,0,0,1,2,2,0,1,8
0,0,0,0,0,0,1,2,2,0,1,8
0,0,0,0,0,0,1,2,2,0,6,1
0,0,0,0,0,0,1,2,2,0,6,1
0,0,0,0,0,0,0,1,1,7,7,9
0,0,0,0,0,0,1,2,2,0,6,1
0,0,0,0,0,0,1,2,2,0,6,1
0,0,0,0,0,0,1,2,2,0,6,1
0,0,0,0,0,0,0,4,4,3,8,5
0,0,0,0,0,0,1,2,2,0,6,1
0,0,0,0,0,0,0,1,1,1,0,10
0,0,0,0,0,0,0,3,3,9,3,3
0,0,0,0,0,0,1,2,2,0,1,8
0,0,0,0,0,0,1,2,2,0,1,8
0,0,0,0,0,0,1,2,2,0,6,1
0,0,0,0,0,0,0,1,1,7,7,9
0,0,0,0,0,0,1,2,2,0,6,8
0,0,0,0,0,0,0,1,1,7,7,9
0,0,0,0,0,0,1,2,2,0,6,1
0,0,0,0,0,0,1,2,2,0,6,8
0,0,0,0,0,0,0,1,1,1,0,10
0,0,0,0,0,0,1,2,2,0,6,1
0,0,0,0,0,0,0,1,1,1,0,10
0,0,0,0,0,0,1,2,2,0,1,8
0,0,0,0,0,0,0,1,1,7,15,17
0,0,0,0,0,0,1,2,2,8,13,23
0,0,0,0,0,0,0,2,2,8,16,7
0,0,0,0,0,0,0,1,1,1,0,10
0,0,0,0,0,0,1,2,2,0,6,1
0,0,0,0,0,0,0,0,0,5,5,29
0,0,0,0,0,0,0,0,0,5,5,29
0,0,0,0,0,0,1,2,2,0,6,1
0,0,0,0,0,0,1,2,2,0,6,1
0,0,0,0,0,0,1,2,2,0,6,1
0,0,0,0,0,0,1,2,2,0,6,1
0,0,0,0,0,0,0,1,1,7,7,9
0,0,0,0,0,0,1,2,2,0,6,1
0,0,0,0,0,0,0,4,4,4,9,13
0,0,0,0,0,0,1,2,2,0,6,1
0,0,0,0,0,0,0,3,3,9,3,15
0,0,0,0,0,0,1,2,2,0,6,1
0,0,0,0,0,0,0,4,4,10,12,26
0,0,0,0,0,0,0,3,3,9,3,15
0,0,0,0,0,0,0,1,1,1,0,10
0,0,0,0,0,0,1,2,2,0,6,1
0,0,0,0,0,0,1,2,2,0,6,1
0,0,0,0,0,0,0,3,3,9,3,15
0,0,0,0,0,0,1,2,2,0,6,1
0,0,0,0,0,0,1,2,2,0,6,1
0,0,0,0,0,0,1,2,2,0,1,8
0,0,0,0,0,0,1,2,2,0,6,1
0,0,0,0,0,0,0,4,4,4,9,13
0,0,0,0,0,0,0,0,0,2,13,16
0,0,0,0,0,0,1,2,2,0,1,8
0,0,0,0,0,0,1,2,2,0,6,8
0,0,0,0,0,0,1,2,2,0,6,1
0,0,0,0,0,0,1,2,2,0,6,1
0,0,0,0,0,0,0,1,1,1,0,10
0,0,0,0,0,0,0,4,4,4,4,4
0,0,0,0,0,0,1,2,2,0,6,1
0,0,0,0,0,0,0,1,1,1,0,10
0,0,0,0,0,0,1,2,2,0,6,1
0,0,0,0,0,0,1,2,2,0,6,1
0,0,0,0,0,0,0,1,1,1,0,0
0,0,0,0,0,0,1,2,2,8,1,18
0,0,0,0,0,0,0,1,1,7,15,17
0,0,0,0,0,0,1,2,2,8,11,14
0,0,0,0,0,0,0,4,4,3,8,5
0,0,0,0,0,0,0,2,2,8,16,7
0,0,0,0,0,0,1,2,2,8,14,6
0,0,0,0,0,0,0,1,1,1,0,10
0,0,0,0,0,0,0,3,3,9,3,3
0,0,0,0,0,0,0,1,1,7,7,7
0,0,0,0,0,0,1,2,2,8,16,23
0,0,0,0,0,0,1,2,2,0,6,1
0,0,0,0,0,0,0,0,0,2,2,27
0,0,0,0,0,0,0,3,3,9,3,15
0,0,0,0,0,0,1,2,2,8,1,21
0,0,0,0,0,0,0,0,0,5,5,29
0,0,0,0,0,0,0,1,1,1,0,10
0,0,0,0,0,0,0,0,0,2,2,16
0,0,0,0,0,0,1,2,2,0,6,1
0,0,0,0,0,0,0,0,0,5,5,29
0,0,0,0,0,0,1,2,2,0,1,8
0,0,0,0,0,0,0,0,0,2,2,27
0,0,0,0,0,0,0,4,4,4,4,4
0,0,0,0,0,0,0,1,1,1,0,10
0,0,0,0,0,0,0,4,4,2,2,11
0,0,0,0,0,0,1,2,2,8,1,21
0,0,0,0,0,0,1,2,2,8,1,21
0,0,0,0,0,0,1,2,2,0,6,1
0,0,0,0,0,0,1,2,2,0,6,1
0,0,0,0,0,0,0,1,1,1,0,10
0,0,0,0,0,0,0,3,3,9,3,15
0,0,0,0,0,0,1,2,2,0,6,1
0,0,0,0,0,0,1,2,2,8,14,6
0,0,0,0,0,0,1,2,2,8,1,21
0,0,0,0,0,0,1,2,2,0,6,8
0,0,0,0,0,0,1,2,2,0,6,1
0,0,0,0,0,0,1,2,2,8,14,6
0,0,0,0,0,0,0,0,0,5,5,29
0,0,0,0,0,0,1,2,2,0,6,1
0,0,0,0,0,0,0,3,3,6,10,25
0,0,0,0,0,0,1,2,2,6,11,14
0,0,0,0,0,0,1,2,2,8,14,6
0,0,0,0,0,0,1,2,2,0,6,1
0,0,0,0,0,0,0,3,3,9,3,3
0,0,0,0,0,0,1,2,2,8,14,6
0,0,0,0,0,0,0,4,4,4,4,4
0,0,0,0,0,0,1,2,2,0,6,1
0,0,0,0,0,0,0,4,4,3,8,20
0,0,0,0,0,0,0,1,1,1,0,10
0,0,0,0,0,0,0,1,1,1,0,10
0,0,0,0,0,0,1,2,2,8,1,23
0,0,0,0,0,0,0,4,4,4,9,13
0,0,0,0,0,0,1,2,2,0,6,1
0,0,0,0,0,0,1,2,2,0,6,1
0,0,0,0,0,0,0,1,1,1,0,10
0,0,0,0,0,0,0,0,0,2,2,28
0,0,0,0,0,0,1,2,2,0,6,1
0,0,0,0,0,0,0,0,0,5,5,29
0,0,0,0,0,0,1,2,2,8,1,21
0,0,0,0,0,0,1,2,2,0,1,8
0,0,0,0,0,0,1,2,2,8,1,23
0,0,0,0,0,0,1,2,2,0,6,1
0,0,0,0,0,0,0,3,3,9,3,15
0,0,0,0,0,0,1,2,2,0,6,1
0,0,0,0,0,0,1,2,2,0,6,1
0,0,0,0,0,0,0,0,0,5,5,29
0,0,0,0,0,0,0,0,0,5,5,29
0,0,0,0,0,0,1,2,2,0,6,1
0,0,0,0,0,0,1,2,2,8,14,6
0,0,0,0,0,0,1,2,2,0,6,1
0,0,0,0,0,0,0,3,3,9,3,15
0,0,0,0,0,0,1,2,2,0,6,8
0,0,0,0,0,0,1,2,2,0,6,1
0,0,0,0,0,0,0,4,4,4,4,4
0,0,0,0,0,0,0,1,1,7,15,17
0,0,0,0,0,0,1,2,2,8,16,18
0,0,0,0,0,0,0,1,1,1,0,10
0,0,0,0,0,0,0,1,1,1,0,10
0,0,0,0,0,0,1,2,2,0,6,1
0,0,0,0,0,0,0,1,1,7,7,9
0,0,0,0,0,0,1,2,2,0,1,8
0,0,0,0,0,0,1,2,2,0,6,1
0,0,0,0,0,0,0,1,1,1,0,0
0,0,0,0,0,0,0,0,0,2,2,11
0,0,0,0,0,0,0,4,4,10,12,26
0,0,0,0,0,0,0,1,1,1,0,10
0,0,0,0,0,0,1,2,2,0,6,1
0,0,0,0,0,0,0,1,1,7,7,7
0,0,0,0,0,0,0,1,1,7,7,9
0,0,0,0,0,0,0,4,4,4,9,13
0,0,0,0,0,0,0,1,1,1,0,0
0,0,0,0,0,0,0,4,4,4,9,13
0,0,0,0,0,0,1,2,2,0,6,8
0,0,0,0,0,0,1,2,2,0,6,1
0,0,0,0,0,0,0,1,1,1,15,0
0,0,0,0,0,0,1,2,2,0,6,1
0,0,0,0,0,0,0,4,4,4,9,13
0,0,0,0,0,0,0,0,0,5,5,29
0,0,0,0,0,0,1,2,2,0,6,1
0,0,0,0,0,0,1,2,2,0,6,8
0,0,0,0,0,0,0,0,0,5,5,2
0,0,0,0,0,0,0,4,4,2,12,12
0,0,0,0,0,0,0,3,3,9,3,15
0,0,0,0,0,0,0,0,0,2,2,2
0,0,0,0,0,0,1,2,2,0,1,8
0,0,0,0,0,0,1,2,2,8,1,24
0,0,0,0,0,0,0,3,3,9,3,15
0,0,0,0,0,0,0,0,0,5,5,29
0,0,0,0,0,0,0,1,1,7,7,9
0,0,0,0,0,0,0,3,3,6,11,14
0,0,0,0,0,0,0,0,0,2,2,2
0,0,0,0,0,0,1,2,2,0,6,1
0,0,0,0,0,0,0,3,3,9,3,3
0,0,0,0,0,0,1,2,2,0,6,1
0,0,0,0,0,0,1,2,2,8,1,24
0,0,0,0,0,0,1,2,2,0,6,1
0,0,0,0,0,0,1,2,2,0,6,1
0,0,0,0,0,0,0,1,1,7,15,17
0,0,0,0,0,0,1,2,2,0,6,1
0,0,0,0,0,0,1,2,2,8,16,18
0,0,0,0,0,0,1,2,2,0,6,1
0,0,0,0,0,0,1,2,2,0,6,8
0,0,0,0,0,0,1,2,2,0,1,8
0,0,0,0,0,0,1,2,2,0,6,1
0,0,0,0,0,0,1,2,2,8,14,6
0,0,0,0,0,0,0,0,0,5,5,29
0,0,0,0,0,0,0,2,2,7,16,7
0,0,0,0,0,0,1,2,2,0,6,1
0,0,0,0,0,0,1,2,2,0,6,1
0,0,0,0,0,0,0,0,0,5,5,29
0,0,0,0,0,0,1,2,2,0,6,1
0,0,0,0,0,0,0,0,0,5,5,2
0,0,0,0,0,0,1,2,2,8,16,18
0,0,0,0,0,0,1,2,2,0,6,1
0,0,0,0,0,0,1,2,2,8,13,23
0,0,0,0,0,0,0,1,1,1,0,10
0,0,0,0,0,0,0,3,3,9,3,15
0,0,0,0,0,0,1,2,2,0,6,1
0,0,0,0,0,0,1,2,2,0,6,1
0,0,0,0,0,0,0,1,1,7,7,9
0,0,0,0,0,0,0,1,1,1,0,10
0,0,0,0,0,0,0,1,1,1,0,10
0,0,0,0,0,0,1,2,2,8,14,6
0,0,0,0,0,0,0,0,0,5,5,2
0,0,0,0,0,0,0,4,4,4,9,4
0,0,0,0,0,0,0,0,0,2,2,28
0,0,0,0,0,0,1,2,2,0,6,1
0,0,0,0,0,0,1,2,2,0,1,8
0,0,0,0,0,0,1,2,2,6,11,14
0,0,0,0,0,0,1,2,2,8,1,23
0,0,0,0,0,0,0,0,0,5,5,29
0,0,0,0,0,0,0,1,1,1,0,10
0,0,0,0,0,0,0,0,0,5,5,2
0,0,0,0,0,0,0,1,1,7,15,17
0,0,0,0,0,0,0,3,3,6,10,3
0,0,0,0,0,0,1,2,2,0,6,8
0,0,0,0,0,0,0,1,1,1,0,10
0,0,0,0,0,0,1,2,2,0,6,1
0,0,0,0,0,0,0,4,4,4,4,4
0,0,0,0,0,0,0,0,0,5,5,29
0,0,0,0,0,0,0,2,2,7,16,7
0,0,0,0,0,0,1,2,2,0,6,1
0,0,0,0,0,0,0,1,1,7,7,9
0,0,0,0,0,0,0,1,1,1,0,10
0,0,0,0,0,0,0,0,0,5,5,29
0,0,0,0,0,0,1,2,2,0,6,1
0,0,0,0,0,0,0,1,1,1,0,10
0,0,0,0,0,0,1,2,2,0,6,1
0,0,0,0,0,0,0,4,4,4,4,30
0,0,0,0,0,0,1,2,2,0,6,1
0,0,0,0,0,0,1,2,2,0,6,1
0,0,0,0,0,0,1,2,2,0,6,1
0,0,0,0,0,0,1,2,2,0,6,8
0,0,0,0,0,0,1,2,2,0,6,1
0,0,0,0,0,0,0,1,1,1,0,10
0,0,0,0,0,0,1,2,2,0,6,1
0,0,0,0,0,0,1,2,2,0,1,8
0,0,0,0,0,0,1,2,2,0,6,1
0,0,0,0,0,0,0,4,4,4,9,13
0,0,0,0,0,0,1,2,2,8,14,6
0,0,0,0,0,0,1,2,2,0,6,1
0,0,0,0,0,0,0,3,3,9,3,15
0,0,0,0,0,0,1,2,2,8,13,23
0,0,0,0,0,0,0,1,1,1,0,10
0,0,0,0,0,0,1,2,2,0,6,1
0,0,0,0,0,0,1,2,2,0,6,1
0,0,0,0,0,0,0,0,0,5,5,29
0,0,0,0,0,0,1,2,2,8,14,6
0,0,0,0,0,0,1,2,2,0,6,1
0,0,0,0,0,0,1,2,2,0,6,1
0,0,0,0,0,0,1,2,2,0,6,1
0,0,0,0,0,0,1,2,2,0,6,1
0,0,0,0,0,0,1,2,2,8,14,6
0,0,0,0,0,0,1,2,2,0,6,1
0,0,0,0,0,0,1,2,2,0,6,1
0,0,0,0,0,0,0,3,3,9,3,15
0,0,0,0,0,0,1,2,2,0,6,1
0,0,0,0,0,0,0,1,1,1,0,0
0,0,0,0,0,0,1,2,2,0,6,1
0,0,0,0,0,0,1,2,2,8,16,18
0,0,0,0,0,0,1,2,2,0,1,18
0,0,0,0,0,0,0,3,3,9,3,3
0,0,0,0,0,0,0,1,1,7,7,9
0,0,0,0,0,0,1,2,2,0,6,1
0,0,0,0,0,0,0,3,3,6,10,3
0,0,0,0,0,0,1,2,2,8,16,18
0,0,0,0,0,0,1,2,2,8,14,6
0,0,0,0,0,0,0,0,0,5,5,29
0,0,0,0,0,0,0,0,0,5,5,29
0,0,0,0,0,0,1,2,2,0,6,1
0,0,0,0,0,0,1,2,2,0,6,1
0,0,0,0,0,0,0,0,0,5,5,29
0,0,0,0,0,0,1,2,2,0,6,1
0,0,0,0,0,0,1,2,2,0,6,1
0,0,0,0,0,0,0,1,1,1,0,10
0,0,0,0,0,0,1,2,2,0,6,1
0,0,0,0,0,0,0,0,0,5,5,29
0,0,0,0,0,0,0,0,0,2,2,2
0,0,0,0,0,0,1,2,2,0,6,1
0,0,0,0,0,0,0,1,1,7,15,17
0,0,0,0,0,0,0,0,0,5,5,29
0,0,0,0,0,0,0,4,4,4,9,13
0,0,0,0,0,0,1,2,2,0,6,1
0,0,0,0,0,0,1,2,2,0,6,1
0,0,0,0,0,0,1,2,2,0,6,1
0,0,0,0,0,0,1,2,2,8,14,21
0,0,0,0,0,0,1,2,2,8,16,18
0,0,0,0,0,0,1,2,2,0,6,1
0,0,0,0,0,0,0,0,0,5,5,29
0,0,0,0,0,0,1,2,2,0,6,1
0,0,0,0,0,0,1,2,2,0,6,1
0,0,0,0,0,0,0,1,1,1,0,10
0,0,0,0,0,0,0,0,0,5,5,2
0,0,0,0,0,0,1,2,2,8,1,24
0,0,0,0,0,0,0,3,3,9,3,15
0,0,0,0,0,0,0,1,1,1,15,0
0,0,0,0,0,0,1,2,2,0,6,1
0,0,0,0,0,0,1,2,2,8,1,8
0,0,0,0,0,0,0,1,1,1,0,0
0,0,0,0,0,0,0,4,4,10,12,26
0,0,0,0,0,0,0,3,3,9,3,15
0,0,0,0,0,0,0,0,0,5,5,29
0,0,0,0,0,0,0,1,1,7,15,17
0,0,0,0,0,0,0,0,0,5,5,29
0,0,0,0,0,0,0,0,0,2,2,28
0,0,0,0,0,0,0,3,3,9,3,15
0,0,0,0,0,0,0,1,1,7,15,17
0,0,0,0,0,0,0,3,3,9,3,15
0,0,0,0,0,0,0,0,0,2,2,2
0,0,0,0,0,0,1,2,2,0,6,1
0,0,0,0,0,0,1,2,2,0,6,1
0,0,0,0,0,0,1,2,2,8,1,14
0,0,0,0,0,0,0,0,0,5,5,29
0,0,0,0,0,0,0,3,3,9,3,3
0,0,0,0,0,0,1,2,2,0,6,1
0,0,0,0,0,0,1,2,2,0,6,1
0,0,0,0,0,0,1,2,2,0,1,8
0,0,0,0,0,0,0,4,4,3,8,5
0,0,0,0,0,0,1,2,2,0,6,1
0,0,0,0,0,0,0,0,0,5,5,29
0,0,0,0,0,0,0,1,1,1,0,0
0,0,0,0,0,0,0,1,1,1,0,10
0,0,0,0,0,0,0,4,4,10,12,26
0,0,0,0,0,0,0,1,1,10,12,12
0,0,0,0,0,0,1,2,2,0,6,1
0,0,0,0,0,0,1,2,2,0,6,1
0,0,0,0,0,0,1,2,2,0,6,1
0,0,0,0,0,0,1,2,2,0,6,1
0,0,0,0,0,0,0,4,4,3,8,5
0,0,0,0,0,0,0,3,3,9,3,15
0,0,0,0,0,0,0,1,1,1,0,10
0,0,0,0,0,0,1,2,2,0,1,8
0,0,0,0,0,0,0,0,0,5,5,2
0,0,0,0,0,0,1,2,2,0,6,1
0,0,0,0,0,0,0,1,1,1,0,10
0,0,0,0,0,0,0,3,3,6,10,19
0,0,0,0,0,0,0,1,1,1,0,0
0,0,0,0,0,0,1,2,2,0,6,1
0,0,0,0,0,0,1,2,2,0,6,1
0,0,0,0,0,0,1,2,2,0,6,1
0,0,0,0,0,0,0,3,3,9,3,15
0,0,0,0,0,0,1,2,2,0,6,8
0,0,0,0,0,0,0,3,3,9,3,15
0,0,0,0,0,0,0,0,0,5,5,29
0,0,0,0,0,0,0,1,1,7,15,28
0,0,0,0,0,0,0,3,3,9,3,15
0,0,0,0,0,0,0,3,3,9,3,15
0,0,0,0,0,0,0,3,3,9,3,15
0,0,0,0,0,0,0,1,1,1,0,10
0,0,0,0,0,0,0,3,3,6,10,25
0,0,0,0,0,0,1,2,2,0,6,1
0,0,0,0,0,0,0,1,1,7,7,7
0,0,0,0,0,0,1,2,2,0,6,1
0,0,0,0,0,0,1,2,2,0,6,8
0,0,0,0,0,0,1,2,2,0,6,1
0,0,0,0,0,0,1,2,2,0,1,8
0,0,0,0,0,0,1,2,2,0,6,1
0,0,0,0,0,0,1,2,2,0,1,8
0,0,0,0,0,0,1,2,2,10,12,26
0,0,0,0,0,0,1,2,2,0,6,1
0,0,0,0,0,0,1,2,2,0,6,1
0,0,0,0,0,0,1,2,2,0,1,8
0,0,0,0,0,0,0,1,1,7,15,17
0,0,0,0,0,0,1,2,2,8,1,21
0,0,0,0,0,0,1,2,2,0,6,1
0,0,0,0,0,0,0,0,0,5,5,2
0,0,0,0,0,0,0,4,4,3,8,20
0,0,0,0,0,0,1,2,2,0,6,1
0,0,0,0,0,0,0,1,1,7,7,7
0,0,0,0,0,0,0,1,1,1,0,10
0,0,0,0,0,0,1,2,2,0,6,1
0,0,0,0,0,0,1,2,2,0,6,8
0,0,0,0,0,0,0,3,3,9,3,3
0,0,0,0,0,0,1,2,2,0,6,8
0,0,0,0,0,0,1,2,2,0,6,1
0,0,0,0,0,0,1,2,2,8,16,18
0,0,0,0,0,0,1,2,2,0,6,1
0,0,0,0,0,0,0,1,1,1,0,10
0,0,0,0,0,0,1,2,2,8,14,6
0,0,0,0,0,0,1,2,2,0,1,8
0,0,0,0,0,0,0,3,3,9,3,15
0,0,0,0,0,0,1,2,2,0,1,8
0,0,0,0,0,0,0,0,0,5,5,29
0,0,0,0,0,0,0,4,4,4,9,13
0,0,0,0,0,0,1,2,2,0,6,1
0,0,0,0,0,0,0,4,4,10,12,26
0,0,0,0,0,0,0,1,1,1,0,10
0,0,0,0,0,0,0,1,1,1,0,10
0,0,0,0,0,0,0,1,1,1,0,10
0,0,0,0,0,0,0,0,0,5,5,29
0,0,0,0,0,0,1,2,2,0,6,1
0,0,0,0,0,0,1,2,2,0,6,1
0,0,0,0,0,0,0,0,0,2,2,27
0,0,0,0,0,0,0,1,1,1,0,10
0,0,0,0,0,0,1,2,2,8,1,18
0,0,0,0,0,0,0,1,1,1,0,10
0,0,0,0,0,0,0,3,3,9,3,3
0,0,0,0,0,0,0,1,1,7,15,17
0,0,0,0,0,0,1,2,2,0,6,1
0,0,0,0,0,0,0,1,1,1,0,10
0,0,0,0,0,0,1,2,2,0,6,1
0,0,0,0,0,0,1,2,2,0,6,8
0,0,0,0,0,0,1,2,2,8,14,6
0,0,0,0,0,0,1,2,2,0,6,1
0,0,0,0,0,0,1,2,2,0,6,1
0,0,0,0,0,0,0,1,1,1,0,10
0,0,0,0,0,0,0,1,1,1,0,10
0,0,0,0,0,0,0,0,0,5,5,29
0,0,0,0,0,0,1,2,2,0,6,1
0,0,0,0,0,0,0,0,0,2,2,11
0,0,0,0,0,0,1,2,2,0,6,1
0,0,0,0,0,0,1,2,2,0,6,1
0,0,0,0,0,0,1,2,2,8,16,18
0,0,0,0,0,0,1,2,2,0,6,1
0,0,0,0,0,0,1,2,2,0,6,8
0,0,0,0,0,0,1,2,2,0,6,1
0,0,0,0,0,0,1,2,2,0,6,1
0,0,0,0,0,0,1,2,2,0,6,1
0,0,0,0,0,0,1,2,2,0,6,1
0,0,0,0,0,0,1,2,2,0,6,1
0,0,0,0,0,0,1,2,2,0,6,1
0,0,0,0,0,0,0,1,1,1,0,0
0,0,0,0,0,0,1,2,2,0,6,1
0,0,0,0,0,0,0,1,1,1,0,0
0,0,0,0,0,0,0,3,3,6,11,14
0,0,0,0,0,0,0,4,4,3,8,24
0,0,0,0,0,0,0,4,4,4,9,13
0,0,0,0,0,0,1,2,2,0,1,8
0,0,0,0,0,0,1,2,2,0,6,1
0,0,0,0,0,0,0,1,1,1,0,10
0,0,0,0,0,0,0,4,4,4,9,13
0,0,0,0,0,0,0,1,1,1,0,0
0,0,0,0,0,0,1,2,2,8,16,18
0,0,0,0,0,0,1,2,2,0,6,1
0,0,0,0,0,0,1,2,2,0,6,1
0,0,0,0,0,0,1,2,2,0,6,8
0,0,0,0,0,0,1,2,2,0,6,1
0,0,0,0,0,0,1,2,2,0,1,8
0,0,0,0,0,0,1,2,2,0,6,8
0,0,0,0,0,0,0,4,4,4,9,13
0,0,0,0,0,0,0,1,1,1,0,10
0,0,0,0,0,0,0,3,3,9,3,15
0,0,0,0,0,0,0,3,3,6,10,19
0,0,0,0,0,0,0,3,3,9,3,15
0,0,0,0,0,0,1,2,2,8,16,18
0,0,0,0,0,0,1,2,2,0,6,1
0,0,0,0,0,0,1,2,2,0,6,1
0,0,0,0,0,0,0,3,3,6,11,14
0,0,0,0,0,0,1,2,2,8,1,21
0,0,0,0,0,0,0,1,1,1,0,10
0,0,0,0,0,0,0,3,3,9,3,15
0,0,0,0,0,0,0,3,3,9,3,15
0,0,0,0,0,0,0,0,0,5,5,2
0,0,0,0,0,0,1,2,2,0,6,1
0,0,0,0,0,0,1,2,2,0,6,1
0,0,0,0,0,0,1,2,2,0,6,1
0,0,0,0,0,0,0,1,1,1,0,10
0,0,0,0,0,0,0,4,4,4,9,13
0,0,0,0,0,0,0,1,1,1,0,10
0,0,0,0,0,0,1,2,2,0,6,1
0,0,0,0,0,0,1,2,2,0,1,8
0,0,0,0,0,0,1,2,2,0,6,1
0,0,0,0,0,0,1,2,2,0,6,1
0,0,0,0,0,0,1,2,2,0,6,1
0,0,0,0,0,0,1,2,2,0,6,1
0,0,0,0,0,0,0,3,3,9,3,15
0,0,0,0,0,0,0,4,4,4,9,13
0,0,0,0,0,0,1,2,2,0,6,1
0,0,0,0,0,0,0,0,0,2,2,2
0,0,0,0,0,0,1,2,2,0,6,1
0,0,0,0,0,0,1,2,2,0,6,8
0,0,0,0,0,0,0,1,1,7,15,17
0,0,0,0,0,0,1,2,2,0,6,1
0,0,0,0,0,0,0,0,0,2,2,11
0,0,0,0,0,0,1,2,2,8,14,6
0,0,0,0,0,0,0,4,4,4,9,13
0,0,0,0,0,0,0,1,1,7,7,9
0,0,0,0,0,0,1,2,2,0,1,8
0,0,0,0,0,0,0,4,4,4,9,13
0,0,0,0,0,0,1,2,2,0,6,1
0,0,0,0,0,0,0,4,4,3,8,5
0,0,0,0,0,0,0,4,4,4,9,13
0,0,0,0,0,0,1,2,2,0,6,1
0,0,0,0,0,0,1,2,2,0,6,1
0,0,0,0,0,0,0,0,0,5,5,29
0,0,0,0,0,0,0,0,0,5,5,2
0,0,0,0,0,0,1,2,2,0,6,1
0,0,0,0,0,0,0,3,3,9,3,15
0,0,0,0,0,0,0,1,1,7,15,17
0,0,0,0,0,0,0,0,0,2,2,11
0,0,0,0,0,0,1,2,2,0,6,1
0,0,0,0,0,0,0,4,4,2,4,31
0,0,0,0,0,0,1,2,2,0,6,1
0,0,0,0,0,0,1,2,2,0,6,1
0,0,0,0,0,0,1,2,2,0,6,1
0,0,0,0,0,0,1,2,2,0,6,1
0,0,0,0,0,0,1,2,2,0,6,1
0,0,0,0,0,0,1,2,2,0,6,1
0,0,0,0,0,0,1,2,2,0,1,8
0,0,0,0,0,0,1,2,2,8,14,6
0,0,0,0,0,0,0,0,0,5,5,2
0,0,0,0,0,0,0,4,4,4,4,31
0,0,0,0,0,0,0,4,4,6,10,22
0,0,0,0,0,0,0,1,1,10,12,12
0,0,0,0,0,0,0,0,0,5,5,29
0,0,0,0,0,0,1,2,2,0,6,1
0,0,0,0,0,0,0,1,1,7,7,7
0,0,0,0,0,0,1,2,2,0,6,1
0,0,0,0,0,0,0,3,3,6,10,3
0,0,0,0,0,0,1,2,2,0,6,1
0,0,0,0,0,0,0,1,1,1,0,10
0,0,0,0,0,0,0,1,1,1,0,10
0,0,0,0,0,0,0,1,1,1,0,10
0,0,0,0,0,0,0,0,0,5,5,29
0,0,0,0,0,0,0,1,1,7,15,17
0,0,0,0,0,0,0,1,1,7,15,7
0,0,0,0,0,0,0,1,1,1,0,10
0,0,0,0,0,0,1,2,2,0,6,1
0,0,0,0,0,0,1,2,2,0,1,18
0,0,0,0,0,0,0,1,1,1,0,10
0,0,0,0,0,0,1,2,2,0,1,21
0,0,0,0,0,0,1,2,2,0,6,1
0,0,0,0,0,0,1,2,2,0,1,8
0,0,0,0,0,0,0,1,1,7,15,17
0,0,0,0,0,0,1,2,2,0,6,8
0,0,0,0,0,0,0,4,4,3,8,20
0,0,0,0,0,0,1,2,2,0,6,1
0,0,0,0,0,0,1,2,2,0,6,8
0,0,0,0,0,0,0,1,1,7,15,17
0,0,0,0,0,0,0,3,3,9,3,15
0,0,0,0,0,0,0,1,1,7,15,17
0,0,0,0,0,0,1,2,2,8,13,23
0,0,0,0,0,0,0,3,3,6,10,3
0,0,0,0,0,0,0,1,1,1,0,10
0,0,0,0,0,0,1,2,2,0,6,1
0,0,0,0,0,0,1,2,2,8,14,6
0,0,0,0,0,0,0,1,1,1,0,10
0,0,0,0,0,0,1,2,2,0,6,1
0,0,0,0,0,0,1,2,2,0,6,1
0,0,0,0,0,0,0,1,1,1,0,10
0,0,0,0,0,0,1,2,2,8,16,18
0,0,0,0,0,0,0,4,4,4,9,13
0,0,0,0,0,0,0,0,0,2,2,11
0,0,0,0,0,0,0,1,1,1,0,10
0,0,0,0,0,0,1,2,2,8,16,18
0,0,0,0,0,0,1,2,2,0,6,1
0,0,0,0,0,0,0,0,0,5,5,2
0,0,0,0,0,0,1,2,2,0,6,1
0,0,0,0,0,0,1,2,2,0,1,21
0,0,0,0,0,0,1,2,2,0,6,1
0,0,0,0,0,0,0,4,4,4,9,13
0,0,0,0,0,0,1,2,2,0,6,1
0,0,0,0,0,0,1,2,2,0,6,1
0,0,0,0,0,0,0,1,1,1,0,0
0,0,0,0,0,0,0,0,0,2,2,11
0,0,0,0,0,0,0,1,1,7,7,7
0,0,0,0,0,0,1,2,2,0,6,1
0,0,0,0,0,0,0,0,0,5,5,29
0,0,0,0,0,0,1,2,2,0,6,1
0,0,0,0,0,0,0,1,1,1,0,10
0,0,0,0,0,0,0,3,3,6,10,3
0,0,0,0,0,0,0,3,3,6,10,3
0,0,0,0,0,0,0,4,4,4,9,13
0,0,0,0,0,0,1,2,2,0,6,1
0,0,0,0,0,0,1,2,2,0,6,1
0,0,0,0,0,0,0,1,1,1,0,10
0,0,0,0,0,0,1,2,2,0,1,8
0,0,0,0,0,0,1,2,2,0,6,1
0,0,0,0,0,0,0,0,0,2,2,11
0,0,0,0,0,0,1,2,2,0,6,1
0,0,0,0,0,0,0,0,0,5,5,29
0,0,0,0,0,0,0,2,2,7,16,7
0,0,0,0,0,0,1,2,2,0,6,1
0,0,0,0,0,0,0,1,1,7,15,17
0,0,0,0,0,0,0,1,1,7,16,7
0,0,0,0,0,0,0,0,0,2,2,11
0,0,0,0,0,0,1,2,2,8,1,8
0,0,0,0,0,0,0,3,3,9,3,15
0,0,0,0,0,0,1,2,2,0,6,1
0,0,0,0,0,0,1,2,2,0,6,1
0,0,0,0,0,0,0,1,1,1,0,10
0,0,0,0,0,0,1,2,2,0,6,1
0,0,0,0,0,0,0,0,0,5,5,29
0,0,0,0,0,0,0,3,3,9,10,3
0,0,0,0,0,0,0,0,0,2,2,28
0,0,0,0,0,0,0,1,1,1,0,10
0,0,0,0,0,0,1,2,2,0,6,1
0,0,0,0,0,0,0,1,1,1,0,10
0,0,0,0,0,0,0,1,1,1,0,10
0,0,0,0,0,0,1,2,2,0,6,1
0,0,0,0,0,0,1,2,2,0,6,1
0,0,0,0,0,0,1,2,2,0,6,1
0,0,0,0,0,0,0,1,1,1,0,10
0,0,0,0,0,0,0,3,3,9,3,15
0,0,0,0,0,0,0,0,0,5,5,29
0,0,0,0,0,0,1,2,2,0,6,1
0,0,0,0,0,0,0,1,1,1,0,10
0,0,0,0,0,0,1,2,2,0,1,8
0,0,0,0,0,0,1,2,2,0,6,1
0,0,0,0,0,0,0,3,3,9,3,3
0,0,0,0,0,0,1,2,2,0,6,1
0,0,0,0,0,0,0,3,3,9,3,15
0,0,0,0,0,0,0,1,1,7,7,7
0,0,0,0,0,0,1,2,2,0,6,1
0,0,0,0,0,0,1,2,2,0,6,1
0,0,0,0,0,0,1,2,2,0,1,8
0,0,0,0,0,0,1,2,2,0,6,8
0,0,0,0,0,0,0,3,3,9,3,3
0,0,0,0,0,0,1,2,2,0,6,1
0,0,0,0,0,0,0,1,1,1,0,10
0,0,0,0,0,0,1,2,2,0,6,1
0,0,0,0,0,0,1,2,2,0,6,1
0,0,0,0,0,0,0,3,3,6,10,25
0,0,0,0,0,0,0,0,0,5,5,29
0,0,0,0,0,0,0,0,0,5,5,29
0,0,0,0,0,0,0,3,3,6,11,14
0,0,0,0,0,0,1,2,2,0,1,8
0,0,0,0,0,0,1,2,2,0,6,1
0,0,0,0,0,0,0,1,1,1,0,10
0,0,0,0,0,0,0,0,0,5,5,29
0,0,0,0,0,0,1,2,2,8,14,21
0,0,0,0,0,0,0,0,0,2,10,27
0,0,0,0,0,0,0,1,1,1,0,0
0,0,0,0,0,0,1,2,2,0,6,1
0,0,0,0,0,0,0,1,1,1,0,0
0,0,0,0,0,0,0,1,1,7,15,17
0,0,0,0,0,0,0,0,0,5,5,29
0,0,0,0,0,0,0,0,0,5,5,29
0,0,0,0,0,0,1,2,2,0,6,1
0,0,0,0,0,0,1,2,2,0,6,8
0,0,0,0,0,0,0,1,1,1,0,10
0,0,0,0,0,0,0,1,1,1,0,10
0,0,0,0,0,0,0,3,3,6,10,25
0,0,0,0,0,0,1,2,2,0,6,1
0,0,0,0,0,0,0,1,1,7,7,9
0,0,0,0,0,0,1,2,2,0,6,1
0,0,0,0,0,0,1,2,2,0,6,1
0,0,0,0,0,0,0,0,0,5,5,29
0,0,0,0,0,0,1,2,2,0,6,1
0,0,0,0,0,0,1,2,2,0,6,8
0,0,0,0,0,0,0,3,3,9,10,3
0,0,0,0,0,0,1,2,2,0,6,1
0,0,0,0,0,0,0,1,1,1,0,0
0,0,0,0,0,0,1,2,2,0,6,1
0,0,0,0,0,0,0,4,4,4,9,13
0,0,0,0,0,0,1,2,2,8,1,21
0,0,0,0,0,0,0,1,1,1,0,10
0,0,0,0,0,0,1,2,2,0,6,1
0,0,0,0,0,0,1,2,2,0,6,1
0,0,0,0,0,0,1,2,2,0,6,1
0,0,0,0,0,0,0,1,1,7,7,9
0,0,0,0,0,0,1,2,2,0,6,1
0,0,0,0,0,0,0,0,0,5,5,29
0,0,0,0,0,0,1,2,2,0,6,1
0,0,0,0,0,0,1,2,2,0,1,8
0,0,0,0,0,0,0,0,0,2,13,16
0,0,0,0,0,0,1,2,2,8,1,18
0,0,0,0,0,0,0,1,1,1,0,0
0,0,0,0,0,0,1,2,2,8,1,18
0,0,0,0,0,0,1,2,2,0,6,1
0,0,0,0,0,0,0,0,0,5,5,29
0,0,0,0,0,0,1,2,2,0,6,1
0,0,0,0,0,0,1,2,2,0,6,1
0,0,0,0,0,0,0,0,0,5,5,29
0,0,0,0,0,0,0,1,1,1,0,10
0,0,0,0,0,0,0,1,1,1,0,10
0,0,0,0,0,0,1,2,2,0,1,8
0,0,0,0,0,0,1,2,2,0,6,1
0,0,0,0,0,0,0,0,0,5,5,29
0,0,0,0,0,0,1,2,2,0,6,1
0,0,0,0,0,0,1,2,2,8,14,6
0,0,0,0,0,0,1,2,2,0,6,1
0,0,0,0,0,0,0,3,3,6,10,3
0,0,0,0,0,0,1,2,2,0,6,1
0,0,0,0,0,0,1,2,2,0,6,1
0,0,0,0,0,0,0,0,0,5,5,29
0,0,0,0,0,0,1,2,2,0,6,1
0,0,0,0,0,0,0,1,1,7,7,9
0,0,0,0,0,0,0,1,1,1,0,10
0,0,0,0,0,0,1,2,2,0,6,1
0,0,0,0,0,0,0,0,0,5,5,29
0,0,0,0,0,0,1,2,2,0,6,1
0,0,0,0,0,0,1,2,2,0,6,1
0,0,0,0,0,0,1,2,2,0,6,8
0,0,0,0,0,0,1,2,2,0,6,1
0,0,0,0,0,0,0,1,1,7,7,9
0,0,0,0,0,0,0,1,1,1,0,10
0,0,0,0,0,0,1,2,2,8,14,21
0,0,0,0,0,0,0,3,3,9,3,15
0,0,0,0,0,0,1,2,2,0,1,8
0,0,0,0,0,0,0,1,1,1,0,10
0,0,0,0,0,0,0,1,1,1,0,0
0,0,0,0,0,0,1,2,2,0,6,1
0,0,0,0,0,0,1,2,2,0,1,8
0,0,0,0,0,0,1,2,2,6,11,14
0,0,0,0,0,0,1,2,2,0,6,1
0,0,0,0,0,0,1,2,2,0,6,1
0,0,0,0,0,0,0,4,4,4,9,13
0,0,0,0,0,0,0,1,1,1,0,0
0,0,0,0,0,0,1,2,2,0,6,1
0,0,0,0,0,0,0,3,3,9,3,15
0,0,0,0,0,0,1,2,2,0,6,1
0,0,0,0,0,0,0,0,0,2,2,11
0,0,0,0,0,0,1,2,2,0,6,1
0,0,0,0,0,0,0,1,1,1,0,0
0,0,0,0,0,0,0,0,0,5,5,29
0,0,0,0,0,0,1,2,2,0,1,8
0,0,0,0,0,0,1,2,2,0,6,1
0,0,0,0,0,0,0,1,1,7,7,7
0,0,0,0,0,0,0,1,1,1,0,10
0,0,0,0,0,0,0,3,3,9,3,15
0,0,0,0,0,0,0,3,3,9,3,15
0,0,0,0,0,0,0,4,4,4,4,4
0,0,0,0,0,0,0,0,0,5,5,29
0,0,0,0,0,0,1,2,2,8,14,21
0,0,0,0,0,0,1,2,2,0,6,1
