tau,n_clusters,n_int_boxes,lower_bound,high_bound,bound_diff
1.0,1,0,1.0,1.0,0.0
0.9,1,0,1.0,1.0,0.0
0.8,1,0,1.0,1.0,0.0
0.7,1,0,1.0,1.0,0.0
0.6,1,0,1.0,1.0,0.0
0.5,1,0,1.0,1.0,0.0
0.4,1,0,1.0,1.0,0.0
0.3,1,0,1.0,1.0,0.0
0.2,1,0,1.0,1.0,0.0
0.1,1,0,1.0,1.0,0.0
0.05,1,0,1.0,1.0,0.0
0.01,6,15,1.0893848159555879e-72,1.0893848159555879e-72,2.1271076561856713e-107
