tau,n_clusters,n_int_boxes,lower_bound,high_bound,bound_diff
1.0,1,0,1.0,1.0,0.0
0.9,1,0,1.0,1.0,0.0
0.8,1,0,1.0,1.0,0.0
0.7,1,0,1.0,1.0,0.0
0.6,1,0,1.0,1.0,0.0
0.5,1,0,1.0,1.0,0.0
0.4,1,0,1.0,1.0,0.0
0.3,1,0,1.0,1.0,0.0
0.2,1,0,1.0,1.0,0.0
0.1,1,0,1.0,1.0,0.0
0.05,2,1,3.4866479210446547e-09,3.4866479210446547e-09,8.80005197824296e-60
0.01,7,21,4.0483591484698704e-49,4.0483591484698704e-49,9.303053389989698e-90
