tau,n_clusters,n_int_boxes,lower_bound,high_bound,bound_diff
1.0,1,0,1.0,1.0,0.0
0.9,1,0,1.0,1.0,0.0
0.8,1,0,1.0,1.0,0.0
0.7,1,0,1.0,1.0,0.0
0.6,1,0,1.0,1.0,0.0
0.5,1,0,1.0,1.0,0.0
0.4,1,0,1.0,1.0,0.0
0.3,1,0,1.0,1.0,0.0
0.2,1,0,1.0,1.0,0.0
0.1,1,0,1.0,1.0,0.0
0.05,1,0,1.0,1.0,0.0
0.01,6,15,6.228154304136658e-51,6.228154304136658e-51,4.9257595139961774e-82
