tau,n_clusters,n_int_boxes,lower_bound,high_bound,bound_diff
1.0,1,0,1.0,1.0,0.0
0.9,1,0,1.0,1.0,0.0
0.8,1,0,1.0,1.0,0.0
0.7,1,0,1.0,1.0,0.0
0.6,1,0,1.0,1.0,0.0
0.5,1,0,1.0,1.0,0.0
0.4,1,0,1.0,1.0,0.0
0.3,2,1,1.1271982960003013e-08,1.1271982960003013e-08,1.3526316490612216e-45
0.2,2,1,1.1271982960003013e-08,1.1271982960003013e-08,1.3526316490612216e-45
0.1,4,1,3.442435615999269e-32,3.442435615999269e-32,2.6502195953834253e-62
0.05,8,2,8.759456953296236e-43,8.759456953296236e-43,4.015180432984372e-70
0.01,16,3,6.424336885687959e-41,6.424336885687959e-41,3.1296485654806365e-79
