1.0,0.9,0.8,0.7,0.6,0.5,0.4,0.3,0.2,0.1,0.05,0.01
0,0,0,0,0,0,0,1,6,6,6,6
0,0,0,0,0,0,0,1,4,4,4,4
0,0,0,0,0,0,0,0,8,8,8,8
0,0,0,0,0,0,0,0,0,0,0,0
0,0,0,0,0,0,0,0,11,11,11,11
0,0,0,0,0,0,0,0,5,5,5,5
0,0,0,0,0,0,0,0,7,7,7,7
0,0,0,0,0,0,0,1,10,10,10,10
0,0,0,0,0,0,0,1,1,1,1,1
0,0,0,0,0,0,0,0,3,3,3,3
0,0,0,0,0,0,0,1,9,9,9,9
0,0,0,0,0,0,0,0,2,2,2,2
