1.0,0.9,0.8,0.7,0.6,0.5,0.4,0.3,0.2,0.1,0.05,0.01
0,0,0,0,0,0,0,0,0,2,3,6
0,0,0,0,0,0,0,0,0,2,0,58
0,0,0,0,0,0,0,0,0,2,4,51
0,0,0,0,0,0,0,0,2,3,6,44
0,0,0,0,0,0,0,0,1,0,5,43
0,0,0,0,0,0,0,0,0,2,4,34
0,0,0,0,0,0,0,0,2,3,6,16
0,0,0,0,0,0,0,0,0,2,3,57
0,0,0,0,0,0,0,0,0,2,3,38
0,0,0,0,0,0,0,0,1,0,5,87
0,0,0,0,0,0,0,0,0,2,3,35
0,0,0,0,0,0,0,0,0,2,3,74
0,0,0,0,0,0,0,0,1,2,3,3
0,0,0,0,0,0,0,0,0,1,2,4
0,0,0,0,0,0,0,0,0,1,2,49
0,0,0,0,0,0,0,0,1,0,5,78
0,0,0,0,0,0,0,0,1,0,5,55
0,0,0,0,0,0,0,0,1,0,5,20
0,0,0,0,0,0,0,0,0,1,1,102
0,0,0,0,0,0,0,0,0,1,2,81
0,0,0,0,0,0,0,0,1,0,5,72
0,0,0,0,0,0,0,0,0,2,3,88
0,0,0,0,0,0,0,0,0,1,0,33
0,0,0,0,0,0,0,0,0,2,4,7
0,0,0,0,0,0,0,0,0,2,4,13
0,0,0,0,0,0,0,0,0,2,4,83
0,0,0,0,0,0,0,0,0,2,3,95
0,0,0,0,0,0,0,0,0,2,3,32
0,0,0,0,0,0,0,0,2,3,6,47
0,0,0,0,0,0,0,0,2,3,1,26
0,0,0,0,0,0,0,0,0,2,3,12
0,0,0,0,0,0,0,0,0,1,0,98
0,0,0,0,0,0,0,0,0,2,3,73
0,0,0,0,0,0,0,0,1,2,4,62
0,0,0,0,0,0,0,0,2,3,6,9
0,0,0,0,0,0,0,0,0,2,3,84
0,0,0,0,0,0,0,0,2,3,6,63
0,0,0,0,0,0,0,0,0,2,3,31
0,0,0,0,0,0,0,0,2,1,1,76
0,0,0,0,0,0,0,0,1,0,5,71
0,0,0,0,0,0,0,0,1,0,5,50
0,0,0,0,0,0,0,0,0,1,1,93
0,0,0,0,0,0,0,0,0,2,3,66
0,0,0,0,0,0,0,0,1,0,5,15
0,0,0,0,0,0,0,0,0,2,3,77
0,0,0,0,0,0,0,0,0,2,3,68
0,0,0,0,0,0,0,0,1,0,5,79
0,0,0,0,0,0,0,0,0,1,2,10
0,0,0,0,0,0,0,0,1,0,5,39
0,0,0,0,0,0,0,0,0,2,3,90
0,0,0,0,0,0,0,0,0,2,4,25
0,0,0,0,0,0,0,0,2,3,6,65
0,0,0,0,0,0,0,0,1,0,5,46
0,0,0,0,0,0,0,0,0,2,4,96
0,0,0,0,0,0,0,0,1,0,5,36
0,0,0,0,0,0,0,0,1,0,5,18
0,0,0,0,0,0,0,0,0,2,4,48
0,0,0,0,0,0,0,0,0,1,1,1
0,0,0,0,0,0,0,0,0,2,3,54
0,0,0,0,0,0,0,0,2,3,1,91
0,0,0,0,0,0,0,0,0,3,1,8
0,0,0,0,0,0,0,0,1,0,5,85
0,0,0,0,0,0,0,0,0,1,2,27
0,0,0,0,0,0,0,0,0,2,3,64
0,0,0,0,0,0,0,0,0,2,3,67
0,0,0,0,0,0,0,0,0,1,1,101
0,0,0,0,0,0,0,0,1,0,5,42
0,0,0,0,0,0,0,0,1,0,5,37
0,0,0,0,0,0,0,0,1,0,5,70
0,0,0,0,0,0,0,0,0,2,3,75
0,0,0,0,0,0,0,0,1,0,5,14
0,0,0,0,0,0,0,0,0,1,2,22
0,0,0,0,0,0,0,0,0,2,3,29
0,0,0,0,0,0,0,0,1,0,5,99
0,0,0,0,0,0,0,0,0,2,3,23
0,0,0,0,0,0,0,0,1,0,5,2
0,0,0,0,0,0,0,0,0,1,0,45
0,0,0,0,0,0,0,0,0,1,0,11
0,0,0,0,0,0,0,0,2,3,1,19
0,0,0,0,0,0,0,0,0,2,3,100
0,0,0,0,0,0,0,0,0,2,3,82
0,0,0,0,0,0,0,0,0,1,1,94
0,0,0,0,0,0,0,0,2,3,6,61
0,0,0,0,0,0,0,0,0,1,1,40
0,0,0,0,0,0,0,0,2,3,1,30
0,0,0,0,0,0,0,0,0,2,3,52
0,0,0,0,0,0,0,0,2,3,1,92
0,0,0,0,0,0,0,0,0,1,0,17
0,0,0,0,0,0,0,0,0,1,1,60
0,0,0,0,0,0,0,0,0,2,3,103
0,0,0,0,0,0,0,0,1,0,5,86
0,0,0,0,0,0,0,0,0,1,2,56
0,0,0,0,0,0,0,0,0,1,0,97
0,0,0,0,0,0,0,0,0,2,4,28
0,0,0,0,0,0,0,0,0,2,3,41
0,0,0,0,0,0,0,0,0,1,0,53
0,0,0,0,0,0,0,0,2,1,1,21
0,0,0,0,0,0,0,0,0,2,0,59
0,0,0,0,0,0,0,0,0,1,0,69
0,0,0,0,0,0,0,0,2,3,6,0
0,0,0,0,0,0,0,0,0,2,3,89
0,0,0,0,0,0,0,0,0,2,3,24
0,0,0,0,0,0,0,0,2,3,1,5
0,0,0,0,0,0,0,0,0,2,3,80
