tau,n_clusters,n_int_boxes,lower_bound,high_bound,bound_diff
1.0,1,0,1.0,1.0,0.0
0.9,1,0,1.0,1.0,0.0
0.8,1,0,1.0,1.0,0.0
0.7,1,0,1.0,1.0,0.0
0.6,1,0,1.0,1.0,0.0
0.5,1,0,1.0,1.0,0.0
0.4,1,0,1.0,1.0,0.0
0.3,1,0,1.0,1.0,0.0
0.2,2,1,4.790308700012283e-10,4.790308700012283e-10,6.173141234291754e-56
0.1,3,3,5.467758387829376e-12,5.467758387829376e-12,6.767297364891002e-60
0.05,3,3,5.467758387829376e-12,5.467758387829376e-12,6.767297364891002e-60
0.01,16,112,1.202473559762647e-56,1.202473559762647e-56,5.705069629672044e-90
