tau,n_clusters,n_int_boxes,lower_bound,high_bound,bound_diff
1.0,1,0,1.0,1.0,0.0
0.9,1,0,1.0,1.0,0.0
0.8,1,0,1.0,1.0,0.0
0.7,1,0,1.0,1.0,0.0
0.6,1,0,1.0,1.0,0.0
0.5,1,0,1.0,1.0,0.0
0.4,1,0,1.0,1.0,0.0
0.3,1,0,1.0,1.0,0.0
0.2,1,0,1.0,1.0,0.0
0.1,2,1,1.4041125289902214e-24,1.4041125289902214e-24,1.028376324017199e-52
0.05,3,3,5.547500648390061e-30,5.547500648390061e-30,8.212049466670428e-61
0.01,14,91,1.3530619536270164e-58,1.3530619536270164e-58,9.767517629980236e-108
