tau,n_clusters,n_int_boxes,lower_bound,high_bound,bound_diff
1.0,1,0,1.0,1.0,0.0
0.9,1,0,1.0,1.0,0.0
0.8,1,0,1.0,1.0,0.0
0.7,1,0,1.0,1.0,0.0
0.6,1,0,1.0,1.0,0.0
0.5,1,0,1.0,1.0,0.0
0.4,1,0,1.0,1.0,0.0
0.3,1,0,1.0,1.0,0.0
0.2,2,1,7.772191175720818e-09,7.772191175720818e-09,5.53890939952072e-69
0.1,2,1,7.772191175720818e-09,7.772191175720818e-09,5.53890939952072e-69
0.05,4,6,2.7528884874018983e-19,2.7528884874018983e-19,3.0388383844445723e-57
0.01,17,127,2.3201678393389445e-58,2.3201678393389445e-58,1.2176138493659248e-90
