1.0,0.9,0.8,0.7,0.6,0.5,0.4,0.3,0.2,0.1,0.05,0.01
0,0,0,0,0,0,0,0,0,0,0,7
0,0,0,0,0,0,0,0,0,0,3,7
0,0,0,0,0,0,0,0,0,0,0,5
0,0,0,0,0,0,0,0,0,1,1,11
0,0,0,0,0,0,0,0,0,1,1,9
0,0,0,0,0,0,0,0,0,1,1,8
0,0,0,0,0,0,0,0,0,0,0,7
0,0,0,0,0,0,0,0,0,1,2,0
0,0,0,0,0,0,0,0,0,1,1,8
0,0,0,0,0,0,0,0,0,0,3,4
0,0,0,0,0,0,0,0,0,0,3,4
0,0,0,0,0,0,0,0,0,0,0,7
0,0,0,0,0,0,0,0,0,0,2,10
0,0,0,0,0,0,0,0,0,1,3,3
0,0,0,0,0,0,0,0,0,1,3,3
0,0,0,0,0,0,0,0,0,1,1,11
0,0,0,0,0,0,0,0,0,1,2,10
0,0,0,0,0,0,0,0,0,0,0,2
0,0,0,0,0,0,0,0,0,1,2,1
0,0,0,0,0,0,0,0,0,1,3,6
0,0,0,0,0,0,0,0,0,0,0,9
0,0,0,0,0,0,0,0,0,0,2,2
0,0,0,0,0,0,0,0,0,1,1,8
0,0,0,0,0,0,0,0,0,1,3,3
0,0,0,0,0,0,0,0,0,0,0,2
0,0,0,0,0,0,0,0,0,0,0,7
0,0,0,0,0,0,0,0,0,1,3,3
0,0,0,0,0,0,0,0,0,1,2,10
0,0,0,0,0,0,0,0,0,0,3,6
0,0,0,0,0,0,0,0,0,1,2,10
0,0,0,0,0,0,0,0,0,0,0,7
0,0,0,0,0,0,0,0,0,1,1,11
0,0,0,0,0,0,0,0,0,1,3,3
0,0,0,0,0,0,0,0,0,1,2,10
0,0,0,0,0,0,0,0,0,0,0,4
0,0,0,0,0,0,0,0,0,1,3,3
0,0,0,0,0,0,0,0,0,1,3,3
0,0,0,0,0,0,0,0,0,0,3,4
0,0,0,0,0,0,0,0,0,1,3,0
0,0,0,0,0,0,0,0,0,0,3,3
0,0,0,0,0,0,0,0,0,0,0,2
0,0,0,0,0,0,0,0,0,0,0,7
0,0,0,0,0,0,0,0,0,1,3,3
0,0,0,0,0,0,0,0,0,1,1,3
0,0,0,0,0,0,0,0,0,1,2,0
0,0,0,0,0,0,0,0,0,1,2,1
0,0,0,0,0,0,0,0,0,1,3,3
0,0,0,0,0,0,0,0,0,0,0,7
0,0,0,0,0,0,0,0,0,1,3,3
0,0,0,0,0,0,0,0,0,0,0,5
0,0,0,0,0,0,0,0,0,1,2,10
0,0,0,0,0,0,0,0,0,0,0,5
0,0,0,0,0,0,0,0,0,1,1,8
0,0,0,0,0,0,0,0,0,0,0,2
0,0,0,0,0,0,0,0,0,1,3,0
0,0,0,0,0,0,0,0,0,0,0,5
0,0,0,0,0,0,0,0,0,1,1,8
0,0,0,0,0,0,0,0,0,0,0,9
0,0,0,0,0,0,0,0,0,0,0,5
0,0,0,0,0,0,0,0,0,0,0,9
0,0,0,0,0,0,0,0,0,0,0,4
0,0,0,0,0,0,0,0,0,1,1,11
0,0,0,0,0,0,0,0,0,0,2,10
0,0,0,0,0,0,0,0,0,1,2,10
0,0,0,0,0,0,0,0,0,1,2,1
0,0,0,0,0,0,0,0,0,0,0,2
0,0,0,0,0,0,0,0,0,1,2,1
0,0,0,0,0,0,0,0,0,0,0,5
0,0,0,0,0,0,0,0,0,0,3,4
0,0,0,0,0,0,0,0,0,1,2,1
0,0,0,0,0,0,0,0,0,1,3,3
0,0,0,0,0,0,0,0,0,1,3,3
0,0,0,0,0,0,0,0,0,0,0,9
0,0,0,0,0,0,0,0,0,0,0,2
0,0,0,0,0,0,0,0,0,0,0,7
0,0,0,0,0,0,0,0,0,0,0,5
0,0,0,0,0,0,0,0,0,1,3,0
0,0,0,0,0,0,0,0,0,1,3,3
0,0,0,0,0,0,0,0,0,0,0,9
0,0,0,0,0,0,0,0,0,1,2,10
0,0,0,0,0,0,0,0,0,1,2,10
0,0,0,0,0,0,0,0,0,1,2,1
0,0,0,0,0,0,0,0,0,1,1,8
0,0,0,0,0,0,0,0,0,0,2,2
0,0,0,0,0,0,0,0,0,1,2,1
0,0,0,0,0,0,0,0,0,0,0,5
0,0,0,0,0,0,0,0,0,0,3,4
0,0,0,0,0,0,0,0,0,0,0,9
0,0,0,0,0,0,0,0,0,0,3,4
0,0,0,0,0,0,0,0,0,0,3,6
0,0,0,0,0,0,0,0,0,1,1,11
0,0,0,0,0,0,0,0,0,0,0,7
0,0,0,0,0,0,0,0,0,0,2,2
0,0,0,0,0,0,0,0,0,1,2,10
0,0,0,0,0,0,0,0,0,0,3,6
0,0,0,0,0,0,0,0,0,1,2,10
0,0,0,0,0,0,0,0,0,1,2,2
0,0,0,0,0,0,0,0,0,0,3,4
0,0,0,0,0,0,0,0,0,1,3,3
0,0,0,0,0,0,0,0,0,1,1,11
0,0,0,0,0,0,0,0,0,0,0,7
0,0,0,0,0,0,0,0,0,0,3,4
0,0,0,0,0,0,0,0,0,1,2,1
0,0,0,0,0,0,0,0,0,0,3,4
0,0,0,0,0,0,0,0,0,0,3,4
0,0,0,0,0,0,0,0,0,0,3,6
0,0,0,0,0,0,0,0,0,0,0,7
0,0,0,0,0,0,0,0,0,1,3,3
0,0,0,0,0,0,0,0,0,0,0,9
0,0,0,0,0,0,0,0,0,0,0,2
0,0,0,0,0,0,0,0,0,0,0,7
0,0,0,0,0,0,0,0,0,1,2,10
0,0,0,0,0,0,0,0,0,1,2,10
0,0,0,0,0,0,0,0,0,0,0,5
0,0,0,0,0,0,0,0,0,0,3,4
0,0,0,0,0,0,0,0,0,0,3,2
0,0,0,0,0,0,0,0,0,1,2,1
0,0,0,0,0,0,0,0,0,0,2,10
0,0,0,0,0,0,0,0,0,0,0,4
0,0,0,0,0,0,0,0,0,0,0,2
0,0,0,0,0,0,0,0,0,0,0,7
0,0,0,0,0,0,0,0,0,0,2,2
0,0,0,0,0,0,0,0,0,0,0,7
0,0,0,0,0,0,0,0,0,1,2,1
0,0,0,0,0,0,0,0,0,0,3,4
0,0,0,0,0,0,0,0,0,0,0,2
0,0,0,0,0,0,0,0,0,1,2,10
0,0,0,0,0,0,0,0,0,1,2,10
0,0,0,0,0,0,0,0,0,0,0,2
0,0,0,0,0,0,0,0,0,1,3,0
0,0,0,0,0,0,0,0,0,0,0,4
0,0,0,0,0,0,0,0,0,0,0,2
0,0,0,0,0,0,0,0,0,1,3,3
0,0,0,0,0,0,0,0,0,1,3,3
0,0,0,0,0,0,0,0,0,1,3,3
0,0,0,0,0,0,0,0,0,1,3,3
0,0,0,0,0,0,0,0,0,1,3,0
0,0,0,0,0,0,0,0,0,1,1,11
0,0,0,0,0,0,0,0,0,1,3,0
0,0,0,0,0,0,0,0,0,0,2,10
0,0,0,0,0,0,0,0,0,0,0,4
0,0,0,0,0,0,0,0,0,0,0,2
0,0,0,0,0,0,0,0,0,0,0,9
0,0,0,0,0,0,0,0,0,0,0,4
0,0,0,0,0,0,0,0,0,0,0,4
0,0,0,0,0,0,0,0,0,0,0,9
0,0,0,0,0,0,0,0,0,1,2,1
0,0,0,0,0,0,0,0,0,0,0,7
0,0,0,0,0,0,0,0,0,0,0,2
0,0,0,0,0,0,0,0,0,0,0,2
0,0,0,0,0,0,0,0,0,1,1,11
0,0,0,0,0,0,0,0,0,0,2,2
0,0,0,0,0,0,0,0,0,1,3,3
0,0,0,0,0,0,0,0,0,1,3,3
0,0,0,0,0,0,0,0,0,1,3,6
0,0,0,0,0,0,0,0,0,0,0,2
0,0,0,0,0,0,0,0,0,1,3,4
0,0,0,0,0,0,0,0,0,0,3,3
0,0,0,0,0,0,0,0,0,0,0,7
0,0,0,0,0,0,0,0,0,1,1,11
0,0,0,0,0,0,0,0,0,1,1,8
0,0,0,0,0,0,0,0,0,1,3,2
0,0,0,0,0,0,0,0,0,1,3,3
0,0,0,0,0,0,0,0,0,0,0,5
0,0,0,0,0,0,0,0,0,1,2,10
0,0,0,0,0,0,0,0,0,1,1,8
0,0,0,0,0,0,0,0,0,0,0,4
0,0,0,0,0,0,0,0,0,0,0,9
0,0,0,0,0,0,0,0,0,1,3,0
0,0,0,0,0,0,0,0,0,0,2,2
0,0,0,0,0,0,0,0,0,0,3,4
0,0,0,0,0,0,0,0,0,1,1,1
0,0,0,0,0,0,0,0,0,0,0,2
0,0,0,0,0,0,0,0,0,1,2,0
0,0,0,0,0,0,0,0,0,1,2,10
0,0,0,0,0,0,0,0,0,1,3,3
0,0,0,0,0,0,0,0,0,0,0,9
0,0,0,0,0,0,0,0,0,1,2,1
0,0,0,0,0,0,0,0,0,1,3,0
0,0,0,0,0,0,0,0,0,1,3,3
0,0,0,0,0,0,0,0,0,0,3,4
0,0,0,0,0,0,0,0,0,0,0,5
0,0,0,0,0,0,0,0,0,0,3,6
0,0,0,0,0,0,0,0,0,1,3,3
0,0,0,0,0,0,0,0,0,0,0,5
0,0,0,0,0,0,0,0,0,1,2,10
0,0,0,0,0,0,0,0,0,0,0,5
0,0,0,0,0,0,0,0,0,1,1,8
0,0,0,0,0,0,0,0,0,0,0,9
0,0,0,0,0,0,0,0,0,0,3,4
0,0,0,0,0,0,0,0,0,1,3,6
0,0,0,0,0,0,0,0,0,1,1,11
0,0,0,0,0,0,0,0,0,1,2,10
0,0,0,0,0,0,0,0,0,1,2,1
0,0,0,0,0,0,0,0,0,0,0,2
0,0,0,0,0,0,0,0,0,1,2,0
0,0,0,0,0,0,0,0,0,1,3,3
0,0,0,0,0,0,0,0,0,1,2,1
0,0,0,0,0,0,0,0,0,0,0,7
0,0,0,0,0,0,0,0,0,0,0,7
0,0,0,0,0,0,0,0,0,0,0,5
0,0,0,0,0,0,0,0,0,1,3,3
0,0,0,0,0,0,0,0,0,0,0,7
0,0,0,0,0,0,0,0,0,1,2,1
0,0,0,0,0,0,0,0,0,0,3,4
0,0,0,0,0,0,0,0,0,1,2,10
0,0,0,0,0,0,0,0,0,0,0,5
0,0,0,0,0,0,0,0,0,1,2,0
0,0,0,0,0,0,0,0,0,1,3,6
0,0,0,0,0,0,0,0,0,1,3,0
0,0,0,0,0,0,0,0,0,1,3,3
0,0,0,0,0,0,0,0,0,1,3,0
0,0,0,0,0,0,0,0,0,0,3,6
0,0,0,0,0,0,0,0,0,0,0,4
0,0,0,0,0,0,0,0,0,0,0,9
0,0,0,0,0,0,0,0,0,1,3,3
0,0,0,0,0,0,0,0,0,1,2,3
0,0,0,0,0,0,0,0,0,0,0,7
0,0,0,0,0,0,0,0,0,1,2,1
0,0,0,0,0,0,0,0,0,1,2,1
0,0,0,0,0,0,0,0,0,0,0,2
0,0,0,0,0,0,0,0,0,0,0,5
0,0,0,0,0,0,0,0,0,1,2,10
0,0,0,0,0,0,0,0,0,1,2,10
0,0,0,0,0,0,0,0,0,0,0,7
0,0,0,0,0,0,0,0,0,1,3,3
0,0,0,0,0,0,0,0,0,1,3,3
0,0,0,0,0,0,0,0,0,1,1,11
0,0,0,0,0,0,0,0,0,1,1,8
0,0,0,0,0,0,0,0,0,1,3,0
0,0,0,0,0,0,0,0,0,1,1,1
0,0,0,0,0,0,0,0,0,0,0,2
0,0,0,0,0,0,0,0,0,1,1,1
0,0,0,0,0,0,0,0,0,0,3,6
0,0,0,0,0,0,0,0,0,0,3,6
0,0,0,0,0,0,0,0,0,0,0,9
0,0,0,0,0,0,0,0,0,1,1,1
0,0,0,0,0,0,0,0,0,1,1,1
0,0,0,0,0,0,0,0,0,0,0,4
0,0,0,0,0,0,0,0,0,0,3,6
0,0,0,0,0,0,0,0,0,0,0,2
0,0,0,0,0,0,0,0,0,1,1,11
0,0,0,0,0,0,0,0,0,1,3,3
0,0,0,0,0,0,0,0,0,1,2,0
0,0,0,0,0,0,0,0,0,1,1,11
0,0,0,0,0,0,0,0,0,1,3,2
0,0,0,0,0,0,0,0,0,0,0,5
0,0,0,0,0,0,0,0,0,1,3,0
0,0,0,0,0,0,0,0,0,1,1,11
0,0,0,0,0,0,0,0,0,1,1,1
0,0,0,0,0,0,0,0,0,1,1,11
0,0,0,0,0,0,0,0,0,1,2,10
0,0,0,0,0,0,0,0,0,1,2,1
0,0,0,0,0,0,0,0,0,0,0,5
0,0,0,0,0,0,0,0,0,0,0,5
0,0,0,0,0,0,0,0,0,1,1,11
0,0,0,0,0,0,0,0,0,1,1,11
0,0,0,0,0,0,0,0,0,0,0,7
0,0,0,0,0,0,0,0,0,1,1,8
0,0,0,0,0,0,0,0,0,0,0,2
0,0,0,0,0,0,0,0,0,0,0,5
0,0,0,0,0,0,0,0,0,1,1,8
0,0,0,0,0,0,0,0,0,0,2,10
0,0,0,0,0,0,0,0,0,1,3,3
0,0,0,0,0,0,0,0,0,1,1,11
0,0,0,0,0,0,0,0,0,1,3,8
0,0,0,0,0,0,0,0,0,0,3,4
0,0,0,0,0,0,0,0,0,0,3,6
0,0,0,0,0,0,0,0,0,0,2,10
0,0,0,0,0,0,0,0,0,1,2,0
0,0,0,0,0,0,0,0,0,1,2,10
0,0,0,0,0,0,0,0,0,1,3,3
0,0,0,0,0,0,0,0,0,0,3,5
0,0,0,0,0,0,0,0,0,1,1,8
0,0,0,0,0,0,0,0,0,0,0,9
0,0,0,0,0,0,0,0,0,1,2,1
0,0,0,0,0,0,0,0,0,1,3,3
0,0,0,0,0,0,0,0,0,0,0,9
0,0,0,0,0,0,0,0,0,0,0,2
0,0,0,0,0,0,0,0,0,1,3,3
0,0,0,0,0,0,0,0,0,1,1,8
0,0,0,0,0,0,0,0,0,0,0,2
0,0,0,0,0,0,0,0,0,1,3,3
0,0,0,0,0,0,0,0,0,1,1,8
0,0,0,0,0,0,0,0,0,0,0,5
0,0,0,0,0,0,0,0,0,1,1,8
0,0,0,0,0,0,0,0,0,0,0,7
0,0,0,0,0,0,0,0,0,1,3,0
0,0,0,0,0,0,0,0,0,0,3,4
0,0,0,0,0,0,0,0,0,0,0,2
0,0,0,0,0,0,0,0,0,1,1,11
0,0,0,0,0,0,0,0,0,0,0,7
0,0,0,0,0,0,0,0,0,1,2,10
0,0,0,0,0,0,0,0,0,1,3,0
0,0,0,0,0,0,0,0,0,0,2,10
0,0,0,0,0,0,0,0,0,0,0,9
0,0,0,0,0,0,0,0,0,0,2,10
0,0,0,0,0,0,0,0,0,1,2,1
0,0,0,0,0,0,0,0,0,1,3,0
0,0,0,0,0,0,0,0,0,0,0,2
0,0,0,0,0,0,0,0,0,1,3,3
0,0,0,0,0,0,0,0,0,1,3,0
0,0,0,0,0,0,0,0,0,1,3,3
0,0,0,0,0,0,0,0,0,1,2,10
0,0,0,0,0,0,0,0,0,1,2,0
0,0,0,0,0,0,0,0,0,0,0,9
0,0,0,0,0,0,0,0,0,0,3,4
0,0,0,0,0,0,0,0,0,1,1,8
0,0,0,0,0,0,0,0,0,0,0,4
0,0,0,0,0,0,0,0,0,0,0,4
0,0,0,0,0,0,0,0,0,0,0,9
0,0,0,0,0,0,0,0,0,1,1,1
0,0,0,0,0,0,0,0,0,0,0,9
0,0,0,0,0,0,0,0,0,1,3,3
0,0,0,0,0,0,0,0,0,1,1,1
0,0,0,0,0,0,0,0,0,0,0,5
0,0,0,0,0,0,0,0,0,0,3,4
0,0,0,0,0,0,0,0,0,1,1,1
0,0,0,0,0,0,0,0,0,0,3,6
0,0,0,0,0,0,0,0,0,1,3,0
0,0,0,0,0,0,0,0,0,0,3,4
0,0,0,0,0,0,0,0,0,0,0,2
0,0,0,0,0,0,0,0,0,0,2,10
0,0,0,0,0,0,0,0,0,0,0,2
0,0,0,0,0,0,0,0,0,1,2,10
0,0,0,0,0,0,0,0,0,0,0,5
0,0,0,0,0,0,0,0,0,1,2,10
0,0,0,0,0,0,0,0,0,1,3,2
0,0,0,0,0,0,0,0,0,1,1,8
0,0,0,0,0,0,0,0,0,1,3,2
0,0,0,0,0,0,0,0,0,1,3,0
0,0,0,0,0,0,0,0,0,1,3,3
0,0,0,0,0,0,0,0,0,0,0,9
0,0,0,0,0,0,0,0,0,1,3,3
0,0,0,0,0,0,0,0,0,0,3,6
0,0,0,0,0,0,0,0,0,1,3,3
0,0,0,0,0,0,0,0,0,1,1,8
0,0,0,0,0,0,0,0,0,1,1,8
0,0,0,0,0,0,0,0,0,1,2,10
0,0,0,0,0,0,0,0,0,0,0,9
0,0,0,0,0,0,0,0,0,0,2,2
0,0,0,0,0,0,0,0,0,1,3,3
0,0,0,0,0,0,0,0,0,1,3,3
0,0,0,0,0,0,0,0,0,0,3,4
0,0,0,0,0,0,0,0,0,1,2,10
0,0,0,0,0,0,0,0,0,1,2,2
0,0,0,0,0,0,0,0,0,0,0,7
0,0,0,0,0,0,0,0,0,1,3,3
0,0,0,0,0,0,0,0,0,1,1,8
0,0,0,0,0,0,0,0,0,1,1,8
0,0,0,0,0,0,0,0,0,0,2,10
0,0,0,0,0,0,0,0,0,1,1,11
0,0,0,0,0,0,0,0,0,0,0,7
0,0,0,0,0,0,0,0,0,1,1,11
0,0,0,0,0,0,0,0,0,1,1,8
0,0,0,0,0,0,0,0,0,1,3,0
0,0,0,0,0,0,0,0,0,0,0,5
0,0,0,0,0,0,0,0,0,0,0,5
0,0,0,0,0,0,0,0,0,1,3,0
0,0,0,0,0,0,0,0,0,0,0,5
0,0,0,0,0,0,0,0,0,1,2,0
0,0,0,0,0,0,0,0,0,1,3,3
0,0,0,0,0,0,0,0,0,0,0,5
0,0,0,0,0,0,0,0,0,0,3,4
0,0,0,0,0,0,0,0,0,1,3,0
0,0,0,0,0,0,0,0,0,1,1,8
0,0,0,0,0,0,0,0,0,1,3,3
0,0,0,0,0,0,0,0,0,1,1,11
0,0,0,0,0,0,0,0,0,1,1,8
0,0,0,0,0,0,0,0,0,0,0,7
0,0,0,0,0,0,0,0,0,1,2,1
0,0,0,0,0,0,0,0,0,0,0,9
0,0,0,0,0,0,0,0,0,0,0,2
0,0,0,0,0,0,0,0,0,1,3,0
0,0,0,0,0,0,0,0,0,1,2,10
0,0,0,0,0,0,0,0,0,1,1,8
0,0,0,0,0,0,0,0,0,1,3,0
0,0,0,0,0,0,0,0,0,0,0,3
0,0,0,0,0,0,0,0,0,1,3,3
0,0,0,0,0,0,0,0,0,1,3,3
0,0,0,0,0,0,0,0,0,0,0,2
0,0,0,0,0,0,0,0,0,1,3,0
0,0,0,0,0,0,0,0,0,1,3,8
0,0,0,0,0,0,0,0,0,1,3,3
0,0,0,0,0,0,0,0,0,0,3,4
0,0,0,0,0,0,0,0,0,1,2,10
0,0,0,0,0,0,0,0,0,0,3,3
0,0,0,0,0,0,0,0,0,0,3,2
0,0,0,0,0,0,0,0,0,0,0,5
0,0,0,0,0,0,0,0,0,1,2,2
0,0,0,0,0,0,0,0,0,1,2,10
0,0,0,0,0,0,0,0,0,0,3,4
0,0,0,0,0,0,0,0,0,1,2,10
0,0,0,0,0,0,0,0,0,0,0,2
0,0,0,0,0,0,0,0,0,0,0,2
0,0,0,0,0,0,0,0,0,0,0,9
0,0,0,0,0,0,0,0,0,1,1,11
0,0,0,0,0,0,0,0,0,1,2,0
0,0,0,0,0,0,0,0,0,1,3,3
0,0,0,0,0,0,0,0,0,0,3,4
0,0,0,0,0,0,0,0,0,0,2,0
0,0,0,0,0,0,0,0,0,1,2,10
0,0,0,0,0,0,0,0,0,0,3,4
0,0,0,0,0,0,0,0,0,0,0,9
0,0,0,0,0,0,0,0,0,1,1,8
0,0,0,0,0,0,0,0,0,1,1,11
0,0,0,0,0,0,0,0,0,0,0,2
0,0,0,0,0,0,0,0,0,1,3,3
0,0,0,0,0,0,0,0,0,1,2,1
0,0,0,0,0,0,0,0,0,0,0,7
0,0,0,0,0,0,0,0,0,1,1,11
0,0,0,0,0,0,0,0,0,1,3,3
0,0,0,0,0,0,0,0,0,0,0,5
0,0,0,0,0,0,0,0,0,1,3,0
0,0,0,0,0,0,0,0,0,0,2,0
0,0,0,0,0,0,0,0,0,1,2,10
0,0,0,0,0,0,0,0,0,1,2,0
0,0,0,0,0,0,0,0,0,0,2,10
0,0,0,0,0,0,0,0,0,1,2,0
0,0,0,0,0,0,0,0,0,1,3,6
0,0,0,0,0,0,0,0,0,0,0,4
0,0,0,0,0,0,0,0,0,1,3,3
0,0,0,0,0,0,0,0,0,0,0,4
0,0,0,0,0,0,0,0,0,0,0,9
0,0,0,0,0,0,0,0,0,1,2,1
0,0,0,0,0,0,0,0,0,0,3,4
0,0,0,0,0,0,0,0,0,1,1,8
0,0,0,0,0,0,0,0,0,1,1,3
0,0,0,0,0,0,0,0,0,1,1,1
0,0,0,0,0,0,0,0,0,0,0,2
0,0,0,0,0,0,0,0,0,0,3,2
0,0,0,0,0,0,0,0,0,0,3,4
0,0,0,0,0,0,0,0,0,0,0,9
0,0,0,0,0,0,0,0,0,0,0,5
0,0,0,0,0,0,0,0,0,1,1,11
0,0,0,0,0,0,0,0,0,0,0,7
0,0,0,0,0,0,0,0,0,0,0,7
0,0,0,0,0,0,0,0,0,0,0,5
0,0,0,0,0,0,0,0,0,0,0,4
0,0,0,0,0,0,0,0,0,0,3,4
0,0,0,0,0,0,0,0,0,1,2,10
0,0,0,0,0,0,0,0,0,0,3,2
0,0,0,0,0,0,0,0,0,1,3,3
0,0,0,0,0,0,0,0,0,0,3,4
0,0,0,0,0,0,0,0,0,0,0,2
0,0,0,0,0,0,0,0,0,1,2,10
0,0,0,0,0,0,0,0,0,0,3,4
0,0,0,0,0,0,0,0,0,1,2,10
0,0,0,0,0,0,0,0,0,1,1,3
0,0,0,0,0,0,0,0,0,1,2,10
0,0,0,0,0,0,0,0,0,1,3,0
0,0,0,0,0,0,0,0,0,1,2,10
0,0,0,0,0,0,0,0,0,0,0,5
0,0,0,0,0,0,0,0,0,1,3,0
0,0,0,0,0,0,0,0,0,0,2,2
0,0,0,0,0,0,0,0,0,1,3,6
0,0,0,0,0,0,0,0,0,0,0,7
0,0,0,0,0,0,0,0,0,1,2,1
0,0,0,0,0,0,0,0,0,1,2,1
0,0,0,0,0,0,0,0,0,1,3,3
0,0,0,0,0,0,0,0,0,1,1,11
0,0,0,0,0,0,0,0,0,1,3,0
0,0,0,0,0,0,0,0,0,0,2,7
0,0,0,0,0,0,0,0,0,0,3,6
0,0,0,0,0,0,0,0,0,1,2,1
0,0,0,0,0,0,0,0,0,1,1,8
0,0,0,0,0,0,0,0,0,1,3,3
0,0,0,0,0,0,0,0,0,0,0,5
0,0,0,0,0,0,0,0,0,1,1,8
0,0,0,0,0,0,0,0,0,0,3,4
0,0,0,0,0,0,0,0,0,1,3,3
0,0,0,0,0,0,0,0,0,0,0,4
0,0,0,0,0,0,0,0,0,1,3,3
0,0,0,0,0,0,0,0,0,1,2,2
0,0,0,0,0,0,0,0,0,1,1,11
0,0,0,0,0,0,0,0,0,0,3,4
0,0,0,0,0,0,0,0,0,1,3,3
0,0,0,0,0,0,0,0,0,0,0,7
0,0,0,0,0,0,0,0,0,0,0,2
0,0,0,0,0,0,0,0,0,1,3,3
0,0,0,0,0,0,0,0,0,0,0,2
0,0,0,0,0,0,0,0,0,1,3,6
0,0,0,0,0,0,0,0,0,1,1,11
0,0,0,0,0,0,0,0,0,0,0,7
0,0,0,0,0,0,0,0,0,1,1,8
0,0,0,0,0,0,0,0,0,1,1,11
0,0,0,0,0,0,0,0,0,0,0,4
0,0,0,0,0,0,0,0,0,0,0,2
0,0,0,0,0,0,0,0,0,0,0,2
0,0,0,0,0,0,0,0,0,1,2,0
0,0,0,0,0,0,0,0,0,0,2,10
0,0,0,0,0,0,0,0,0,1,2,10
0,0,0,0,0,0,0,0,0,0,0,9
0,0,0,0,0,0,0,0,0,1,1,8
0,0,0,0,0,0,0,0,0,1,3,0
0,0,0,0,0,0,0,0,0,0,0,2
0,0,0,0,0,0,0,0,0,0,3,6
0,0,0,0,0,0,0,0,0,0,3,4
0,0,0,0,0,0,0,0,0,1,3,6
0,0,0,0,0,0,0,0,0,0,0,2
0,0,0,0,0,0,0,0,0,0,3,6
0,0,0,0,0,0,0,0,0,1,3,3
0,0,0,0,0,0,0,0,0,1,2,0
0,0,0,0,0,0,0,0,0,0,0,5
0,0,0,0,0,0,0,0,0,0,0,5
0,0,0,0,0,0,0,0,0,1,2,10
0,0,0,0,0,0,0,0,0,1,1,8
0,0,0,0,0,0,0,0,0,0,2,2
0,0,0,0,0,0,0,0,0,1,2,1
0,0,0,0,0,0,0,0,0,1,2,10
0,0,0,0,0,0,0,0,0,0,0,5
0,0,0,0,0,0,0,0,0,0,3,4
0,0,0,0,0,0,0,0,0,1,2,10
0,0,0,0,0,0,0,0,0,0,0,5
0,0,0,0,0,0,0,0,0,0,0,2
