tau,n_clusters,n_int_boxes,lower_bound,high_bound,bound_diff
1.0,1,0,1.0,1.0,0.0
0.9,1,0,1.0,1.0,0.0
0.8,1,0,1.0,1.0,0.0
0.7,1,0,1.0,1.0,0.0
0.6,1,0,1.0,1.0,0.0
0.5,2,1,0.7724797085498478,0.7724797885454776,7.999562982729049e-08
0.4,2,1,0.7724797085498478,0.7724797885454776,7.999562982729049e-08
0.3,3,2,0.3389645149429217,0.3390148385460558,5.0323603134140036e-05
0.2,5,4,0.10043428937808795,0.10063583539563604,0.0002015460175481009
0.1,8,6,0.03145423943222419,0.03146052552759976,6.286095375571911e-06
0.05,12,10,0.0032078787108661493,0.003224517416689162,1.6638705823012893e-05
0.01,55,37,2.3121151877045457e-07,2.3141746121434771e-07,2.0594244389315401e-10
