3.556746616959571838e-02,8.989848941564559937e-02,6.634037196636199951e-02,1.919873803853988647e-01,2.219866216182708740e-02,5.059373751282691956e-02,2.135159820318222046e-02,1.095293909311294556e-01,3.648360371589660645e-01,4.769689589738845825e-02
2.754896134138107300e-02,2.915123291313648224e-02,3.919832035899162292e-02,2.201237976551055908e-01,4.104603826999664307e-02,4.481328651309013367e-02,5.960382521152496338e-03,2.689349949359893799e-01,7.883688807487487793e-02,2.443860769271850586e-01
4.520379006862640381e-03,6.340336799621582031e-01,1.676037907600402832e-02,2.014612555503845215e-01,3.989376593381166458e-03,8.128716796636581421e-02,5.543604493141174316e-03,1.977584324777126312e-02,2.542715147137641907e-02,7.201129104942083359e-03
2.595449332147836685e-04,1.128195901401340961e-03,7.892780704423785210e-04,2.742639482021331787e-01,1.668610057095065713e-04,2.908895025029778481e-03,2.822146925609558821e-04,1.685184310190379620e-03,7.172915339469909668e-01,1.224364736117422581e-03
2.409094246104359627e-03,4.444162175059318542e-02,1.386383734643459320e-02,2.784559689462184906e-02,7.955597713589668274e-03,2.563632326200604439e-03,7.177662919275462627e-04,8.757929205894470215e-01,4.995948169380426407e-03,1.941399089992046356e-02
7.980151567608118057e-04,1.472257263958454132e-02,6.039401292800903320e-01,2.040316760540008545e-01,8.673595264554023743e-03,1.007656380534172058e-02,1.022128853946924210e-02,1.509569492191076279e-02,1.256549656391143799e-01,6.785484030842781067e-03
1.678983244346454740e-04,1.137275248765945435e-03,2.514380775392055511e-02,3.645415306091308594e-01,4.754254769068211317e-04,3.477098187431693077e-03,6.881986046209931374e-04,2.227284479886293411e-03,6.007726788520812988e-01,1.368785277009010315e-03
1.399278044700622559e-01,5.392859876155853271e-02,4.428436234593391418e-02,1.599655449390411377e-01,7.122542709112167358e-03,3.170889243483543396e-02,2.346363104879856110e-02,1.724652945995330811e-01,3.443683385848999023e-01,2.276502549648284912e-02
3.373099863529205322e-01,5.727323144674301147e-02,3.173605352640151978e-02,8.164906501770019531e-02,2.926537580788135529e-02,4.649857431650161743e-02,4.976505786180496216e-02,8.435023576021194458e-02,2.084981501102447510e-01,7.365421950817108154e-02
5.208888091146945953e-03,3.756790235638618469e-02,1.111125480383634567e-02,4.024206399917602539e-01,1.383085828274488449e-02,1.242479961365461349e-02,9.713996550999581814e-04,4.537551105022430420e-01,2.711687609553337097e-02,3.559235855937004089e-02
7.551925778388977051e-01,1.801765337586402893e-02,9.064307436347007751e-03,7.511615753173828125e-02,3.500535385683178902e-03,3.006043471395969391e-02,3.617184236645698547e-02,3.647148609161376953e-02,2.814649045467376709e-02,8.258653804659843445e-03
7.366824895143508911e-02,4.737438261508941650e-02,9.267705678939819336e-02,2.660241723060607910e-01,1.173004414886236191e-02,3.329917788505554199e-02,3.505235910415649414e-02,4.273189231753349304e-02,3.777687847614288330e-01,1.967391930520534515e-02
4.320688918232917786e-02,5.250244587659835815e-02,1.580689549446105957e-01,5.458212643861770630e-02,4.337425157427787781e-02,4.077198449522256851e-03,1.150158513337373734e-02,5.868193507194519043e-01,2.399263903498649597e-02,2.187448740005493164e-02
2.175287343561649323e-03,1.735459198243916035e-03,8.638320141471922398e-04,1.276076138019561768e-01,4.111159127205610275e-03,6.519592404365539551e-01,8.957196841947734356e-04,5.857772659510374069e-03,9.675212204456329346e-03,1.951186060905456543e-01
2.736723748967051506e-03,1.556154247373342514e-02,5.848310422152280807e-03,3.775877654552459717e-01,5.229431204497814178e-03,4.424430727958679199e-01,4.785133991390466690e-03,2.687398903071880341e-02,6.057868152856826782e-02,5.835527181625366211e-02
9.434786625206470490e-03,4.369159042835235596e-02,4.806611314415931702e-02,2.138959318399429321e-01,1.537462975829839706e-02,1.976265199482440948e-02,7.191444281488656998e-03,5.931442975997924805e-01,2.426151558756828308e-02,2.517704106867313385e-02
5.058493930846452713e-03,6.474393606185913086e-02,3.645521402359008789e-02,1.145747825503349304e-01,1.432791631668806076e-02,1.605083793401718140e-02,2.468150341883301735e-03,6.658892035484313965e-01,4.322936013340950012e-02,3.720206767320632935e-02
4.216048109810799360e-04,1.110389363020658493e-02,2.483260119333863258e-03,5.337703973054885864e-02,2.549253869801759720e-03,1.202880637720227242e-03,5.491654155775904655e-05,9.219430088996887207e-01,8.506394806317985058e-04,6.013546139001846313e-03
8.258123882114887238e-03,2.180656790733337402e-02,1.268893480300903320e-02,2.712368667125701904e-01,1.243805792182683945e-02,3.581647202372550964e-02,6.295917090028524399e-03,4.913181811571121216e-02,5.172976851463317871e-01,6.502948701381683350e-02
1.748420065268874168e-03,3.170224605128169060e-03,9.917898569256067276e-04,3.660587668418884277e-01,1.294912188313901424e-03,5.335506200790405273e-01,8.037977968342602253e-04,1.206693984568119049e-02,2.037854865193367004e-02,5.993606895208358765e-02
2.708041574805974960e-03,3.361233696341514587e-02,7.772877812385559082e-02,4.047160968184471130e-02,1.071709673851728439e-02,3.303291741758584976e-03,3.862316720187664032e-03,8.170188069343566895e-01,3.540269797667860985e-03,7.037478964775800705e-03
7.602541148662567139e-02,7.398668676614761353e-02,2.952635586261749268e-01,1.372859627008438110e-01,2.817149087786674500e-02,1.135716587305068970e-02,3.353892639279365540e-02,2.070011496543884277e-01,1.242133453488349915e-01,1.315640099346637726e-02
4.633018281310796738e-03,1.272766618058085442e-03,1.101352740079164505e-03,1.556748803704977036e-02,2.132193744182586670e-02,1.232919190078973770e-02,2.018883096752688289e-04,9.938186034560203552e-03,1.087569631636142731e-02,9.227584600448608398e-01
6.840428337454795837e-03,6.037756800651550293e-01,5.726558715105056763e-02,1.871967464685440063e-01,4.650342278182506561e-03,3.707852587103843689e-02,4.321900662034749985e-03,7.566378265619277954e-02,1.578020490705966949e-02,7.426741067320108414e-03
3.257048316299915314e-03,2.070139534771442413e-02,8.096509575843811035e-01,4.104254767298698425e-02,1.722697541117668152e-02,2.487566322088241577e-03,6.206219550222158432e-03,8.470140397548675537e-02,8.019336499273777008e-03,6.706579122692346573e-03
8.161526639014482498e-04,8.533771038055419922e-01,5.514250602573156357e-03,8.367817103862762451e-02,1.934388536028563976e-03,3.567799925804138184e-02,1.054654712788760662e-03,9.514844045042991638e-03,5.708887707442045212e-03,2.723457757383584976e-03
2.729605883359909058e-02,6.904736161231994629e-01,1.352870464324951172e-02,1.623295620083808899e-02,3.405745327472686768e-02,4.167217016220092773e-02,5.741207394748926163e-03,6.035141646862030029e-02,3.685347735881805420e-02,7.379297167062759399e-02
2.937808632850646973e-02,4.826394021511077881e-01,1.870568096637725830e-02,8.172854036092758179e-02,1.965685188770294189e-02,8.270010352134704590e-02,1.082561723887920380e-02,6.227826699614524841e-02,1.569653004407882690e-01,5.512206256389617920e-02
4.123363760299980640e-05,3.674287290778011084e-04,3.159576095640659332e-03,2.618718743324279785e-01,8.432770846411585808e-05,1.073011662811040878e-03,2.463618875481188297e-04,5.329197156243026257e-04,7.323319315910339355e-01,2.913270436692982912e-04
5.247537046670913696e-03,1.649334840476512909e-02,1.219289284199476242e-02,2.546020150184631348e-01,2.953019225969910622e-03,1.380140706896781921e-02,5.343630909919738770e-03,1.282350253313779831e-02,6.691560745239257812e-01,7.386619690805673599e-03
2.473265379667282104e-01,4.205579310655593872e-02,1.834642142057418823e-01,2.408729642629623413e-01,1.363648939877748489e-02,1.924645528197288513e-02,1.731377653777599335e-02,1.283970624208450317e-01,9.216833114624023438e-02,1.551836449652910233e-02
1.963910460472106934e-02,1.477270293980836868e-02,1.044335216283798218e-02,2.099022567272186279e-01,1.319310814142227173e-02,7.776571810245513916e-02,3.409201046451926231e-03,1.372110843658447266e-01,1.392235606908798218e-01,3.744399845600128174e-01
1.894341967999935150e-02,3.933338522911071777e-01,3.236896544694900513e-02,2.375389784574508667e-01,2.327606081962585449e-02,7.126107066869735718e-02,4.676927812397480011e-03,1.033400446176528931e-01,5.697985365986824036e-02,5.828085541725158691e-02
1.032182294875383377e-02,2.869552969932556152e-01,1.226605847477912903e-01,1.312002688646316528e-01,1.913469471037387848e-02,1.477532647550106049e-02,5.239579826593399048e-03,3.704083263874053955e-01,1.933749020099639893e-02,1.996663771569728851e-02
3.258955839555710554e-04,1.012846129015088081e-03,1.904182601720094681e-03,1.592809259891510010e-01,6.598327890969812870e-04,3.168992232531309128e-03,7.793252007104456425e-04,2.928251633420586586e-03,8.262385129928588867e-01,3.701217472553253174e-03
1.486035436391830444e-02,3.545644506812095642e-02,1.795354485511779785e-02,8.717638254165649414e-02,1.526630669832229614e-02,4.471672326326370239e-02,1.577061228454113007e-02,3.498366847634315491e-02,6.789049506187438965e-01,5.491101741790771484e-02
8.856660570017993450e-04,2.641222206875681877e-03,4.845853429287672043e-03,1.023366525769233704e-01,5.480801337398588657e-04,1.853997819125652313e-03,9.571248665452003479e-04,4.179550800472497940e-03,8.786599040031433105e-01,3.091943217441439629e-03
1.460288912057876587e-01,1.031751707196235657e-01,1.271773278713226318e-01,7.303168624639511108e-02,3.797627240419387817e-02,1.218381710350513458e-02,3.441162034869194031e-02,3.428810536861419678e-01,9.419924765825271606e-02,2.893499098718166351e-02
3.464284585788846016e-03,8.338669314980506897e-03,2.467064652591943741e-03,7.222902774810791016e-02,2.293390920385718346e-03,1.936641149222850800e-02,1.760278944857418537e-03,2.248670905828475952e-02,8.272882103919982910e-01,4.030599445104598999e-02
1.455069892108440399e-02,6.876466423273086548e-02,5.618159845471382141e-02,1.234666816890239716e-02,2.085949666798114777e-02,3.101948415860533714e-03,3.469600575044751167e-03,8.013061285018920898e-01,5.856099072843790054e-03,1.356304064393043518e-02
3.632940119132399559e-03,4.922201111912727356e-02,1.596009731292724609e-02,2.459353767335414886e-02,6.110577378422021866e-03,6.775371264666318893e-03,7.536986377090215683e-04,7.604494094848632812e-01,1.644544675946235657e-02,1.160568818449974060e-01
1.882599852979183197e-02,2.026501670479774475e-02,4.915955476462841034e-03,2.419317364692687988e-01,5.318057257682085037e-03,1.066309288144111633e-01,4.837096668779850006e-03,3.394494578242301941e-02,4.916037917137145996e-01,7.172641903162002563e-02
3.775524795055389404e-01,5.276284739375114441e-02,6.681162863969802856e-02,1.337999552488327026e-01,1.140627358108758926e-02,4.013072326779365540e-02,2.846245840191841125e-02,1.748786568641662598e-01,8.101776242256164551e-02,3.317731618881225586e-02
3.233538940548896790e-03,2.270825952291488647e-02,6.004260480403900146e-02,8.137186616659164429e-02,1.073104701936244965e-02,3.946536220610141754e-03,2.101914724335074425e-03,7.967715859413146973e-01,8.665728382766246796e-03,1.042694691568613052e-02
4.615495353937149048e-02,5.242237076163291931e-02,2.461449056863784790e-02,7.812959700822830200e-02,9.427094832062721252e-03,1.389805879443883896e-02,1.283304207026958466e-02,4.270464926958084106e-02,6.956011652946472168e-01,2.421459928154945374e-02
4.792459681630134583e-02,3.192140161991119385e-02,2.209793217480182648e-02,2.191506624221801758e-01,3.377594053745269775e-02,3.138252496719360352e-01,2.691909857094287872e-02,6.335034221410751343e-02,9.180068224668502808e-02,1.492341458797454834e-01
2.124231308698654175e-03,2.267710119485855103e-02,1.490224618464708328e-02,1.023198217153549194e-01,1.737038046121597290e-02,5.500974133610725403e-03,1.016548834741115570e-03,8.050621747970581055e-01,6.383506115525960922e-03,2.264302596449851990e-02
1.741037936881184578e-03,2.765292767435312271e-03,2.443005098029971123e-03,4.602169692516326904e-01,1.434385776519775391e-03,4.949346482753753662e-01,3.864913014695048332e-03,3.781178034842014313e-03,2.161488309502601624e-02,7.203660439699888229e-03
8.018374210223555565e-04,3.984333947300910950e-02,6.607764959335327148e-02,1.324100978672504425e-02,1.528113242238759995e-02,7.045014644972980022e-04,1.461709034629166126e-03,8.591535687446594238e-01,1.456920872442424297e-03,1.978279789909720421e-03
2.693011797964572906e-02,2.278539687395095825e-01,2.036153376102447510e-01,2.041567862033843994e-01,2.500072121620178223e-02,4.838281497359275818e-02,3.107813745737075806e-02,1.432439684867858887e-01,6.299474835395812988e-02,2.674331143498420715e-02
1.182581763714551926e-02,3.266089856624603271e-01,1.203832477331161499e-01,2.895788848400115967e-01,1.987506449222564697e-02,8.827359229326248169e-02,3.763106837868690491e-02,3.987198323011398315e-02,5.278610438108444214e-02,1.316525787115097046e-02
1.032586515066213906e-04,9.713486651889979839e-04,1.978593878448009491e-03,4.620539844036102295e-01,7.621345575898885727e-04,2.899105194956064224e-03,6.104229832999408245e-04,1.783555839210748672e-03,5.274399518966674805e-01,1.397557323798537254e-03
3.530767746269702911e-03,2.702111750841140747e-02,3.028901815414428711e-01,1.860012710094451904e-01,1.336871366947889328e-02,6.322911940515041351e-03,2.665233099833130836e-03,4.309769272804260254e-01,1.364255789667367935e-02,1.358023378998041153e-02
4.712102469056844711e-03,2.204791642725467682e-02,8.599076271057128906e-01,5.126842856407165527e-02,7.767527829855680466e-03,2.947148866951465607e-03,5.660309456288814545e-03,3.270042687654495239e-02,8.633843623101711273e-03,4.354656673967838287e-03
2.076081000268459320e-02,5.358790233731269836e-02,3.459756672382354736e-01,1.405413150787353516e-01,5.643656942993402481e-03,2.678788267076015472e-03,3.777543781325221062e-03,4.071000814437866211e-01,1.597702316939830780e-02,3.957365639507770538e-03
3.312429878860712051e-03,2.639636024832725525e-02,1.439582742750644684e-02,2.421485632658004761e-01,6.192672532051801682e-03,5.751865450292825699e-03,5.057713715359568596e-04,6.578325033187866211e-01,1.577009074389934540e-02,2.769398503005504608e-02
7.796285673975944519e-03,8.293659985065460205e-02,4.167357981204986572e-01,3.201745152473449707e-01,1.684996113181114197e-02,3.611570969223976135e-02,1.753700897097587585e-02,3.248522058129310608e-02,5.800388753414154053e-02,1.136508211493492126e-02
1.396774407476186752e-02,3.546607121825218201e-02,1.659597828984260559e-02,1.813064068555831909e-01,7.542302366346120834e-03,3.051331080496311188e-02,7.628622464835643768e-03,4.989616945385932922e-02,6.181156039237976074e-01,3.896784782409667969e-02
5.226173251867294312e-02,1.192324459552764893e-01,3.136348724365234375e-02,5.776946246623992920e-02,4.927667975425720215e-02,7.027404010295867920e-02,4.840283095836639404e-02,4.502249881625175476e-02,4.279360473155975342e-01,9.846084564924240112e-02
2.221110044047236443e-03,5.562487989664077759e-03,1.029891986399888992e-02,1.819621026515960693e-01,1.641753478907048702e-03,7.673034910112619400e-03,3.182896878570318222e-03,1.061999704688787460e-02,7.696803212165832520e-01,7.157370448112487793e-03
3.791467985138297081e-03,1.102882251143455505e-02,1.388881504535675049e-01,2.808124423027038574e-01,7.558672688901424408e-03,1.557590439915657043e-02,8.768066763877868652e-03,3.610365465283393860e-02,4.792540073394775391e-01,1.821891963481903076e-02
7.736904546618461609e-03,9.059049189090728760e-02,1.602317951619625092e-02,1.786382347345352173e-01,9.708551689982414246e-03,7.268331944942474365e-03,9.887622436508536339e-04,6.496745944023132324e-01,1.834422908723354340e-02,2.102679386734962463e-02
2.780673676170408726e-04,6.591323763132095337e-04,3.651074948720633984e-04,4.391808509826660156e-01,5.574563983827829361e-04,5.339522957801818848e-01,3.908376675099134445e-04,2.993267728015780449e-03,8.085696958005428314e-03,1.353734172880649567e-02
1.304875966161489487e-02,8.037317544221878052e-02,1.220843195915222168e-01,2.287919819355010986e-01,1.434567570686340332e-02,2.291271835565567017e-02,8.857309818267822266e-03,2.800446748733520508e-01,1.886051446199417114e-01,4.093620926141738892e-02
3.990244120359420776e-02,3.375042080879211426e-01,5.303494259715080261e-02,1.051811277866363525e-01,2.464468963444232941e-02,2.774412184953689575e-02,1.077673491090536118e-02,3.489179015159606934e-01,2.827554009854793549e-02,2.401836775243282318e-02
7.616710383445024490e-03,1.946981623768806458e-02,7.398137822747230530e-03,4.150966107845306396e-01,4.245104733854532242e-03,4.287024587392807007e-02,3.665717551484704018e-03,2.881637401878833771e-02,4.480210840702056885e-01,2.280011959373950958e-02
5.613293498754501343e-03,1.246368419378995895e-02,3.108753263950347900e-02,2.486985921859741211e-01,7.411625701934099197e-03,1.148292794823646545e-02,3.316029324196279049e-04,5.021973252296447754e-01,2.495978027582168579e-02,1.557536274194717407e-01
8.059780811890959740e-04,1.574053615331649780e-02,6.641780957579612732e-03,4.635343328118324280e-02,6.138148717582225800e-03,2.244017086923122406e-03,4.157077346462756395e-04,9.072582721710205078e-01,3.037601476535201073e-03,1.136456336826086044e-02
6.666189059615135193e-03,3.386542573571205139e-02,4.449834674596786499e-02,2.472727596759796143e-01,1.529733557254076004e-02,9.492133744060993195e-03,2.235261956229805946e-03,5.884583592414855957e-01,2.689371071755886078e-02,2.532055787742137909e-02
5.429439619183540344e-02,2.828558385372161865e-01,6.070231646299362183e-02,5.355703458189964294e-02,2.930805087089538574e-02,1.318547315895557404e-02,1.018992997705936432e-02,3.345938920974731445e-01,1.212259754538536072e-01,4.008707404136657715e-02
1.068716868758201599e-02,5.238755047321319580e-02,3.944697976112365723e-02,1.449133157730102539e-01,1.356903556734323502e-02,1.676294207572937012e-02,1.417945139110088348e-03,6.305522918701171875e-01,1.614419184625148773e-02,7.411857694387435913e-02
3.334400753374211490e-05,5.168840871192514896e-04,3.584008372854441404e-04,7.837528735399246216e-02,8.987063483800739050e-05,8.875706791877746582e-01,2.517062472179532051e-03,2.366270346101373434e-04,2.960495091974735260e-02,6.969309761188924313e-04
1.315423380583524704e-02,5.672703310847282410e-02,1.239112317562103271e-01,3.178593218326568604e-01,2.490917034447193146e-02,4.004932194948196411e-02,1.158657763153314590e-02,3.236872851848602295e-01,5.987373739480972290e-02,2.824213355779647827e-02
1.728680916130542755e-03,1.688888110220432281e-02,3.475404903292655945e-02,4.120009019970893860e-02,9.176823310554027557e-03,3.653326770290732384e-03,1.230836729519069195e-03,8.691007494926452637e-01,5.359091795980930328e-03,1.690749451518058777e-02
3.024316579103469849e-02,4.191415309906005859e-01,3.999968245625495911e-02,1.920994669198989868e-01,2.678677998483181000e-02,2.601348236203193665e-02,1.147368270903825760e-02,1.141424700617790222e-01,1.114155650138854980e-01,2.868422120809555054e-02
3.072214545682072639e-03,3.117367811501026154e-02,2.392112277448177338e-02,9.057413786649703979e-02,5.361699964851140976e-03,4.043201450258493423e-03,1.361440750770270824e-03,8.332995176315307617e-01,3.182933898642659187e-03,4.010071512311697006e-03
1.378444209694862366e-02,6.348583381623029709e-03,4.975426942110061646e-03,1.567670553922653198e-01,1.685461774468421936e-02,4.534110054373741150e-02,1.123429858125746250e-03,7.892351597547531128e-02,4.354708269238471985e-02,6.323347687721252441e-01
5.706464871764183044e-03,1.845679245889186859e-02,7.633188739418983459e-03,1.817477047443389893e-01,1.413458492606878281e-02,1.956276036798954010e-02,6.581820198334753513e-04,1.524903923273086548e-01,1.960929781198501587e-01,4.035169780254364014e-01
1.919948612339794636e-03,5.028802901506423950e-03,2.575843129307031631e-03,4.182564020156860352e-01,1.504030195064842701e-03,1.598497666418552399e-02,9.269446600228548050e-04,1.777271553874015808e-02,5.202483534812927246e-01,1.578197441995143890e-02
3.469078615307807922e-02,4.841094091534614563e-02,2.841262519359588623e-02,1.625108420848846436e-01,1.876976899802684784e-02,6.302475929260253906e-02,1.848149485886096954e-02,1.010955274105072021e-01,4.467674791812896729e-01,7.783577591180801392e-02
1.822776719927787781e-02,4.120916500687599182e-02,1.311689913272857666e-01,1.118588745594024658e-01,2.779087610542774200e-02,2.908976562321186066e-02,3.417319431900978088e-02,5.028462409973144531e-02,5.140554308891296387e-01,4.214134812355041504e-02
5.995916202664375305e-03,1.141843199729919434e-02,1.381444558501243591e-02,4.095920026302337646e-01,1.086676307022571564e-02,2.342279069125652313e-02,5.528178997337818146e-03,4.720097407698631287e-02,4.245350062847137451e-01,4.762541130185127258e-02
2.739977790042757988e-04,1.142329885624349117e-03,1.206812448799610138e-03,2.052058279514312744e-01,5.391545128077268600e-04,6.225289776921272278e-03,3.250958397984504700e-04,5.078118760138750076e-03,7.688057422637939453e-01,1.119757350534200668e-02
1.143407635390758514e-02,1.101583894342184067e-02,7.878451608121395111e-03,2.784995436668395996e-01,1.393713708966970444e-02,3.527041524648666382e-02,4.700003657490015030e-03,5.498682335019111633e-02,4.401258230209350586e-01,1.421518772840499878e-01
5.392937920987606049e-03,5.468567833304405212e-03,1.817815471440553665e-03,3.019018843770027161e-02,6.265763076953589916e-04,7.947910577058792114e-03,2.263683825731277466e-03,6.587532348930835724e-03,9.332751035690307617e-01,6.429696455597877502e-03
1.258823648095130920e-02,3.431284055113792419e-02,3.360853716731071472e-02,2.855023145675659180e-01,7.880786433815956116e-03,1.031184121966362000e-01,1.473941002041101456e-02,9.415765851736068726e-02,3.857248127460479736e-01,2.836702764034271240e-02
4.151586443185806274e-03,9.628785774111747742e-03,4.013645462691783905e-03,3.965798020362854004e-01,8.665526984259486198e-04,2.000165916979312897e-02,2.357039833441376686e-03,8.442539721727371216e-03,5.504481792449951172e-01,3.510234877467155457e-03
3.044719994068145752e-02,1.430969964712858200e-02,1.473659556359052658e-02,1.848089396953582764e-01,6.399185210466384888e-02,8.030860126018524170e-02,5.845042411237955093e-03,5.251008272171020508e-02,7.735819369554519653e-02,4.756837487220764160e-01
2.381898462772369385e-02,1.990293897688388824e-02,3.965360112488269806e-03,1.733490526676177979e-01,2.653704956173896790e-03,5.284664407372474670e-02,7.477188948541879654e-03,2.198798581957817078e-02,6.771518588066101074e-01,1.684624515473842621e-02
2.557478472590446472e-02,1.158750727772712708e-01,6.618265807628631592e-02,1.956203877925872803e-01,2.430915087461471558e-02,4.003097862005233765e-02,1.731796562671661377e-02,1.062432155013084412e-01,3.566731512546539307e-01,5.217261984944343567e-02
1.845575519837439060e-03,1.870553195476531982e-02,1.799726672470569611e-02,5.907507985830307007e-02,1.012663450092077255e-02,1.963604940101504326e-03,9.726005955599248409e-04,8.811478018760681152e-01,2.699629636481404305e-03,5.466187838464975357e-03
2.519307890906929970e-04,2.040294930338859558e-03,2.303079934790730476e-03,3.746165931224822998e-01,6.794649525545537472e-04,5.722042918205261230e-01,4.659622441977262497e-03,2.674032235518097878e-03,3.813625872135162354e-02,2.434427384287118912e-03
1.395195722579956055e-02,1.358152553439140320e-02,9.935944341123104095e-03,1.767131984233856201e-01,1.879509910941123962e-02,5.863707140088081360e-02,7.288055028766393661e-03,8.281233906745910645e-02,4.268071651458740234e-01,1.914775669574737549e-01
4.326472878456115723e-01,5.312696099281311035e-02,8.159457705914974213e-03,3.814536929130554199e-01,1.747224596329033375e-03,1.644989475607872009e-02,4.099842626601457596e-03,6.818761676549911499e-02,3.040067479014396667e-02,3.727305680513381958e-03
1.231235079467296600e-02,2.792300842702388763e-02,4.143205285072326660e-01,9.473028033971786499e-02,4.391493648290634155e-02,1.081785373389720917e-02,1.760407164692878723e-02,2.413746118545532227e-01,9.647180885076522827e-02,4.053053632378578186e-02
9.026832878589630127e-03,7.766239345073699951e-03,2.441369928419589996e-02,3.647291064262390137e-01,3.955955803394317627e-02,2.011338807642459869e-02,2.482742303982377052e-03,8.266778290271759033e-02,7.626871019601821899e-02,3.729718923568725586e-01
1.238368335179984570e-03,1.047030440531671047e-03,1.671216305112466216e-04,1.236283108592033386e-01,4.685511346906423569e-03,2.580955624580383301e-02,9.174397564493119717e-05,9.709818288683891296e-03,3.561998903751373291e-01,4.774226546287536621e-01
4.611191526055335999e-02,1.675598695874214172e-02,1.127068996429443359e-01,1.477633714675903320e-01,4.903550818562507629e-02,2.902946621179580688e-02,6.761275231838226318e-03,1.552934199571609497e-01,1.232102215290069580e-01,3.133318722248077393e-01
1.055664010345935822e-02,2.061724103987216949e-02,1.156578678637742996e-02,1.585183590650558472e-01,1.092154718935489655e-02,2.112241461873054504e-02,7.607439765706658363e-04,3.133109211921691895e-01,6.746073812246322632e-02,3.851656317710876465e-01
2.612411208247067407e-06,5.622184471576474607e-05,1.453564327675849199e-04,3.859955370426177979e-01,7.289109817065764219e-06,2.289046999067068100e-03,2.184270488214679062e-05,1.242867874680086970e-04,6.112155318260192871e-01,1.422104251105338335e-04
4.353280365467071533e-02,5.007102340459823608e-02,6.081409752368927002e-02,2.980904579162597656e-01,1.218614820390939713e-02,1.107408329844474792e-01,3.020005673170089722e-02,4.485505446791648865e-02,3.229150474071502686e-01,2.659454755485057831e-02
3.816466312855482101e-03,1.064572185277938843e-01,1.076231226325035095e-01,1.252965629100799561e-01,4.021277725696563721e-01,7.933476939797401428e-03,2.474025636911392212e-02,8.888204395771026611e-02,1.099288985133171082e-01,2.319424040615558624e-02
5.891410983167588711e-04,2.046990208327770233e-03,8.317767060361802578e-04,7.133871316909790039e-02,4.879493732005357742e-03,4.044012166559696198e-03,5.621538148261606693e-04,8.245961740612983704e-03,8.427954912185668945e-01,6.466626375913619995e-02
4.503023996949195862e-02,7.626777887344360352e-02,5.400756746530532837e-02,3.265438675880432129e-01,2.151590026915073395e-02,2.552064508199691772e-02,1.037946715950965881e-02,3.373660445213317871e-01,7.434613257646560669e-02,2.902241237461566925e-02
