7.757713552564382553e-03,5.852918028831481934e-01,2.458542771637439728e-02,4.015259910374879837e-03,1.217814348638057709e-02,1.471921568736433983e-03,2.049356000497937202e-03,3.514735102653503418e-01,2.421635203063488007e-03,8.755316957831382751e-03
1.164279296062886715e-03,9.001579880714416504e-02,7.823643833398818970e-02,2.087661763653159142e-03,4.930149018764495850e-01,1.595872920006513596e-03,2.338304556906223297e-02,2.931456565856933594e-01,3.393329447135329247e-03,1.396287046372890472e-02
1.716016093268990517e-03,9.833337366580963135e-02,6.945770978927612305e-02,4.969370551407337189e-03,4.260052442550659180e-01,2.677439944818615913e-03,3.570578992366790771e-02,3.334537744522094727e-01,6.815153639763593674e-03,2.086614258587360382e-02
1.928075915202498436e-03,6.811055541038513184e-01,4.721561912447214127e-03,2.469918399583548307e-04,2.034249156713485718e-02,2.505089214537292719e-04,2.487011370249092579e-04,2.783269584178924561e-01,2.550675708334892988e-04,1.257416419684886932e-02
2.246840391308069229e-03,6.021519303321838379e-01,7.942441850900650024e-03,3.458277788013219833e-04,6.758022587746381760e-03,1.131274402723647654e-04,8.697853627381846309e-05,3.689247071743011475e-01,4.089463618583977222e-04,1.102114282548427582e-02
2.681095385923981667e-03,4.594753682613372803e-01,5.152362957596778870e-02,4.736403934657573700e-03,1.280808169394731522e-02,1.103562419302761555e-03,1.587858074344694614e-03,4.582885205745697021e-01,1.207246910780668259e-03,6.588293239474296570e-03
4.861475899815559387e-03,5.846617221832275391e-01,1.244492828845977783e-02,9.543283958919346333e-04,1.048969104886054993e-02,4.664346342906355858e-04,3.634221502579748631e-04,3.681741952896118164e-01,9.678170317783951759e-04,1.661601662635803223e-02
8.621634915471076965e-03,5.611869692802429199e-01,1.312010269612073898e-02,8.090630173683166504e-03,8.062485605478286743e-03,1.542766694910824299e-03,9.635852766223251820e-04,3.905462026596069336e-01,1.368389814160764217e-03,6.497152615338563919e-03
1.631083665415644646e-03,2.284292876720428467e-01,1.041648536920547485e-02,1.254111295565962791e-03,4.674544334411621094e-01,1.319151488132774830e-03,4.964520223438739777e-03,1.895241737365722656e-01,5.071571562439203262e-03,8.993513882160186768e-02
9.581238846294581890e-04,5.834614038467407227e-01,3.346120472997426987e-03,2.177513524657115340e-04,1.644345931708812714e-02,7.625717262271791697e-05,1.848811953095719218e-04,3.871440291404724121e-01,1.600977993803098798e-04,8.007982745766639709e-03
2.234993968158960342e-03,8.181535601615905762e-01,2.645883476361632347e-03,4.104029503650963306e-04,4.062445368617773056e-03,2.171676605939865112e-04,8.442749094683676958e-05,1.654027551412582397e-01,2.397962962277233601e-04,6.548483856022357941e-03
2.738024340942502022e-03,5.775416493415832520e-01,9.342484176158905029e-03,6.002814043313264847e-04,5.663129035383462906e-03,2.624825865495949984e-04,2.707323001231998205e-04,3.980316221714019775e-01,2.834197075571864843e-04,5.266189575195312500e-03
4.503221716731786728e-03,6.063117384910583496e-01,1.002767961472272873e-02,1.559706870466470718e-03,1.047166716307401657e-02,3.623248485382646322e-04,7.202265551313757896e-04,3.571095466613769531e-01,8.716682204976677895e-04,8.062174543738365173e-03
4.273839294910430908e-02,3.860333561897277832e-01,2.838303148746490479e-02,4.411034286022186279e-03,3.116709180176258087e-02,6.100916769355535507e-03,1.690318342298269272e-03,3.288103044033050537e-01,1.139870751649141312e-02,1.592668443918228149e-01
1.429994869977235794e-02,6.187610030174255371e-01,6.564821582287549973e-03,5.661729257553815842e-03,6.173781119287014008e-03,2.414022106677293777e-03,1.077595166862010956e-03,3.144527077674865723e-01,4.743739031255245209e-03,2.585065178573131561e-02
5.802416708320379257e-03,8.236286640167236328e-01,4.361899103969335556e-03,2.885699039325118065e-03,2.808116609230637550e-03,9.612563881091773510e-04,4.309917567297816277e-04,1.531468480825424194e-01,9.328832384198904037e-04,5.041222088038921356e-03
1.464276807382702827e-03,9.166895747184753418e-01,1.895694993436336517e-03,2.674508723430335522e-04,1.309121493250131607e-03,1.424695510650053620e-04,9.167244570562615991e-05,7.653375715017318726e-02,1.429859839845448732e-04,1.462966320104897022e-03
9.041382145369425416e-05,4.666159301996231079e-02,9.004025720059871674e-03,2.950829803012311459e-04,4.724116027355194092e-01,1.268411288037896156e-04,5.267069209367036819e-03,4.581423699855804443e-01,7.156194187700748444e-04,7.285395171493291855e-03
3.062819829210639000e-03,6.981042027473449707e-01,5.767043214291334152e-03,4.515417385846376419e-04,8.476042188704013824e-03,4.286409530322998762e-04,1.975097256945446134e-04,2.695781886577606201e-01,4.205315490253269672e-04,1.351351477205753326e-02
2.015556208789348602e-03,4.909067153930664062e-01,4.707365762442350388e-03,3.748982271645218134e-04,4.205895122140645981e-03,1.246162428287789226e-04,9.531032992526888847e-05,4.877158105373382568e-01,2.290607808390632272e-04,9.624935686588287354e-03
3.703768132254481316e-03,8.298721909523010254e-01,4.346268251538276672e-03,1.760933781042695045e-03,2.594786696135997772e-03,5.371154402382671833e-04,2.778892521746456623e-04,1.527243703603744507e-01,5.083427531644701958e-04,3.674365114420652390e-03
2.163652563467621803e-03,5.129386782646179199e-01,1.274925377219915390e-02,1.251441659405827522e-03,6.089101545512676239e-03,2.398366486886516213e-04,4.226002783980220556e-04,4.589423239231109619e-01,4.553892067633569241e-04,4.747835919260978699e-03
2.207888755947351456e-03,7.966169118881225586e-01,7.849825546145439148e-03,4.247257602401077747e-04,6.061107385903596878e-03,2.456824586261063814e-04,1.559710362926125526e-04,1.802308261394500732e-01,3.550349792931228876e-04,5.852058529853820801e-03
2.165087731555104256e-03,8.315645456314086914e-01,3.135012928396463394e-03,7.719261338934302330e-04,7.337397430092096329e-03,3.207604459021240473e-04,2.166192571166902781e-04,1.477959007024765015e-01,3.301301330793648958e-04,6.362550891935825348e-03
2.240132744191214442e-04,2.390220612287521362e-01,5.912975873798131943e-03,2.263855858473107219e-04,4.201245307922363281e-01,2.550262433942407370e-04,2.118992619216442108e-03,3.069243133068084717e-01,7.723098387941718102e-04,2.441939711570739746e-02
1.018906245008111000e-03,8.631686568260192871e-01,1.373933046124875546e-03,1.654241350479424000e-04,7.583256810903549194e-03,1.719584543025121093e-04,7.463635120075196028e-05,1.191366389393806458e-01,1.291867956751957536e-04,7.177543826401233673e-03
7.645576843060553074e-04,7.629254460334777832e-01,1.802904298529028893e-03,1.373070408590137959e-04,5.680819042026996613e-03,7.960664515849202871e-05,8.980374695966020226e-05,2.256875187158584595e-01,5.295445589581504464e-05,2.779120113700628281e-03
6.052731769159436226e-04,6.595695391297340393e-03,7.559471130371093750e-01,1.690354663878679276e-03,4.946004599332809448e-03,4.705649917013943195e-05,5.200405721552670002e-04,2.275157868862152100e-01,6.228937418200075626e-04,1.509737106971442699e-03
4.275356695870868862e-05,6.623708456754684448e-02,1.439628005027770996e-02,9.304102422902360559e-05,7.859176993370056152e-01,8.951312338467687368e-05,2.413884038105607033e-03,1.206168904900550842e-01,5.557198892347514629e-04,9.637238457798957825e-03
2.091965638101100922e-03,8.177160024642944336e-01,1.606835634447634220e-03,2.507894241716712713e-04,3.138630883768200874e-03,2.778462076094001532e-04,3.886605190928094089e-05,1.628435403108596802e-01,1.512511953478679061e-04,1.188420224934816360e-02
2.238225378096103668e-02,3.857446312904357910e-01,4.447003081440925598e-02,8.758979849517345428e-03,9.193014353513717651e-02,1.164245884865522385e-02,9.447819553315639496e-03,3.361980319023132324e-01,9.416256099939346313e-03,8.000949770212173462e-02
2.166307298466563225e-03,5.732353329658508301e-01,1.023210119456052780e-02,4.041444044560194016e-04,1.707842759788036346e-02,4.136392090003937483e-04,4.579558153636753559e-04,3.863807320594787598e-01,2.082767023239284754e-04,9.423117153346538544e-03
2.261039626318961382e-04,6.601674109697341919e-02,7.461285684257745743e-03,6.595226004719734192e-04,6.888466477394104004e-01,2.926876186393201351e-04,7.811992429196834564e-03,2.063420563936233521e-01,1.887042773887515068e-03,2.045585773885250092e-02
1.119873719289898872e-03,4.979581534862518311e-01,4.138593096286058426e-03,3.551060508470982313e-04,4.858776926994323730e-03,6.765955185983330011e-05,1.446691749151796103e-04,4.884157180786132812e-01,1.083713214029558003e-04,2.833099802955985069e-03
