1.0,0.9,0.8,0.7,0.6,0.5,0.4,0.3,0.2,0.1,0.05,0.01
0,0,0,0,0,0,0,2,7,7,4,4
0,0,0,0,0,0,1,3,4,8,8,8
0,0,0,0,0,0,1,1,0,8,19,19
0,0,0,0,0,0,0,4,1,1,24,24
0,0,0,0,0,0,1,3,4,4,27,27
0,0,0,0,0,0,1,3,4,4,29,29
0,0,0,0,0,0,0,2,7,7,18,18
0,0,0,0,0,0,1,1,0,0,1,1
0,0,0,0,0,0,0,4,1,1,10,10
0,0,0,0,0,0,2,0,2,2,5,5
0,0,0,0,0,0,1,3,4,4,3,3
0,0,0,0,0,0,1,1,0,0,15,15
0,0,0,0,0,0,0,4,1,1,0,0
0,0,0,0,0,0,2,0,2,2,25,25
0,0,0,0,0,0,2,5,6,6,21,21
0,0,0,0,0,0,0,4,1,1,11,11
0,0,0,0,0,0,0,4,1,1,13,13
0,0,0,0,0,0,2,0,5,5,7,7
0,0,0,0,0,0,1,1,0,8,14,14
0,0,0,0,0,0,2,5,6,6,6,6
0,0,0,0,0,0,2,5,6,6,16,16
0,0,0,0,0,0,0,4,3,3,20,20
0,0,0,0,0,0,0,2,7,7,28,28
0,0,0,0,0,0,0,4,3,3,9,9
0,0,0,0,0,0,0,2,3,3,12,12
0,0,0,0,0,0,2,0,2,2,23,23
0,0,0,0,0,0,2,0,2,2,2,2
0,0,0,0,0,0,0,4,1,1,26,26
0,0,0,0,0,0,1,3,4,4,22,22
0,0,0,0,0,0,1,1,0,0,17,17
