1.0,0.9,0.8,0.7,0.6,0.5,0.4,0.3,0.2,0.1,0.05,0.01
0,0,0,0,0,0,0,3,4,4,12,3
0,0,0,0,0,0,1,0,3,6,3,74
0,0,0,0,0,0,0,2,6,8,0,43
0,0,0,0,0,0,1,0,1,0,3,76
0,0,0,0,0,0,1,0,1,7,3,70
0,0,0,0,0,0,2,1,5,5,5,20
0,0,0,0,0,0,1,0,3,3,11,110
0,0,0,0,0,0,2,1,5,5,5,23
0,0,0,0,0,0,1,0,1,0,3,68
0,0,0,0,0,0,1,0,3,6,13,64
0,0,0,0,0,0,1,0,3,3,11,101
0,0,0,0,0,0,1,0,0,2,14,14
0,0,0,0,0,0,0,3,4,4,12,28
0,0,0,0,0,0,1,0,1,7,10,77
0,0,0,0,0,0,0,2,2,1,6,90
0,0,0,0,0,0,1,0,3,6,13,95
0,0,0,0,0,0,1,0,3,3,11,41
0,0,0,0,0,0,2,1,0,2,8,33
0,0,0,0,0,0,1,0,1,7,10,88
0,0,0,0,0,0,2,1,0,2,8,10
0,0,0,0,0,0,2,1,0,2,9,32
0,0,0,0,0,0,1,0,3,6,13,8
0,0,0,0,0,0,2,1,0,2,9,58
0,0,0,0,0,0,0,2,6,10,15,15
0,0,0,0,0,0,0,2,2,1,6,89
0,0,0,0,0,0,1,0,1,7,10,75
0,0,0,0,0,0,0,2,6,8,7,26
0,0,0,0,0,0,2,1,5,5,5,73
0,0,0,0,0,0,2,1,5,5,5,48
0,0,0,0,0,0,2,1,5,9,2,9
0,0,0,0,0,0,1,0,1,7,10,85
0,0,0,0,0,0,0,3,4,4,12,65
0,0,0,0,0,0,2,1,5,9,2,66
0,0,0,0,0,0,1,0,3,6,13,86
0,0,0,0,0,0,1,0,3,3,11,63
0,0,0,0,0,0,2,1,0,2,9,82
0,0,0,0,0,0,2,1,0,9,9,24
0,0,0,0,0,0,0,2,6,8,16,25
0,0,0,0,0,0,2,1,0,2,9,6
0,0,0,0,0,0,2,1,0,2,9,53
0,0,0,0,0,0,1,0,3,0,1,35
0,0,0,0,0,0,1,0,3,3,11,99
0,0,0,0,0,0,2,1,5,9,9,44
0,0,0,0,0,0,1,0,3,3,11,71
0,0,0,0,0,0,0,2,0,2,16,16
0,0,0,0,0,0,1,0,1,0,3,19
0,0,0,0,0,0,2,1,5,9,2,51
0,0,0,0,0,0,2,1,5,9,9,45
0,0,0,0,0,0,1,0,3,6,1,57
0,0,0,0,0,0,1,0,1,7,10,29
0,0,0,0,0,0,1,0,1,7,10,111
0,0,0,0,0,0,0,2,2,1,6,49
0,0,0,0,0,0,1,0,3,3,11,60
0,0,0,0,0,0,0,2,2,1,6,37
0,0,0,0,0,0,1,0,3,6,13,100
0,0,0,0,0,0,2,1,5,5,5,93
0,0,0,0,0,0,1,0,3,6,13,18
0,0,0,0,0,0,1,0,3,3,11,87
0,0,0,0,0,0,0,3,4,4,4,27
0,0,0,0,0,0,1,0,0,0,14,17
0,0,0,0,0,0,0,2,6,8,7,7
0,0,0,0,0,0,1,0,3,0,3,40
0,0,0,0,0,0,0,2,6,8,7,62
0,0,0,0,0,0,0,2,2,1,6,22
0,0,0,0,0,0,1,0,3,6,13,36
0,0,0,0,0,0,1,0,3,3,11,104
0,0,0,0,0,0,2,1,5,9,2,21
0,0,0,0,0,0,1,0,1,7,10,80
0,0,0,0,0,0,2,1,5,5,5,78
0,0,0,0,0,0,1,0,1,7,10,4
0,0,0,0,0,0,2,1,0,2,9,31
0,0,0,0,0,0,1,0,3,3,11,81
0,0,0,0,0,0,1,0,3,6,13,114
0,0,0,0,0,0,0,2,6,8,0,34
0,0,0,0,0,0,2,1,0,9,2,61
0,0,0,0,0,0,1,0,3,3,11,47
0,0,0,0,0,0,1,0,3,3,11,108
0,0,0,0,0,0,1,0,3,6,1,39
0,0,0,0,0,0,2,1,0,2,8,98
0,0,0,0,0,0,0,2,6,8,0,106
0,0,0,0,0,0,1,0,3,6,13,91
0,0,0,0,0,0,0,2,2,1,6,59
0,0,0,0,0,0,0,2,6,8,7,12
0,0,0,0,0,0,1,0,3,3,11,112
0,0,0,0,0,0,0,2,2,1,6,5
0,0,0,0,0,0,1,0,1,7,10,46
0,0,0,0,0,0,1,0,3,6,13,67
0,0,0,0,0,0,0,2,2,1,6,54
0,0,0,0,0,0,2,1,5,5,5,103
0,0,0,0,0,0,1,0,3,3,11,116
0,0,0,0,0,0,1,0,3,3,1,1
0,0,0,0,0,0,1,0,1,7,3,30
0,0,0,0,0,0,1,0,3,6,13,113
0,0,0,0,0,0,1,0,1,7,10,94
0,0,0,0,0,0,1,0,3,0,3,50
0,0,0,0,0,0,1,0,3,6,13,56
0,0,0,0,0,0,2,1,5,5,5,2
0,0,0,0,0,0,1,0,3,3,11,11
0,0,0,0,0,0,2,1,0,9,2,52
0,0,0,0,0,0,1,0,3,6,13,97
0,0,0,0,0,0,1,0,3,6,13,107
0,0,0,0,0,0,1,0,3,3,11,115
0,0,0,0,0,0,1,0,1,6,3,79
0,0,0,0,0,0,1,0,1,6,13,72
0,0,0,0,0,0,2,1,0,2,8,105
0,0,0,0,0,0,0,2,6,8,0,102
0,0,0,0,0,0,0,2,2,1,6,55
0,0,0,0,0,0,1,0,3,3,11,96
0,0,0,0,0,0,0,2,6,8,0,0
0,0,0,0,0,0,1,0,3,6,13,83
0,0,0,0,0,0,0,2,2,1,6,92
0,0,0,0,0,0,2,1,5,5,5,69
0,0,0,0,0,0,1,0,3,3,11,109
0,0,0,0,0,0,0,3,4,4,4,13
0,0,0,0,0,0,0,2,6,8,7,42
0,0,0,0,0,0,1,0,3,6,13,84
0,0,0,0,0,0,0,2,6,8,16,38
