tau,n_clusters,n_int_boxes,lower_bound,high_bound,bound_diff
1.0,1,0,1.0,1.0,0.0
0.9,1,0,1.0,1.0,0.0
0.8,1,0,1.0,1.0,0.0
0.7,1,0,1.0,1.0,0.0
0.6,1,0,1.0,1.0,0.0
0.5,1,0,1.0,1.0,0.0
0.4,1,0,1.0,1.0,0.0
0.3,1,0,1.0,1.0,0.0
0.2,2,1,3.561936559068598e-05,3.561936559068598e-05,2.1524222749202613e-78
0.1,2,1,3.561936559068598e-05,3.561936559068598e-05,2.1524222749202613e-78
0.05,4,6,1.4294115412097769e-08,1.4294115412097769e-08,9.389988596091965e-56
0.01,20,157,3.032254096737761e-37,3.032254096737761e-37,3.456069505710968e-75
