tau,n_clusters,n_int_boxes,lower_bound,high_bound,bound_diff
1.0,1,0,1.0,1.0,0.0
0.9,1,0,1.0,1.0,0.0
0.8,1,0,1.0,1.0,0.0
0.7,1,0,1.0,1.0,0.0
0.6,1,0,1.0,1.0,0.0
0.5,1,0,1.0,1.0,0.0
0.4,1,0,1.0,1.0,0.0
0.3,2,1,9.805030968287865e-15,9.805030968287865e-15,3.8171830018161795e-151
0.2,2,1,9.805030968287865e-15,9.805030968287865e-15,3.8171830018161795e-151
0.1,4,6,1.5853124647990637e-11,1.5853124647990637e-11,4.504341728217637e-145
0.05,8,18,1.6286495993790145e-38,1.6286495993790145e-38,9.491993497547757e-93
0.01,27,144,9.293573433209173e-97,9.293573433209173e-97,1.241688627227101e-149
