tau,n_clusters,n_int_boxes,lower_bound,high_bound,bound_diff
1.0,1,0,1.0,1.0,0.0
0.9,1,0,1.0,1.0,0.0
0.8,1,0,1.0,1.0,0.0
0.7,1,0,1.0,1.0,0.0
0.6,1,0,1.0,1.0,0.0
0.5,1,0,1.0,1.0,0.0
0.4,2,1,0.3036690728213104,0.30367008421644104,1.0113951306351943e-06
0.3,2,1,0.3036690728213104,0.30367008421644104,1.0113951306351943e-06
0.2,3,3,0.09924027598264286,0.09928043662985919,4.016064721632816e-05
0.1,6,7,0.008836783581297232,0.008854113973697567,1.7330392400335937e-05
0.05,12,19,0.00016951922441563308,0.00017285694379365525,3.3377193780221694e-06
0.01,31,57,5.332537518326158e-06,5.396416796655929e-06,6.387927832977065e-08
