tau,n_clusters,n_int_boxes,lower_bound,high_bound,bound_diff
1.0,1,0,1.0,1.0,0.0
0.9,1,0,1.0,1.0,0.0
0.8,1,0,1.0,1.0,0.0
0.7,1,0,1.0,1.0,0.0
0.6,1,0,1.0,1.0,0.0
0.5,2,1,0.5760858343102139,0.5761140666413224,2.823233110852031e-05
0.4,2,1,0.5760858343102139,0.5761140666413224,2.823233110852031e-05
0.3,2,1,0.5760858343102139,0.5761140666413224,2.823233110852031e-05
0.2,5,7,0.09575394195304435,0.0968542246009842,0.0011002826479398434
0.1,7,13,0.06411639252831225,0.06549638344899232,0.0013799909206800706
0.05,14,34,0.009396081290362237,0.009773026672863835,0.0003769453825015985
0.01,43,136,0.0006293817990769702,0.0006528497185014976,2.3467919424527348e-05
