tau,n_clusters,n_int_boxes,lower_bound,high_bound,bound_diff
1.0,1,0,1.0,1.0,0.0
0.9,1,0,1.0,1.0,0.0
0.8,1,0,1.0,1.0,0.0
0.7,1,0,1.0,1.0,0.0
0.6,1,0,1.0,1.0,0.0
0.5,1,0,1.0,1.0,0.0
0.4,1,0,1.0,1.0,0.0
0.3,1,0,1.0,1.0,0.0
0.2,3,3,0.13460979384359825,0.13461535626950943,5.562425911193355e-06
0.1,10,13,3.268693118064569e-05,3.309854529391424e-05,4.116141132685482e-07
0.05,15,21,7.540988080290399e-06,7.662554179895598e-06,1.2156609960519917e-07
0.01,45,63,2.527777610354567e-07,2.5665600829569936e-07,3.878247260242643e-09
