tau,n_clusters,n_int_boxes,lower_bound,high_bound,bound_diff
1.0,1,0,1.0,1.0,0.0
0.9,1,0,1.0,1.0,0.0
0.8,1,0,1.0,1.0,0.0
0.7,1,0,1.0,1.0,0.0
0.6,1,0,1.0,1.0,0.0
0.5,1,0,1.0,1.0,0.0
0.4,1,0,1.0,1.0,0.0
0.3,2,1,0.4492938470893773,0.44929414863151446,3.0154213714508246e-07
0.2,4,5,0.03484507858801415,0.03484750231438043,2.423726366272139e-06
0.1,6,6,0.01134528175208178,0.011346904827882401,1.6230758006213908e-06
0.05,13,12,0.00020371333397460446,0.00020594888057174696,2.2355465971425133e-06
0.01,36,45,1.8159392950655032e-06,1.853856968995739e-06,3.791767393023589e-08
