tau,n_clusters,n_int_boxes,lower_bound,high_bound,bound_diff
1.0,1,0,1.0,1.0,0.0
0.9,1,0,1.0,1.0,0.0
0.8,1,0,1.0,1.0,0.0
0.7,1,0,1.0,1.0,0.0
0.6,1,0,1.0,1.0,0.0
0.5,1,0,1.0,1.0,0.0
0.4,2,1,0.4962809103179497,0.4963472798879222,6.636956997251457e-05
0.3,3,3,0.1222883090052093,0.12259846921028697,0.0003101602050776714
0.2,4,4,0.03669565442881427,0.03672960143610462,3.3947007290346006e-05
0.1,7,9,0.06291701875554088,0.0630712059810144,0.00015418722547351317
0.05,17,35,0.0005209039815378105,0.0005224526036859221,1.5486221481114955e-06
0.01,42,93,7.980927483987747e-06,8.00187633188663e-06,2.09488478988826e-08
