tau,n_clusters,n_int_boxes,lower_bound,high_bound,bound_diff
1.0,1,0,1.0,1.0,0.0
0.9,1,0,1.0,1.0,0.0
0.8,1,0,1.0,1.0,0.0
0.7,1,0,1.0,1.0,0.0
0.6,2,1,0.6819098758977825,0.6819105720668744,6.961690918995564e-07
0.5,2,1,0.6819098758977825,0.6819105720668744,6.961690918995564e-07
0.4,2,1,0.6819098758977825,0.6819105720668744,6.961690918995564e-07
0.3,3,2,0.4933735643392839,0.4941275265431966,0.0007539622039126862
0.2,4,3,0.30735667624686763,0.311440453089141,0.0040837768422733265
0.1,7,11,0.09362193034229552,0.09399905403083415,0.0003771236885386395
0.05,12,26,0.023944689489370213,0.026352450846682522,0.0024077613573123095
0.01,44,134,0.001956057474942954,0.0020071664252310014,5.1108950288047104e-05
