1.0,0.9,0.8,0.7,0.6,0.5,0.4,0.3,0.2,0.1,0.05,0.01
0,0,0,0,0,0,0,0,2,2,1,0
0,0,0,0,0,0,0,0,2,0,9,21
0,0,0,0,0,0,0,1,0,1,8,14
0,0,0,0,0,0,0,1,1,5,0,24
0,0,0,0,0,0,0,0,2,2,1,0
0,0,0,0,0,0,0,1,0,1,6,19
0,0,0,0,0,0,0,0,2,0,10,30
0,0,0,0,0,0,0,0,2,2,1,16
0,0,0,0,0,0,0,0,2,2,1,16
0,0,0,0,0,0,0,0,2,2,9,16
0,0,0,0,0,0,0,0,2,0,9,21
0,0,0,0,0,0,0,1,1,5,3,6
0,0,0,0,0,0,0,1,0,1,8,27
0,0,0,0,0,0,0,1,1,5,3,35
0,0,0,0,0,0,0,1,1,5,11,7
0,0,0,0,0,0,0,0,2,0,2,4
0,0,0,0,0,0,0,1,1,5,0,24
0,0,0,0,0,0,0,0,2,2,1,0
0,0,0,0,0,0,0,0,2,2,1,0
0,0,0,0,0,0,0,0,2,0,9,21
0,0,0,0,0,0,0,1,1,5,3,29
0,0,0,0,0,0,0,0,2,0,10,30
0,0,0,0,0,0,0,1,3,3,5,3
0,0,0,0,0,0,0,1,1,5,3,6
0,0,0,0,0,0,0,0,2,0,10,30
0,0,0,0,0,0,0,1,1,5,3,29
0,0,0,0,0,0,0,1,3,3,5,15
0,0,0,0,0,0,0,1,0,1,6,19
0,0,0,0,0,0,0,1,0,1,8,14
0,0,0,0,0,0,0,0,2,0,10,8
0,0,0,0,0,0,0,1,1,5,2,1
0,0,0,0,0,0,0,1,1,5,0,35
0,0,0,0,0,0,0,1,1,5,0,10
0,0,0,0,0,0,0,1,1,4,4,5
0,0,0,0,0,0,0,1,3,3,12,22
0,0,0,0,0,0,0,1,1,5,7,20
0,0,0,0,0,0,0,0,2,0,9,34
0,0,0,0,0,0,0,1,3,3,12,22
0,0,0,0,0,0,0,1,3,3,5,15
0,0,0,0,0,0,0,1,1,5,7,6
0,0,0,0,0,0,0,0,2,2,1,0
0,0,0,0,0,0,0,1,0,1,8,27
0,0,0,0,0,0,0,0,2,0,2,11
0,0,0,0,0,0,0,1,1,5,3,29
0,0,0,0,0,0,0,1,1,5,3,18
0,0,0,0,0,0,0,0,2,2,1,0
0,0,0,0,0,0,0,0,2,2,1,0
0,0,0,0,0,0,0,1,1,5,3,18
0,0,0,0,0,0,0,0,2,2,1,0
0,0,0,0,0,0,0,1,0,1,6,31
0,0,0,0,0,0,0,0,3,0,12,11
0,0,0,0,0,0,0,1,3,3,5,15
0,0,0,0,0,0,0,0,2,0,10,30
0,0,0,0,0,0,0,0,2,0,9,8
0,0,0,0,0,0,0,0,2,2,9,16
0,0,0,0,0,0,0,0,3,3,12,11
0,0,0,0,0,0,0,1,1,5,11,26
0,0,0,0,0,0,0,0,2,0,10,30
0,0,0,0,0,0,0,0,2,2,1,0
0,0,0,0,0,0,0,0,2,0,2,4
0,0,0,0,0,0,0,0,2,0,10,17
0,0,0,0,0,0,0,1,0,1,6,2
0,0,0,0,0,0,0,1,3,3,12,3
0,0,0,0,0,0,0,0,2,0,2,11
0,0,0,0,0,0,0,0,2,0,9,21
0,0,0,0,0,0,0,0,2,2,9,16
0,0,0,0,0,0,0,0,2,2,1,16
0,0,0,0,0,0,0,1,1,5,2,35
0,0,0,0,0,0,0,1,1,5,3,1
0,0,0,0,0,0,0,1,1,4,4,5
0,0,0,0,0,0,0,1,1,5,12,28
0,0,0,0,0,0,0,0,2,0,10,30
0,0,0,0,0,0,0,0,2,0,10,30
0,0,0,0,0,0,0,1,1,5,3,35
0,0,0,0,0,0,0,1,0,1,6,25
0,0,0,0,0,0,0,0,2,2,1,0
0,0,0,0,0,0,0,1,0,1,8,27
0,0,0,0,0,0,0,1,3,3,12,22
0,0,0,0,0,0,0,0,2,0,10,8
0,0,0,0,0,0,0,0,2,0,10,17
0,0,0,0,0,0,0,1,3,3,5,22
0,0,0,0,0,0,0,1,0,1,8,27
0,0,0,0,0,0,0,1,1,5,7,20
0,0,0,0,0,0,0,0,2,0,10,8
0,0,0,0,0,0,0,0,2,0,10,8
0,0,0,0,0,0,0,0,2,2,1,16
0,0,0,0,0,0,0,0,2,2,9,16
0,0,0,0,0,0,0,1,0,1,6,19
0,0,0,0,0,0,0,0,2,2,9,8
0,0,0,0,0,0,0,1,1,5,3,23
0,0,0,0,0,0,0,0,2,0,10,8
0,0,0,0,0,0,0,0,2,2,9,16
0,0,0,0,0,0,0,0,2,0,10,11
0,0,0,0,0,0,0,1,1,5,12,28
0,0,0,0,0,0,0,0,2,0,10,17
0,0,0,0,0,0,0,1,1,5,0,24
0,0,0,0,0,0,0,0,2,2,9,16
0,0,0,0,0,0,0,0,2,0,10,30
0,0,0,0,0,0,0,0,2,0,9,34
0,0,0,0,0,0,0,0,2,0,9,8
0,0,0,0,0,0,0,0,2,2,1,0
0,0,0,0,0,0,0,1,0,1,8,27
0,0,0,0,0,0,0,0,2,0,10,8
0,0,0,0,0,0,0,1,0,1,8,27
0,0,0,0,0,0,0,0,2,0,12,11
0,0,0,0,0,0,0,1,1,5,11,26
0,0,0,0,0,0,0,1,1,5,11,7
0,0,0,0,0,0,0,0,2,0,10,17
0,0,0,0,0,0,0,1,1,5,0,10
0,0,0,0,0,0,0,1,0,1,6,19
0,0,0,0,0,0,0,1,1,5,0,35
0,0,0,0,0,0,0,1,1,5,0,24
0,0,0,0,0,0,0,1,1,5,3,18
0,0,0,0,0,0,0,1,1,5,7,18
0,0,0,0,0,0,0,1,1,5,3,1
0,0,0,0,0,0,0,0,2,2,1,0
0,0,0,0,0,0,0,0,2,2,9,16
0,0,0,0,0,0,0,1,1,5,11,26
0,0,0,0,0,0,0,1,0,1,6,33
0,0,0,0,0,0,0,1,0,1,6,13
0,0,0,0,0,0,0,0,2,0,9,34
0,0,0,0,0,0,0,1,3,0,12,11
0,0,0,0,0,0,0,1,1,5,3,6
0,0,0,0,0,0,0,1,1,5,2,26
0,0,0,0,0,0,0,1,0,1,6,13
0,0,0,0,0,0,0,1,0,1,8,14
0,0,0,0,0,0,0,1,3,3,5,15
0,0,0,0,0,0,0,0,2,0,10,17
0,0,0,0,0,0,0,1,1,5,7,9
0,0,0,0,0,0,0,1,0,1,8,27
0,0,0,0,0,0,0,0,2,0,10,30
0,0,0,0,0,0,0,1,1,5,2,1
0,0,0,0,0,0,0,0,2,2,1,16
0,0,0,0,0,0,0,1,1,5,3,18
0,0,0,0,0,0,0,0,2,2,1,0
0,0,0,0,0,0,0,1,0,1,6,19
0,0,0,0,0,0,0,1,0,1,6,13
0,0,0,0,0,0,0,1,3,3,5,15
0,0,0,0,0,0,0,0,2,0,10,17
0,0,0,0,0,0,0,0,2,2,9,21
0,0,0,0,0,0,0,1,1,0,2,4
0,0,0,0,0,0,0,0,2,2,9,21
0,0,0,0,0,0,0,0,2,0,9,34
0,0,0,0,0,0,0,0,2,2,9,16
0,0,0,0,0,0,0,0,2,0,2,4
0,0,0,0,0,0,0,1,2,0,2,4
0,0,0,0,0,0,0,0,2,0,9,34
0,0,0,0,0,0,0,1,0,1,6,13
0,0,0,0,0,0,0,0,2,2,9,8
0,0,0,0,0,0,0,0,2,2,1,16
0,0,0,0,0,0,0,1,0,1,6,19
0,0,0,0,0,0,0,0,2,2,9,16
0,0,0,0,0,0,0,0,2,0,10,17
0,0,0,0,0,0,0,1,0,0,2,25
0,0,0,0,0,0,0,1,1,5,3,29
0,0,0,0,0,0,0,1,1,5,0,10
0,0,0,0,0,0,0,1,1,5,3,28
0,0,0,0,0,0,0,0,2,2,1,0
0,0,0,0,0,0,0,1,0,1,6,13
0,0,0,0,0,0,0,1,3,3,5,15
0,0,0,0,0,0,0,1,1,5,3,18
0,0,0,0,0,0,0,1,0,1,6,19
0,0,0,0,0,0,0,1,0,1,6,27
0,0,0,0,0,0,0,1,1,5,3,23
0,0,0,0,0,0,0,1,0,1,6,19
0,0,0,0,0,0,0,1,1,4,4,5
0,0,0,0,0,0,0,1,3,3,5,15
0,0,0,0,0,0,0,1,1,5,2,35
0,0,0,0,0,0,0,1,2,0,2,4
0,0,0,0,0,0,0,0,2,0,9,21
0,0,0,0,0,0,0,0,2,0,10,21
0,0,0,0,0,0,0,1,1,5,3,6
0,0,0,0,0,0,0,1,0,1,8,14
0,0,0,0,0,0,0,1,0,1,8,14
0,0,0,0,0,0,0,1,0,1,8,27
0,0,0,0,0,0,0,1,0,1,6,13
0,0,0,0,0,0,0,1,3,3,5,3
0,0,0,0,0,0,0,1,3,3,12,22
0,0,0,0,0,0,0,1,1,5,3,23
0,0,0,0,0,0,0,1,1,5,3,12
0,0,0,0,0,0,0,1,1,5,3,6
0,0,0,0,0,0,0,1,0,1,6,13
0,0,0,0,0,0,0,0,2,0,10,17
0,0,0,0,0,0,0,0,2,0,10,30
0,0,0,0,0,0,0,0,2,0,9,34
0,0,0,0,0,0,0,1,1,5,0,24
0,0,0,0,0,0,0,1,1,5,6,1
0,0,0,0,0,0,0,1,0,1,8,14
0,0,0,0,0,0,0,1,0,1,6,19
0,0,0,0,0,0,0,1,3,3,12,3
0,0,0,0,0,0,0,1,3,3,12,22
0,0,0,0,0,0,0,0,2,2,1,0
0,0,0,0,0,0,0,1,1,5,3,18
0,0,0,0,0,0,0,1,0,1,6,19
0,0,0,0,0,0,0,1,3,3,5,3
0,0,0,0,0,0,0,0,2,0,2,34
0,0,0,0,0,0,0,0,2,2,9,16
0,0,0,0,0,0,0,1,1,5,3,6
0,0,0,0,0,0,0,1,1,5,3,12
0,0,0,0,0,0,0,1,0,1,6,19
0,0,0,0,0,0,0,0,2,0,10,8
0,0,0,0,0,0,0,0,2,0,10,17
0,0,0,0,0,0,0,1,3,3,12,3
0,0,0,0,0,0,0,1,1,5,3,6
0,0,0,0,0,0,0,0,2,0,2,4
0,0,0,0,0,0,0,0,2,2,9,8
0,0,0,0,0,0,0,0,2,2,1,0
0,0,0,0,0,0,0,0,2,0,2,4
0,0,0,0,0,0,0,0,2,2,9,16
0,0,0,0,0,0,0,1,0,1,8,14
0,0,0,0,0,0,0,0,2,2,9,16
0,0,0,0,0,0,0,1,1,5,3,33
0,0,0,0,0,0,0,0,2,0,10,30
0,0,0,0,0,0,0,1,1,5,3,18
0,0,0,0,0,0,0,0,2,2,1,0
0,0,0,0,0,0,0,0,2,2,9,8
0,0,0,0,0,0,0,1,0,1,6,13
0,0,0,0,0,0,0,1,1,4,4,5
0,0,0,0,0,0,0,0,2,2,9,16
0,0,0,0,0,0,0,0,2,0,10,8
0,0,0,0,0,0,0,1,0,1,8,2
0,0,0,0,0,0,0,1,0,1,6,19
0,0,0,0,0,0,0,1,0,1,8,27
0,0,0,0,0,0,0,1,3,3,5,22
0,0,0,0,0,0,0,1,1,0,2,4
0,0,0,0,0,0,0,1,1,5,0,26
0,0,0,0,0,0,0,1,1,5,7,9
0,0,0,0,0,0,0,0,2,2,9,16
0,0,0,0,0,0,0,1,1,4,4,32
0,0,0,0,0,0,0,0,2,0,9,21
0,0,0,0,0,0,0,1,3,3,5,15
0,0,0,0,0,0,0,0,2,2,1,0
0,0,0,0,0,0,0,1,0,1,8,27
0,0,0,0,0,0,0,1,1,5,3,6
0,0,0,0,0,0,0,1,3,3,12,3
0,0,0,0,0,0,0,1,3,3,12,3
0,0,0,0,0,0,0,0,2,0,2,21
0,0,0,0,0,0,0,0,2,2,9,16
0,0,0,0,0,0,0,0,3,0,12,11
0,0,0,0,0,0,0,1,3,5,12,28
0,0,0,0,0,0,0,0,2,2,9,16
0,0,0,0,0,0,0,1,3,3,5,15
0,0,0,0,0,0,0,1,0,1,8,14
0,0,0,0,0,0,0,1,3,0,12,28
0,0,0,0,0,0,0,0,2,0,10,30
0,0,0,0,0,0,0,1,1,5,3,33
0,0,0,0,0,0,0,1,0,1,8,27
0,0,0,0,0,0,0,1,1,5,2,28
0,0,0,0,0,0,0,0,2,0,10,17
0,0,0,0,0,0,0,0,2,2,1,0
0,0,0,0,0,0,0,1,0,1,8,14
0,0,0,0,0,0,0,1,1,5,2,25
0,0,0,0,0,0,0,0,2,0,2,4
0,0,0,0,0,0,0,1,0,1,6,2
0,0,0,0,0,0,0,1,3,3,5,15
0,0,0,0,0,0,0,1,1,5,3,18
0,0,0,0,0,0,0,1,0,1,8,14
0,0,0,0,0,0,0,0,2,0,2,4
0,0,0,0,0,0,0,1,0,1,6,2
0,0,0,0,0,0,0,1,1,4,4,32
0,0,0,0,0,0,0,0,2,0,10,8
0,0,0,0,0,0,0,1,1,4,3,29
0,0,0,0,0,0,0,1,1,5,3,6
0,0,0,0,0,0,0,1,3,0,12,28
0,0,0,0,0,0,0,1,0,1,6,19
0,0,0,0,0,0,0,1,1,5,7,20
0,0,0,0,0,0,0,0,2,2,9,16
0,0,0,0,0,0,0,0,2,0,10,30
0,0,0,0,0,0,0,0,2,0,2,4
0,0,0,0,0,0,0,0,2,0,10,17
0,0,0,0,0,0,0,0,2,2,9,8
0,0,0,0,0,0,0,1,0,1,6,19
0,0,0,0,0,0,0,1,1,5,3,23
0,0,0,0,0,0,0,1,0,1,8,2
0,0,0,0,0,0,0,1,1,5,3,35
0,0,0,0,0,0,0,1,1,4,4,5
0,0,0,0,0,0,0,1,1,5,3,35
0,0,0,0,0,0,0,0,2,2,1,0
0,0,0,0,0,0,0,0,2,2,1,16
0,0,0,0,0,0,0,1,3,3,12,22
0,0,0,0,0,0,0,1,0,1,6,31
0,0,0,0,0,0,0,1,1,5,3,35
0,0,0,0,0,0,0,0,2,0,10,17
0,0,0,0,0,0,0,1,0,1,6,31
0,0,0,0,0,0,0,0,2,2,9,16
0,0,0,0,0,0,0,1,1,5,2,1
0,0,0,0,0,0,0,1,0,1,8,14
0,0,0,0,0,0,0,1,3,3,12,28
0,0,0,0,0,0,0,0,2,0,9,21
0,0,0,0,0,0,0,1,3,3,12,22
0,0,0,0,0,0,0,0,2,2,9,16
0,0,0,0,0,0,0,0,2,2,1,0
0,0,0,0,0,0,0,0,2,0,10,30
0,0,0,0,0,0,0,1,0,1,6,31
0,0,0,0,0,0,0,0,2,0,10,8
0,0,0,0,0,0,0,1,3,3,12,28
0,0,0,0,0,0,0,1,1,5,11,7
0,0,0,0,0,0,0,1,1,5,3,29
0,0,0,0,0,0,0,1,1,5,11,26
0,0,0,0,0,0,0,0,2,0,9,21
0,0,0,0,0,0,0,1,3,3,5,3
0,0,0,0,0,0,0,0,2,0,2,4
0,0,0,0,0,0,0,1,3,3,5,3
0,0,0,0,0,0,0,1,3,3,12,22
0,0,0,0,0,0,0,1,0,5,6,6
0,0,0,0,0,0,0,0,3,0,12,11
0,0,0,0,0,0,0,1,1,5,3,35
0,0,0,0,0,0,0,0,2,2,9,16
0,0,0,0,0,0,0,1,1,5,7,9
0,0,0,0,0,0,0,1,3,3,12,22
0,0,0,0,0,0,0,1,1,0,2,4
0,0,0,0,0,0,0,0,2,2,1,0
0,0,0,0,0,0,0,0,2,0,2,30
0,0,0,0,0,0,0,1,1,5,7,20
0,0,0,0,0,0,0,1,1,5,2,28
0,0,0,0,0,0,0,0,2,2,9,34
0,0,0,0,0,0,0,1,0,1,6,19
0,0,0,0,0,0,0,1,3,3,5,15
0,0,0,0,0,0,0,0,2,0,10,8
0,0,0,0,0,0,0,1,1,5,11,26
0,0,0,0,0,0,0,1,0,1,8,27
0,0,0,0,0,0,0,1,1,4,4,5
0,0,0,0,0,0,0,1,1,5,0,24
0,0,0,0,0,0,0,1,3,3,5,15
0,0,0,0,0,0,0,1,1,5,3,23
0,0,0,0,0,0,0,0,2,0,9,21
0,0,0,0,0,0,0,0,2,2,9,16
0,0,0,0,0,0,0,1,2,0,2,4
0,0,0,0,0,0,0,0,2,2,9,8
0,0,0,0,0,0,0,1,1,5,3,33
0,0,0,0,0,0,0,1,1,5,3,6
0,0,0,0,0,0,0,1,1,5,3,23
0,0,0,0,0,0,0,0,2,2,1,0
0,0,0,0,0,0,0,0,2,0,2,34
0,0,0,0,0,0,0,0,2,0,10,8
0,0,0,0,0,0,0,0,2,2,9,8
0,0,0,0,0,0,0,0,2,0,9,21
0,0,0,0,0,0,0,1,3,3,5,3
0,0,0,0,0,0,0,0,2,2,1,0
0,0,0,0,0,0,0,0,2,2,1,0
0,0,0,0,0,0,0,1,1,5,6,13
0,0,0,0,0,0,0,1,1,5,3,23
0,0,0,0,0,0,0,1,1,5,3,12
0,0,0,0,0,0,0,0,2,0,9,34
0,0,0,0,0,0,0,1,0,1,6,6
0,0,0,0,0,0,0,1,1,5,3,33
0,0,0,0,0,0,0,0,2,2,1,16
0,0,0,0,0,0,0,1,1,0,2,4
0,0,0,0,0,0,0,0,2,2,1,0
0,0,0,0,0,0,0,1,1,5,3,23
0,0,0,0,0,0,0,1,0,1,6,2
0,0,0,0,0,0,0,1,1,4,4,32
0,0,0,0,0,0,0,0,2,0,9,8
0,0,0,0,0,0,0,0,2,0,10,17
0,0,0,0,0,0,0,0,2,2,1,0
0,0,0,0,0,0,0,1,1,5,3,35
0,0,0,0,0,0,0,0,2,2,1,0
0,0,0,0,0,0,0,1,0,1,6,19
0,0,0,0,0,0,0,1,0,1,6,19
0,0,0,0,0,0,0,0,2,0,10,17
0,0,0,0,0,0,0,1,1,5,3,18
0,0,0,0,0,0,0,0,2,2,9,8
0,0,0,0,0,0,0,1,3,3,12,28
0,0,0,0,0,0,0,1,1,5,11,7
0,0,0,0,0,0,0,1,3,3,12,22
0,0,0,0,0,0,0,0,2,0,10,17
0,0,0,0,0,0,0,1,1,5,3,6
0,0,0,0,0,0,0,1,1,5,6,19
0,0,0,0,0,0,0,0,2,0,9,21
0,0,0,0,0,0,0,1,1,5,3,23
0,0,0,0,0,0,0,1,1,4,4,32
0,0,0,0,0,0,0,1,1,5,3,29
0,0,0,0,0,0,0,0,2,2,9,16
0,0,0,0,0,0,0,1,1,5,7,20
0,0,0,0,0,0,0,1,0,1,8,14
0,0,0,0,0,0,0,1,3,3,5,15
0,0,0,0,0,0,0,0,2,2,1,0
0,0,0,0,0,0,0,1,3,3,5,15
0,0,0,0,0,0,0,1,0,1,8,2
0,0,0,0,0,0,0,1,3,3,12,11
0,0,0,0,0,0,0,1,0,1,11,13
0,0,0,0,0,0,0,0,2,2,1,0
0,0,0,0,0,0,0,1,1,5,3,6
0,0,0,0,0,0,0,0,2,2,1,0
0,0,0,0,0,0,0,1,0,1,8,14
0,0,0,0,0,0,0,1,2,0,2,25
0,0,0,0,0,0,0,0,2,0,10,30
0,0,0,0,0,0,0,1,1,5,6,19
0,0,0,0,0,0,0,0,2,0,10,30
0,0,0,0,0,0,0,1,1,5,7,20
0,0,0,0,0,0,0,1,0,0,2,25
0,0,0,0,0,0,0,0,2,0,12,11
0,0,0,0,0,0,0,1,0,5,6,6
0,0,0,0,0,0,0,1,0,1,8,14
0,0,0,0,0,0,0,0,2,2,1,16
0,0,0,0,0,0,0,0,2,0,9,21
0,0,0,0,0,0,0,1,0,1,8,14
0,0,0,0,0,0,0,1,1,0,2,4
0,0,0,0,0,0,0,0,2,0,9,21
0,0,0,0,0,0,0,1,3,3,5,15
0,0,0,0,0,0,0,0,2,2,1,16
0,0,0,0,0,0,0,1,1,5,3,28
0,0,0,0,0,0,0,0,2,2,1,0
0,0,0,0,0,0,0,0,2,0,10,30
0,0,0,0,0,0,0,1,1,5,0,24
0,0,0,0,0,0,0,1,1,5,7,9
0,0,0,0,0,0,0,1,0,1,8,27
0,0,0,0,0,0,0,0,2,2,9,16
0,0,0,0,0,0,0,0,2,2,1,0
0,0,0,0,0,0,0,1,0,1,8,14
0,0,0,0,0,0,0,1,0,1,6,31
0,0,0,0,0,0,0,1,0,1,6,27
0,0,0,0,0,0,0,1,0,1,8,14
0,0,0,0,0,0,0,1,1,4,3,29
0,0,0,0,0,0,0,0,2,0,9,34
0,0,0,0,0,0,0,0,2,0,9,34
0,0,0,0,0,0,0,0,2,0,2,25
0,0,0,0,0,0,0,0,2,2,9,8
0,0,0,0,0,0,0,0,2,2,9,16
0,0,0,0,0,0,0,0,2,2,9,16
0,0,0,0,0,0,0,1,1,5,3,33
0,0,0,0,0,0,0,0,2,2,9,16
0,0,0,0,0,0,0,0,2,2,1,0
0,0,0,0,0,0,0,1,1,5,3,26
0,0,0,0,0,0,0,1,0,1,6,31
0,0,0,0,0,0,0,1,1,5,3,18
0,0,0,0,0,0,0,0,2,0,2,4
0,0,0,0,0,0,0,1,1,5,3,23
0,0,0,0,0,0,0,0,2,2,1,0
0,0,0,0,0,0,0,1,1,5,2,1
0,0,0,0,0,0,0,0,3,3,12,11
0,0,0,0,0,0,0,0,2,0,10,30
0,0,0,0,0,0,0,1,1,5,3,1
0,0,0,0,0,0,0,1,0,1,6,27
0,0,0,0,0,0,0,1,1,4,4,32
0,0,0,0,0,0,0,0,2,0,10,8
0,0,0,0,0,0,0,0,2,0,10,30
0,0,0,0,0,0,0,1,3,3,12,28
0,0,0,0,0,0,0,1,0,1,6,6
0,0,0,0,0,0,0,0,2,0,10,30
0,0,0,0,0,0,0,1,1,0,2,4
0,0,0,0,0,0,0,1,1,5,2,1
0,0,0,0,0,0,0,0,2,2,9,16
0,0,0,0,0,0,0,0,2,2,1,0
0,0,0,0,0,0,0,1,0,1,6,6
0,0,0,0,0,0,0,1,0,1,6,13
0,0,0,0,0,0,0,0,2,0,10,17
0,0,0,0,0,0,0,1,3,3,5,22
0,0,0,0,0,0,0,1,1,5,3,1
0,0,0,0,0,0,0,0,2,0,2,25
0,0,0,0,0,0,0,1,1,5,7,20
0,0,0,0,0,0,0,1,1,5,3,18
0,0,0,0,0,0,0,0,2,2,1,0
0,0,0,0,0,0,0,0,2,0,10,8
0,0,0,0,0,0,0,0,2,2,1,0
0,0,0,0,0,0,0,1,0,1,6,19
0,0,0,0,0,0,0,1,0,1,8,14
0,0,0,0,0,0,0,1,1,5,7,9
0,0,0,0,0,0,0,0,2,0,2,4
0,0,0,0,0,0,0,1,3,3,12,22
0,0,0,0,0,0,0,0,2,2,1,0
0,0,0,0,0,0,0,1,1,5,3,23
0,0,0,0,0,0,0,1,1,5,2,35
0,0,0,0,0,0,0,0,2,2,9,8
0,0,0,0,0,0,0,1,0,1,8,2
0,0,0,0,0,0,0,0,2,2,1,0
0,0,0,0,0,0,0,1,3,3,5,15
0,0,0,0,0,0,0,1,3,3,12,28
0,0,0,0,0,0,0,1,1,5,11,26
0,0,0,0,0,0,0,0,2,2,9,21
0,0,0,0,0,0,0,0,2,0,10,8
0,0,0,0,0,0,0,1,1,5,3,6
0,0,0,0,0,0,0,0,2,0,10,21
0,0,0,0,0,0,0,1,3,3,5,3
0,0,0,0,0,0,0,1,1,5,7,20
0,0,0,0,0,0,0,0,2,0,2,34
0,0,0,0,0,0,0,1,0,0,2,25
0,0,0,0,0,0,0,0,2,0,10,17
0,0,0,0,0,0,0,0,2,2,1,0
0,0,0,0,0,0,0,1,1,5,2,1
0,0,0,0,0,0,0,0,2,2,1,0
0,0,0,0,0,0,0,1,3,3,12,22
0,0,0,0,0,0,0,1,0,1,8,27
0,0,0,0,0,0,0,1,1,5,7,9
0,0,0,0,0,0,0,1,1,5,7,20
0,0,0,0,0,0,0,1,1,5,6,19
0,0,0,0,0,0,0,1,0,1,6,2
0,0,0,0,0,0,0,0,2,0,12,11
0,0,0,0,0,0,0,1,0,1,6,19
0,0,0,0,0,0,0,0,2,0,10,30
0,0,0,0,0,0,0,1,1,5,3,20
0,0,0,0,0,0,0,1,1,4,4,32
0,0,0,0,0,0,0,1,1,5,2,35
0,0,0,0,0,0,0,1,1,5,3,29
0,0,0,0,0,0,0,0,2,2,9,21
0,0,0,0,0,0,0,0,2,0,2,4
0,0,0,0,0,0,0,1,0,1,8,14
0,0,0,0,0,0,0,1,1,5,7,20
0,0,0,0,0,0,0,1,1,5,7,20
0,0,0,0,0,0,0,0,2,0,2,34
0,0,0,0,0,0,0,0,2,2,1,0
0,0,0,0,0,0,0,0,3,3,12,11
0,0,0,0,0,0,0,0,2,2,9,16
0,0,0,0,0,0,0,1,1,5,6,6
0,0,0,0,0,0,0,1,1,4,4,5
0,0,0,0,0,0,0,1,1,5,3,23
0,0,0,0,0,0,0,1,3,3,12,22
0,0,0,0,0,0,0,1,0,1,6,2
0,0,0,0,0,0,0,1,1,5,12,28
0,0,0,0,0,0,0,1,0,1,8,27
0,0,0,0,0,0,0,1,1,4,3,5
0,0,0,0,0,0,0,0,2,0,10,17
0,0,0,0,0,0,0,1,1,0,2,28
0,0,0,0,0,0,0,1,1,5,3,12
0,0,0,0,0,0,0,1,3,3,12,28
0,0,0,0,0,0,0,0,2,0,10,30
0,0,0,0,0,0,0,0,2,0,10,8
0,0,0,0,0,0,0,0,2,2,1,0
0,0,0,0,0,0,0,0,2,0,9,8
0,0,0,0,0,0,0,0,2,2,9,16
0,0,0,0,0,0,0,0,2,2,1,0
0,0,0,0,0,0,0,0,2,0,10,30
0,0,0,0,0,0,0,1,1,5,3,23
0,0,0,0,0,0,0,1,0,1,8,14
0,0,0,0,0,0,0,1,2,0,2,25
0,0,0,0,0,0,0,0,2,0,9,8
0,0,0,0,0,0,0,1,0,1,6,2
0,0,0,0,0,0,0,1,3,3,12,3
0,0,0,0,0,0,0,0,2,0,9,8
0,0,0,0,0,0,0,0,2,2,1,0
0,0,0,0,0,0,0,1,1,0,2,1
0,0,0,0,0,0,0,0,2,2,1,0
0,0,0,0,0,0,0,0,2,0,10,17
0,0,0,0,0,0,0,0,2,0,2,4
0,0,0,0,0,0,0,0,2,2,9,16
0,0,0,0,0,0,0,1,0,1,8,14
0,0,0,0,0,0,0,1,0,1,6,25
0,0,0,0,0,0,0,0,2,2,9,34
0,0,0,0,0,0,0,0,2,0,2,34
0,0,0,0,0,0,0,0,2,2,1,16
0,0,0,0,0,0,0,1,3,3,12,22
0,0,0,0,0,0,0,1,1,5,3,6
0,0,0,0,0,0,0,1,0,1,6,19
0,0,0,0,0,0,0,1,0,1,8,27
0,0,0,0,0,0,0,1,1,5,7,20
0,0,0,0,0,0,0,1,1,0,2,4
0,0,0,0,0,0,0,0,2,2,1,0
0,0,0,0,0,0,0,1,1,5,0,24
0,0,0,0,0,0,0,1,1,5,3,18
0,0,0,0,0,0,0,1,1,5,3,23
0,0,0,0,0,0,0,0,2,0,10,30
0,0,0,0,0,0,0,1,0,1,8,27
0,0,0,0,0,0,0,1,0,1,8,27
0,0,0,0,0,0,0,0,2,2,9,21
0,0,0,0,0,0,0,0,2,0,2,34
0,0,0,0,0,0,0,1,0,1,6,19
0,0,0,0,0,0,0,0,2,2,1,0
0,0,0,0,0,0,0,0,2,2,9,34
0,0,0,0,0,0,0,1,1,5,3,26
0,0,0,0,0,0,0,0,2,2,9,34
0,0,0,0,0,0,0,1,3,3,12,3
0,0,0,0,0,0,0,0,2,2,1,0
0,0,0,0,0,0,0,1,1,5,0,24
0,0,0,0,0,0,0,1,1,5,3,26
0,0,0,0,0,0,0,1,0,1,6,2
0,0,0,0,0,0,0,0,2,0,10,30
0,0,0,0,0,0,0,1,0,1,8,27
0,0,0,0,0,0,0,1,0,1,6,2
0,0,0,0,0,0,0,1,0,1,2,25
0,0,0,0,0,0,0,0,2,0,10,30
0,0,0,0,0,0,0,0,2,0,9,21
0,0,0,0,0,0,0,1,1,5,2,35
0,0,0,0,0,0,0,1,1,5,2,26
0,0,0,0,0,0,0,0,2,2,9,16
0,0,0,0,0,0,0,0,2,0,10,30
0,0,0,0,0,0,0,0,2,0,10,17
0,0,0,0,0,0,0,1,1,5,3,29
0,0,0,0,0,0,0,1,1,4,4,5
0,0,0,0,0,0,0,0,2,2,1,0
0,0,0,0,0,0,0,0,2,2,9,8
0,0,0,0,0,0,0,1,3,3,5,15
0,0,0,0,0,0,0,0,2,2,9,8
0,0,0,0,0,0,0,0,2,0,10,30
0,0,0,0,0,0,0,1,1,5,2,35
0,0,0,0,0,0,0,0,1,0,2,4
0,0,0,0,0,0,0,0,2,0,10,4
0,0,0,0,0,0,0,1,0,1,6,31
0,0,0,0,0,0,0,1,1,5,7,20
0,0,0,0,0,0,0,0,2,0,9,21
0,0,0,0,0,0,0,1,0,1,8,27
0,0,0,0,0,0,0,1,1,5,11,7
0,0,0,0,0,0,0,1,1,5,3,23
0,0,0,0,0,0,0,1,1,5,6,13
0,0,0,0,0,0,0,0,2,0,9,21
0,0,0,0,0,0,0,0,2,2,9,16
0,0,0,0,0,0,0,1,0,1,6,25
0,0,0,0,0,0,0,1,3,3,5,3
0,0,0,0,0,0,0,1,0,1,6,19
0,0,0,0,0,0,0,0,2,0,10,17
0,0,0,0,0,0,0,0,2,0,10,30
0,0,0,0,0,0,0,1,0,1,8,14
0,0,0,0,0,0,0,0,2,2,1,0
0,0,0,0,0,0,0,1,0,1,8,14
0,0,0,0,0,0,0,1,3,3,5,3
0,0,0,0,0,0,0,0,2,0,9,34
0,0,0,0,0,0,0,1,0,1,8,27
0,0,0,0,0,0,0,0,2,2,9,16
0,0,0,0,0,0,0,0,3,0,12,11
0,0,0,0,0,0,0,1,1,4,4,5
0,0,0,0,0,0,0,0,2,0,9,8
0,0,0,0,0,0,0,0,2,0,10,30
0,0,0,0,0,0,0,1,0,1,6,19
0,0,0,0,0,0,0,0,2,2,1,0
0,0,0,0,0,0,0,0,2,0,2,4
0,0,0,0,0,0,0,1,3,3,5,15
0,0,0,0,0,0,0,0,2,0,10,30
0,0,0,0,0,0,0,1,0,1,8,14
0,0,0,0,0,0,0,1,1,5,3,35
0,0,0,0,0,0,0,1,1,5,3,29
0,0,0,0,0,0,0,1,3,3,5,15
0,0,0,0,0,0,0,1,0,1,6,2
0,0,0,0,0,0,0,1,1,5,7,20
0,0,0,0,0,0,0,0,2,2,1,0
0,0,0,0,0,0,0,0,2,2,1,16
0,0,0,0,0,0,0,1,1,5,3,6
0,0,0,0,0,0,0,1,0,1,8,27
0,0,0,0,0,0,0,0,2,2,9,16
0,0,0,0,0,0,0,0,2,2,1,16
0,0,0,0,0,0,0,1,1,5,3,35
0,0,0,0,0,0,0,0,2,0,10,8
0,0,0,0,0,0,0,1,0,1,6,13
0,0,0,0,0,0,0,1,1,5,3,29
0,0,0,0,0,0,0,0,2,0,10,30
0,0,0,0,0,0,0,0,2,2,9,16
0,0,0,0,0,0,0,1,0,1,8,14
0,0,0,0,0,0,0,0,2,0,2,4
0,0,0,0,0,0,0,1,1,5,3,35
0,0,0,0,0,0,0,1,0,1,8,2
0,0,0,0,0,0,0,1,1,5,12,28
0,0,0,0,0,0,0,0,2,0,2,11
0,0,0,0,0,0,0,1,3,3,12,22
0,0,0,0,0,0,0,1,0,1,6,33
0,0,0,0,0,0,0,0,2,2,1,16
0,0,0,0,0,0,0,0,2,0,10,30
0,0,0,0,0,0,0,0,2,0,9,21
0,0,0,0,0,0,0,0,2,2,1,0
0,0,0,0,0,0,0,1,3,3,5,3
0,0,0,0,0,0,0,0,2,2,9,16
0,0,0,0,0,0,0,1,0,1,8,14
0,0,0,0,0,0,0,0,2,0,9,21
0,0,0,0,0,0,0,1,1,5,3,18
0,0,0,0,0,0,0,1,0,1,8,14
0,0,0,0,0,0,0,0,2,0,10,17
0,0,0,0,0,0,0,1,3,3,5,15
0,0,0,0,0,0,0,1,3,3,12,22
0,0,0,0,0,0,0,1,1,5,11,26
0,0,0,0,0,0,0,1,1,5,3,35
0,0,0,0,0,0,0,0,2,2,1,16
0,0,0,0,0,0,0,1,1,5,3,6
0,0,0,0,0,0,0,0,2,0,10,17
0,0,0,0,0,0,0,1,1,5,3,18
0,0,0,0,0,0,0,1,3,3,12,22
0,0,0,0,0,0,0,0,2,2,9,16
0,0,0,0,0,0,0,0,2,2,9,16
0,0,0,0,0,0,0,1,1,5,3,23
0,0,0,0,0,0,0,0,2,0,10,17
0,0,0,0,0,0,0,1,1,5,3,29
0,0,0,0,0,0,0,0,2,2,1,16
0,0,0,0,0,0,0,1,0,1,6,19
0,0,0,0,0,0,0,1,1,5,6,19
0,0,0,0,0,0,0,0,2,2,1,0
0,0,0,0,0,0,0,1,1,5,7,9
0,0,0,0,0,0,0,0,2,0,10,30
0,0,0,0,0,0,0,0,2,2,1,16
0,0,0,0,0,0,0,0,2,0,12,11
0,0,0,0,0,0,0,1,0,5,6,13
0,0,0,0,0,0,0,1,1,5,11,26
0,0,0,0,0,0,0,1,3,3,12,22
0,0,0,0,0,0,0,1,1,5,7,20
0,0,0,0,0,0,0,0,2,2,1,16
0,0,0,0,0,0,0,1,1,4,4,32
0,0,0,0,0,0,0,0,2,0,2,4
0,0,0,0,0,0,0,0,2,0,10,30
0,0,0,0,0,0,0,0,2,0,10,17
0,0,0,0,0,0,0,0,2,0,10,30
0,0,0,0,0,0,0,1,0,1,8,27
0,0,0,0,0,0,0,0,2,0,10,30
0,0,0,0,0,0,0,1,1,5,3,29
0,0,0,0,0,0,0,1,0,1,6,2
0,0,0,0,0,0,0,0,2,2,1,0
0,0,0,0,0,0,0,0,2,2,9,16
0,0,0,0,0,0,0,0,2,0,10,30
0,0,0,0,0,0,0,0,2,0,9,21
0,0,0,0,0,0,0,1,1,5,3,6
0,0,0,0,0,0,0,1,1,5,0,35
0,0,0,0,0,0,0,0,2,2,1,0
0,0,0,0,0,0,0,1,0,1,8,27
0,0,0,0,0,0,0,1,1,5,12,28
0,0,0,0,0,0,0,1,3,3,12,3
0,0,0,0,0,0,0,1,3,3,12,22
0,0,0,0,0,0,0,0,2,0,9,21
0,0,0,0,0,0,0,0,2,0,9,21
0,0,0,0,0,0,0,0,2,2,9,16
0,0,0,0,0,0,0,0,2,2,1,0
0,0,0,0,0,0,0,0,2,2,9,16
0,0,0,0,0,0,0,0,2,0,2,4
0,0,0,0,0,0,0,0,2,0,2,4
0,0,0,0,0,0,0,0,2,0,10,17
0,0,0,0,0,0,0,1,0,1,8,27
0,0,0,0,0,0,0,0,2,2,1,16
0,0,0,0,0,0,0,1,1,5,3,23
0,0,0,0,0,0,0,1,1,5,3,33
0,0,0,0,0,0,0,1,1,5,3,6
0,0,0,0,0,0,0,0,2,2,1,0
0,0,0,0,0,0,0,1,1,5,7,9
0,0,0,0,0,0,0,1,3,3,12,3
0,0,0,0,0,0,0,0,2,2,1,16
0,0,0,0,0,0,0,0,2,0,2,21
0,0,0,0,0,0,0,0,2,0,10,8
0,0,0,0,0,0,0,1,3,3,5,3
0,0,0,0,0,0,0,1,0,1,6,13
0,0,0,0,0,0,0,1,1,5,3,33
0,0,0,0,0,0,0,1,0,1,8,14
0,0,0,0,0,0,0,0,2,2,1,16
0,0,0,0,0,0,0,1,1,5,2,4
0,0,0,0,0,0,0,0,2,0,9,8
0,0,0,0,0,0,0,0,2,2,9,21
0,0,0,0,0,0,0,1,0,1,6,6
0,0,0,0,0,0,0,1,0,1,6,31
0,0,0,0,0,0,0,1,1,4,4,5
0,0,0,0,0,0,0,1,0,1,6,2
0,0,0,0,0,0,0,1,0,1,6,19
0,0,0,0,0,0,0,1,0,1,8,2
0,0,0,0,0,0,0,1,0,1,8,14
0,0,0,0,0,0,0,0,2,0,10,17
0,0,0,0,0,0,0,1,1,5,3,29
0,0,0,0,0,0,0,1,1,5,12,28
0,0,0,0,0,0,0,1,1,5,7,20
0,0,0,0,0,0,0,0,2,0,10,17
0,0,0,0,0,0,0,0,2,2,9,16
0,0,0,0,0,0,0,1,0,1,6,27
0,0,0,0,0,0,0,0,3,0,12,11
0,0,0,0,0,0,0,0,2,0,2,11
0,0,0,0,0,0,0,1,1,4,4,5
0,0,0,0,0,0,0,1,3,3,5,3
0,0,0,0,0,0,0,0,2,0,2,34
0,0,0,0,0,0,0,1,1,5,3,23
0,0,0,0,0,0,0,1,1,5,3,29
0,0,0,0,0,0,0,1,3,3,5,15
0,0,0,0,0,0,0,0,2,0,9,34
0,0,0,0,0,0,0,1,3,3,5,15
0,0,0,0,0,0,0,0,2,0,10,8
0,0,0,0,0,0,0,1,3,3,5,15
0,0,0,0,0,0,0,1,0,1,6,31
0,0,0,0,0,0,0,1,0,1,8,27
0,0,0,0,0,0,0,0,2,2,1,0
0,0,0,0,0,0,0,0,2,2,1,0
0,0,0,0,0,0,0,0,2,2,9,16
0,0,0,0,0,0,0,1,1,5,3,18
0,0,0,0,0,0,0,1,0,1,8,27
0,0,0,0,0,0,0,1,0,1,6,2
0,0,0,0,0,0,0,1,0,1,6,19
0,0,0,0,0,0,0,0,2,2,1,0
0,0,0,0,0,0,0,0,2,0,10,21
0,0,0,0,0,0,0,1,0,1,6,19
0,0,0,0,0,0,0,1,2,0,2,4
0,0,0,0,0,0,0,1,1,5,3,18
0,0,0,0,0,0,0,1,3,3,5,15
0,0,0,0,0,0,0,1,1,5,3,28
0,0,0,0,0,0,0,1,1,5,2,1
0,0,0,0,0,0,0,1,1,0,2,4
0,0,0,0,0,0,0,0,2,0,10,17
0,0,0,0,0,0,0,0,2,2,1,0
0,0,0,0,0,0,0,1,1,0,2,25
0,0,0,0,0,0,0,0,2,0,2,11
0,0,0,0,0,0,0,1,0,1,8,14
0,0,0,0,0,0,0,0,2,2,9,16
0,0,0,0,0,0,0,1,3,3,5,15
0,0,0,0,0,0,0,1,1,5,3,20
0,0,0,0,0,0,0,1,0,1,8,14
0,0,0,0,0,0,0,1,1,0,2,4
0,0,0,0,0,0,0,0,2,0,10,8
0,0,0,0,0,0,0,0,2,2,9,21
0,0,0,0,0,0,0,1,1,5,2,25
0,0,0,0,0,0,0,1,1,4,4,5
0,0,0,0,0,0,0,0,2,2,1,16
0,0,0,0,0,0,0,1,1,5,2,4
0,0,0,0,0,0,0,0,2,0,10,17
0,0,0,0,0,0,0,1,1,5,2,28
0,0,0,0,0,0,0,1,1,5,6,19
0,0,0,0,0,0,0,1,1,5,0,10
0,0,0,0,0,0,0,0,2,2,9,16
0,0,0,0,0,0,0,1,0,1,6,31
0,0,0,0,0,0,0,0,2,2,1,16
0,0,0,0,0,0,0,1,3,3,12,22
0,0,0,0,0,0,0,1,1,4,4,32
0,0,0,0,0,0,0,1,1,5,11,7
0,0,0,0,0,0,0,1,1,5,3,28
0,0,0,0,0,0,0,0,2,2,9,16
0,0,0,0,0,0,0,0,2,0,9,21
0,0,0,0,0,0,0,1,0,1,6,13
0,0,0,0,0,0,0,1,0,5,6,19
0,0,0,0,0,0,0,1,3,3,5,15
0,0,0,0,0,0,0,0,2,2,1,0
0,0,0,0,0,0,0,1,1,5,11,26
0,0,0,0,0,0,0,1,0,1,8,14
0,0,0,0,0,0,0,0,2,0,10,17
0,0,0,0,0,0,0,0,2,0,9,34
0,0,0,0,0,0,0,1,0,1,6,2
0,0,0,0,0,0,0,0,2,0,2,4
0,0,0,0,0,0,0,0,2,0,9,21
0,0,0,0,0,0,0,0,2,2,1,0
0,0,0,0,0,0,0,1,1,4,3,5
0,0,0,0,0,0,0,1,0,1,6,19
0,0,0,0,0,0,0,1,0,1,6,27
0,0,0,0,0,0,0,1,1,5,7,9
0,0,0,0,0,0,0,0,2,0,10,30
0,0,0,0,0,0,0,1,1,0,2,4
0,0,0,0,0,0,0,1,1,5,2,35
0,0,0,0,0,0,0,1,1,5,3,29
0,0,0,0,0,0,0,1,0,1,8,27
0,0,0,0,0,0,0,0,2,0,10,30
0,0,0,0,0,0,0,1,1,5,2,1
0,0,0,0,0,0,0,1,0,1,6,31
0,0,0,0,0,0,0,1,1,5,3,18
0,0,0,0,0,0,0,0,2,0,10,17
0,0,0,0,0,0,0,1,1,5,3,6
0,0,0,0,0,0,0,1,0,1,8,27
0,0,0,0,0,0,0,1,0,1,6,13
0,0,0,0,0,0,0,0,2,0,9,21
0,0,0,0,0,0,0,1,1,5,7,20
0,0,0,0,0,0,0,1,0,1,6,31
0,0,0,0,0,0,0,1,0,1,6,2
0,0,0,0,0,0,0,1,1,5,2,1
0,0,0,0,0,0,0,0,2,0,2,34
0,0,0,0,0,0,0,1,3,3,12,3
0,0,0,0,0,0,0,1,0,1,6,31
0,0,0,0,0,0,0,1,0,1,6,2
0,0,0,0,0,0,0,0,2,2,1,0
0,0,0,0,0,0,0,1,0,1,6,2
0,0,0,0,0,0,0,0,2,0,10,17
0,0,0,0,0,0,0,0,2,0,10,17
0,0,0,0,0,0,0,1,0,1,8,27
0,0,0,0,0,0,0,1,1,4,4,32
0,0,0,0,0,0,0,0,2,0,10,17
0,0,0,0,0,0,0,1,1,4,4,32
0,0,0,0,0,0,0,1,3,3,12,3
0,0,0,0,0,0,0,0,2,0,2,4
