tau,n_clusters,n_int_boxes,lower_bound,high_bound,bound_diff
1.0,1,0,1.0,1.0,0.0
0.9,1,0,1.0,1.0,0.0
0.8,1,0,1.0,1.0,0.0
0.7,1,0,1.0,1.0,0.0
0.6,1,0,1.0,1.0,0.0
0.5,1,0,1.0,1.0,0.0
0.4,1,0,1.0,1.0,0.0
0.3,1,0,1.0,1.0,0.0
0.2,1,0,1.0,1.0,0.0
0.1,3,3,7.238466764384948e-05,7.238466781002492e-05,1.6617543457339897e-13
0.05,7,15,4.207115544475975e-10,4.209334536427976e-10,2.2189919520011565e-13
0.01,25,94,2.424111862090515e-18,2.4241650615145617e-18,5.319942404680504e-23
