tau,n_clusters,n_int_boxes,lower_bound,high_bound,bound_diff
1.0,1,0,1.0,1.0,0.0
0.9,1,0,1.0,1.0,0.0
0.8,1,0,1.0,1.0,0.0
0.7,1,0,1.0,1.0,0.0
0.6,1,0,1.0,1.0,0.0
0.5,1,0,1.0,1.0,0.0
0.4,2,1,0.003898471687904489,0.003898471687904495,5.712852267062928e-18
0.3,2,1,0.003898471687904489,0.003898471687904495,5.712852267062928e-18
0.2,2,1,0.003898471687904489,0.003898471687904495,5.712852267062928e-18
0.1,3,2,0.00017350369179031317,0.0001735036917917077,1.3945410488132303e-15
0.05,6,5,1.4760836522091328e-06,1.4760836522223238e-06,1.319106369514458e-17
0.01,16,8,2.8495401218737132e-15,2.8495401241734064e-15,2.299693160950546e-24
