tau,n_clusters,n_int_boxes,lower_bound,high_bound,bound_diff
1.0,1,0,1.0,1.0,0.0
0.9,1,0,1.0,1.0,0.0
0.8,1,0,1.0,1.0,0.0
0.7,1,0,1.0,1.0,0.0
0.6,1,0,1.0,1.0,0.0
0.5,1,0,1.0,1.0,0.0
0.4,1,0,1.0,1.0,0.0
0.3,1,0,1.0,1.0,0.0
0.2,2,1,2.7011211373677516e-09,2.701121137369079e-09,1.3272729117322519e-21
0.1,2,1,2.7011211373677516e-09,2.701121137369079e-09,1.3272729117322519e-21
0.05,6,15,1.825811318815035e-16,1.825811318815035e-16,1.333735276653169e-39
0.01,20,166,1.6858755975920924e-35,1.6858755977160597e-35,1.2396746763409668e-45
