1.0,0.9,0.8,0.7,0.6,0.5,0.4,0.3,0.2,0.1,0.05,0.01
0,0,0,0,0,0,0,0,0,0,1,20
0,0,0,0,0,0,0,0,0,1,2,22
0,0,0,0,0,0,0,0,0,1,2,18
0,0,0,0,0,0,0,0,0,0,1,8
0,0,0,0,0,0,0,0,0,1,2,1
0,0,0,0,0,0,0,0,0,0,1,13
0,0,0,0,0,0,0,0,0,0,4,17
0,0,0,0,0,0,0,0,0,1,2,3
0,0,0,0,0,0,0,0,0,0,1,10
0,0,0,0,0,0,0,0,0,0,2,2
0,0,0,0,0,0,0,0,0,0,4,5
0,0,0,0,0,0,0,0,0,0,1,8
0,0,0,0,0,0,0,0,0,0,2,22
0,0,0,0,0,0,0,0,0,0,1,22
0,0,0,0,0,0,0,0,0,1,3,18
0,0,0,0,0,0,0,0,0,1,2,16
0,0,0,0,0,0,0,0,0,1,0,1
0,0,0,0,0,0,0,0,0,0,1,22
0,0,0,0,0,0,0,0,0,0,1,22
0,0,0,0,0,0,0,0,0,0,0,20
0,0,0,0,0,0,0,0,0,0,1,10
0,0,0,0,0,0,0,0,0,0,4,13
0,0,0,0,0,0,0,0,0,0,1,10
0,0,0,0,0,0,0,0,0,0,1,8
0,0,0,0,0,0,0,0,0,0,2,7
0,0,0,0,0,0,0,0,0,0,1,10
0,0,0,0,0,0,0,0,0,0,1,9
0,0,0,0,0,0,0,0,0,0,1,9
0,0,0,0,0,0,0,0,0,0,4,17
0,0,0,0,0,0,0,0,0,1,3,1
0,0,0,0,0,0,0,0,0,0,1,20
0,0,0,0,0,0,0,0,0,1,0,1
0,0,0,0,0,0,0,0,0,1,2,1
0,0,0,0,0,0,0,0,0,1,2,9
0,0,0,0,0,0,0,0,0,1,2,16
0,0,0,0,0,0,0,0,0,0,1,21
0,0,0,0,0,0,0,0,0,0,2,8
0,0,0,0,0,0,0,0,0,1,2,3
0,0,0,0,0,0,0,0,0,0,1,8
0,0,0,0,0,0,0,0,0,1,2,1
0,0,0,0,0,0,0,0,0,1,3,11
0,0,0,0,0,0,0,0,0,1,3,16
0,0,0,0,0,0,0,0,0,0,1,13
0,0,0,0,0,0,0,0,0,1,3,18
0,0,0,0,0,0,0,0,0,1,2,1
0,0,0,0,0,0,0,0,0,0,2,2
0,0,0,0,0,0,0,0,0,1,2,22
0,0,0,0,0,0,0,0,0,1,3,3
0,0,0,0,0,0,0,0,0,0,1,13
0,0,0,0,0,0,0,0,0,1,0,4
0,0,0,0,0,0,0,0,0,1,2,1
0,0,0,0,0,0,0,0,0,1,3,16
0,0,0,0,0,0,0,0,0,1,2,7
0,0,0,0,0,0,0,0,0,0,1,10
0,0,0,0,0,0,0,0,0,0,2,9
0,0,0,0,0,0,0,0,0,0,0,20
0,0,0,0,0,0,0,0,0,1,2,1
0,0,0,0,0,0,0,0,0,0,2,22
0,0,0,0,0,0,0,0,0,0,1,10
0,0,0,0,0,0,0,0,0,1,3,18
0,0,0,0,0,0,0,0,0,1,2,1
0,0,0,0,0,0,0,0,0,0,1,9
0,0,0,0,0,0,0,0,0,0,2,9
0,0,0,0,0,0,0,0,0,1,2,7
0,0,0,0,0,0,0,0,0,1,2,1
0,0,0,0,0,0,0,0,0,1,3,11
0,0,0,0,0,0,0,0,0,1,3,1
0,0,0,0,0,0,0,0,0,1,2,7
0,0,0,0,0,0,0,0,0,1,2,3
0,0,0,0,0,0,0,0,0,0,1,13
0,0,0,0,0,0,0,0,0,0,1,20
0,0,0,0,0,0,0,0,0,0,1,0
0,0,0,0,0,0,0,0,0,0,4,6
0,0,0,0,0,0,0,0,0,0,1,22
0,0,0,0,0,0,0,0,0,1,0,20
0,0,0,0,0,0,0,0,0,0,1,13
0,0,0,0,0,0,0,0,0,0,1,9
0,0,0,0,0,0,0,0,0,0,1,20
0,0,0,0,0,0,0,0,0,0,1,10
0,0,0,0,0,0,0,0,0,1,2,3
0,0,0,0,0,0,0,0,0,1,2,7
0,0,0,0,0,0,0,0,0,0,4,13
0,0,0,0,0,0,0,0,0,1,3,18
0,0,0,0,0,0,0,0,0,0,4,17
0,0,0,0,0,0,0,0,0,0,2,2
0,0,0,0,0,0,0,0,0,0,1,8
0,0,0,0,0,0,0,0,0,1,3,15
0,0,0,0,0,0,0,0,0,0,1,13
0,0,0,0,0,0,0,0,0,0,1,8
0,0,0,0,0,0,0,0,0,0,1,8
0,0,0,0,0,0,0,0,0,1,3,1
0,0,0,0,0,0,0,0,0,0,1,22
0,0,0,0,0,0,0,0,0,0,1,22
0,0,0,0,0,0,0,0,0,0,1,10
0,0,0,0,0,0,0,0,0,0,2,8
0,0,0,0,0,0,0,0,0,1,2,1
0,0,0,0,0,0,0,0,0,1,2,7
0,0,0,0,0,0,0,0,0,0,1,9
0,0,0,0,0,0,0,0,0,0,1,8
0,0,0,0,0,0,0,0,0,0,4,16
0,0,0,0,0,0,0,0,0,0,1,0
0,0,0,0,0,0,0,0,0,0,1,2
0,0,0,0,0,0,0,0,0,1,2,18
0,0,0,0,0,0,0,0,0,0,1,9
0,0,0,0,0,0,0,0,0,0,1,20
0,0,0,0,0,0,0,0,0,0,1,8
0,0,0,0,0,0,0,0,0,0,0,9
0,0,0,0,0,0,0,0,0,1,2,7
0,0,0,0,0,0,0,0,0,1,2,7
0,0,0,0,0,0,0,0,0,1,2,22
0,0,0,0,0,0,0,0,0,0,2,22
0,0,0,0,0,0,0,0,0,1,2,7
0,0,0,0,0,0,0,0,0,1,2,1
0,0,0,0,0,0,0,0,0,0,2,9
0,0,0,0,0,0,0,0,0,0,4,9
0,0,0,0,0,0,0,0,0,0,2,21
0,0,0,0,0,0,0,0,0,1,2,1
0,0,0,0,0,0,0,0,0,0,1,13
0,0,0,0,0,0,0,0,0,0,1,8
0,0,0,0,0,0,0,0,0,1,3,15
0,0,0,0,0,0,0,0,0,1,2,7
0,0,0,0,0,0,0,0,0,1,3,11
0,0,0,0,0,0,0,0,0,0,1,8
0,0,0,0,0,0,0,0,0,1,0,16
0,0,0,0,0,0,0,0,0,0,1,8
0,0,0,0,0,0,0,0,0,0,1,2
0,0,0,0,0,0,0,0,0,1,3,3
0,0,0,0,0,0,0,0,0,0,2,20
0,0,0,0,0,0,0,0,0,0,1,8
0,0,0,0,0,0,0,0,0,1,2,7
0,0,0,0,0,0,0,0,0,1,0,1
0,0,0,0,0,0,0,0,0,1,2,3
0,0,0,0,0,0,0,0,0,1,2,1
0,0,0,0,0,0,0,0,0,0,4,6
0,0,0,0,0,0,0,0,0,1,3,11
0,0,0,0,0,0,0,0,0,1,2,7
0,0,0,0,0,0,0,0,0,1,2,1
0,0,0,0,0,0,0,0,0,1,2,1
0,0,0,0,0,0,0,0,0,1,0,4
0,0,0,0,0,0,0,0,0,0,4,9
0,0,0,0,0,0,0,0,0,0,4,8
0,0,0,0,0,0,0,0,0,1,2,1
0,0,0,0,0,0,0,0,0,0,1,22
0,0,0,0,0,0,0,0,0,0,4,5
0,0,0,0,0,0,0,0,0,1,2,1
0,0,0,0,0,0,0,0,0,0,1,13
0,0,0,0,0,0,0,0,0,1,2,7
0,0,0,0,0,0,0,0,0,1,2,3
0,0,0,0,0,0,0,0,0,0,1,20
0,0,0,0,0,0,0,0,0,0,1,22
0,0,0,0,0,0,0,0,0,1,0,4
0,0,0,0,0,0,0,0,0,0,2,16
0,0,0,0,0,0,0,0,0,1,0,1
0,0,0,0,0,0,0,0,0,0,1,9
0,0,0,0,0,0,0,0,0,0,1,8
0,0,0,0,0,0,0,0,0,0,1,10
0,0,0,0,0,0,0,0,0,1,0,4
0,0,0,0,0,0,0,0,0,1,3,18
0,0,0,0,0,0,0,0,0,0,1,13
0,0,0,0,0,0,0,0,0,0,1,10
0,0,0,0,0,0,0,0,0,1,2,21
0,0,0,0,0,0,0,0,0,1,3,11
0,0,0,0,0,0,0,0,0,0,4,9
0,0,0,0,0,0,0,0,0,0,1,22
0,0,0,0,0,0,0,0,0,1,3,15
0,0,0,0,0,0,0,0,0,1,2,7
0,0,0,0,0,0,0,0,0,0,1,10
0,0,0,0,0,0,0,0,0,0,1,10
0,0,0,0,0,0,0,0,0,0,4,13
0,0,0,0,0,0,0,0,0,0,1,2
0,0,0,0,0,0,0,0,0,1,0,20
0,0,0,0,0,0,0,0,0,0,2,7
0,0,0,0,0,0,0,0,0,0,4,17
0,0,0,0,0,0,0,0,0,0,4,6
0,0,0,0,0,0,0,0,0,0,1,13
0,0,0,0,0,0,0,0,0,1,2,22
0,0,0,0,0,0,0,0,0,1,2,22
0,0,0,0,0,0,0,0,0,0,1,9
0,0,0,0,0,0,0,0,0,1,2,7
0,0,0,0,0,0,0,0,0,0,2,9
0,0,0,0,0,0,0,0,0,0,1,13
0,0,0,0,0,0,0,0,0,0,1,22
0,0,0,0,0,0,0,0,0,1,0,2
0,0,0,0,0,0,0,0,0,1,0,19
0,0,0,0,0,0,0,0,0,1,2,21
0,0,0,0,0,0,0,0,0,0,4,9
0,0,0,0,0,0,0,0,0,1,0,4
0,0,0,0,0,0,0,0,0,0,4,5
0,0,0,0,0,0,0,0,0,1,0,12
0,0,0,0,0,0,0,0,0,1,2,7
0,0,0,0,0,0,0,0,0,1,3,1
0,0,0,0,0,0,0,0,0,0,1,10
0,0,0,0,0,0,0,0,0,1,0,4
0,0,0,0,0,0,0,0,0,0,1,22
0,0,0,0,0,0,0,0,0,0,1,9
0,0,0,0,0,0,0,0,0,1,3,18
0,0,0,0,0,0,0,0,0,0,1,13
0,0,0,0,0,0,0,0,0,0,1,22
0,0,0,0,0,0,0,0,0,0,1,8
0,0,0,0,0,0,0,0,0,0,1,9
0,0,0,0,0,0,0,0,0,0,0,9
0,0,0,0,0,0,0,0,0,0,1,8
0,0,0,0,0,0,0,0,0,0,2,22
0,0,0,0,0,0,0,0,0,0,4,2
0,0,0,0,0,0,0,0,0,1,0,4
0,0,0,0,0,0,0,0,0,0,1,8
0,0,0,0,0,0,0,0,0,0,1,6
0,0,0,0,0,0,0,0,0,0,2,9
0,0,0,0,0,0,0,0,0,1,2,1
0,0,0,0,0,0,0,0,0,1,0,9
0,0,0,0,0,0,0,0,0,1,0,20
0,0,0,0,0,0,0,0,0,1,3,18
0,0,0,0,0,0,0,0,0,0,1,13
0,0,0,0,0,0,0,0,0,0,1,8
0,0,0,0,0,0,0,0,0,0,1,20
0,0,0,0,0,0,0,0,0,1,2,3
0,0,0,0,0,0,0,0,0,0,2,7
0,0,0,0,0,0,0,0,0,0,1,8
0,0,0,0,0,0,0,0,0,1,3,18
0,0,0,0,0,0,0,0,0,0,1,10
0,0,0,0,0,0,0,0,0,1,3,18
0,0,0,0,0,0,0,0,0,1,3,18
0,0,0,0,0,0,0,0,0,1,2,3
0,0,0,0,0,0,0,0,0,0,1,8
0,0,0,0,0,0,0,0,0,1,3,15
0,0,0,0,0,0,0,0,0,0,2,7
0,0,0,0,0,0,0,0,0,1,2,7
0,0,0,0,0,0,0,0,0,0,1,10
0,0,0,0,0,0,0,0,0,1,3,3
0,0,0,0,0,0,0,0,0,1,4,17
0,0,0,0,0,0,0,0,0,0,1,8
0,0,0,0,0,0,0,0,0,1,0,1
0,0,0,0,0,0,0,0,0,1,2,2
0,0,0,0,0,0,0,0,0,0,1,8
0,0,0,0,0,0,0,0,0,0,1,13
0,0,0,0,0,0,0,0,0,0,1,20
0,0,0,0,0,0,0,0,0,0,1,20
0,0,0,0,0,0,0,0,0,1,0,20
0,0,0,0,0,0,0,0,0,1,3,21
0,0,0,0,0,0,0,0,0,0,1,10
0,0,0,0,0,0,0,0,0,1,3,18
0,0,0,0,0,0,0,0,0,0,1,10
0,0,0,0,0,0,0,0,0,0,1,0
0,0,0,0,0,0,0,0,0,0,1,8
0,0,0,0,0,0,0,0,0,0,2,8
0,0,0,0,0,0,0,0,0,0,2,2
0,0,0,0,0,0,0,0,0,0,1,20
0,0,0,0,0,0,0,0,0,0,4,6
0,0,0,0,0,0,0,0,0,1,3,11
0,0,0,0,0,0,0,0,0,0,4,9
0,0,0,0,0,0,0,0,0,0,1,10
0,0,0,0,0,0,0,0,0,0,4,6
0,0,0,0,0,0,0,0,0,1,3,3
0,0,0,0,0,0,0,0,0,0,1,8
0,0,0,0,0,0,0,0,0,0,1,9
0,0,0,0,0,0,0,0,0,1,2,7
0,0,0,0,0,0,0,0,0,1,2,1
0,0,0,0,0,0,0,0,0,0,1,8
0,0,0,0,0,0,0,0,0,0,2,7
0,0,0,0,0,0,0,0,0,0,2,22
0,0,0,0,0,0,0,0,0,1,3,3
0,0,0,0,0,0,0,0,0,0,1,10
0,0,0,0,0,0,0,0,0,0,1,13
0,0,0,0,0,0,0,0,0,1,3,3
0,0,0,0,0,0,0,0,0,1,2,7
0,0,0,0,0,0,0,0,0,1,3,3
0,0,0,0,0,0,0,0,0,0,1,9
0,0,0,0,0,0,0,0,0,0,4,9
0,0,0,0,0,0,0,0,0,0,2,22
0,0,0,0,0,0,0,0,0,1,0,1
0,0,0,0,0,0,0,0,0,1,3,18
0,0,0,0,0,0,0,0,0,1,0,12
0,0,0,0,0,0,0,0,0,0,1,8
0,0,0,0,0,0,0,0,0,0,1,10
0,0,0,0,0,0,0,0,0,0,1,10
0,0,0,0,0,0,0,0,0,0,1,13
0,0,0,0,0,0,0,0,0,0,2,22
0,0,0,0,0,0,0,0,0,1,3,11
0,0,0,0,0,0,0,0,0,0,1,9
0,0,0,0,0,0,0,0,0,0,4,5
0,0,0,0,0,0,0,0,0,0,0,4
0,0,0,0,0,0,0,0,0,0,1,13
0,0,0,0,0,0,0,0,0,1,2,21
0,0,0,0,0,0,0,0,0,1,2,22
0,0,0,0,0,0,0,0,0,0,1,8
0,0,0,0,0,0,0,0,0,0,2,9
0,0,0,0,0,0,0,0,0,0,4,9
0,0,0,0,0,0,0,0,0,0,1,9
0,0,0,0,0,0,0,0,0,0,2,21
0,0,0,0,0,0,0,0,0,0,1,10
0,0,0,0,0,0,0,0,0,0,1,20
0,0,0,0,0,0,0,0,0,0,1,8
0,0,0,0,0,0,0,0,0,1,3,18
0,0,0,0,0,0,0,0,0,1,2,1
0,0,0,0,0,0,0,0,0,1,0,4
0,0,0,0,0,0,0,0,0,0,1,9
0,0,0,0,0,0,0,0,0,0,1,8
0,0,0,0,0,0,0,0,0,0,4,6
0,0,0,0,0,0,0,0,0,1,2,1
0,0,0,0,0,0,0,0,0,0,1,8
0,0,0,0,0,0,0,0,0,0,4,6
0,0,0,0,0,0,0,0,0,1,3,18
0,0,0,0,0,0,0,0,0,0,1,10
0,0,0,0,0,0,0,0,0,1,3,11
0,0,0,0,0,0,0,0,0,0,1,20
0,0,0,0,0,0,0,0,0,1,2,7
0,0,0,0,0,0,0,0,0,0,1,9
0,0,0,0,0,0,0,0,0,1,3,18
0,0,0,0,0,0,0,0,0,0,1,8
0,0,0,0,0,0,0,0,0,1,2,7
0,0,0,0,0,0,0,0,0,1,3,3
0,0,0,0,0,0,0,0,0,1,3,3
0,0,0,0,0,0,0,0,0,0,2,16
0,0,0,0,0,0,0,0,0,0,1,13
0,0,0,0,0,0,0,0,0,1,2,22
0,0,0,0,0,0,0,0,0,1,2,21
0,0,0,0,0,0,0,0,0,1,0,4
0,0,0,0,0,0,0,0,0,0,2,20
0,0,0,0,0,0,0,0,0,1,3,1
0,0,0,0,0,0,0,0,0,1,3,15
0,0,0,0,0,0,0,0,0,1,2,7
0,0,0,0,0,0,0,0,0,1,0,12
0,0,0,0,0,0,0,0,0,0,2,9
0,0,0,0,0,0,0,0,0,1,2,16
0,0,0,0,0,0,0,0,0,0,2,20
0,0,0,0,0,0,0,0,0,0,4,17
0,0,0,0,0,0,0,0,0,1,3,18
0,0,0,0,0,0,0,0,0,1,2,3
0,0,0,0,0,0,0,0,0,1,3,11
0,0,0,0,0,0,0,0,0,0,1,8
0,0,0,0,0,0,0,0,0,0,1,10
0,0,0,0,0,0,0,0,0,1,2,16
0,0,0,0,0,0,0,0,0,0,1,10
0,0,0,0,0,0,0,0,0,1,0,4
0,0,0,0,0,0,0,0,0,1,2,22
0,0,0,0,0,0,0,0,0,1,3,18
0,0,0,0,0,0,0,0,0,0,4,17
0,0,0,0,0,0,0,0,0,0,1,20
0,0,0,0,0,0,0,0,0,1,2,3
0,0,0,0,0,0,0,0,0,0,2,9
0,0,0,0,0,0,0,0,0,0,1,20
0,0,0,0,0,0,0,0,0,0,4,9
0,0,0,0,0,0,0,0,0,0,0,9
0,0,0,0,0,0,0,0,0,1,2,7
0,0,0,0,0,0,0,0,0,0,0,4
0,0,0,0,0,0,0,0,0,0,2,22
0,0,0,0,0,0,0,0,0,1,2,22
0,0,0,0,0,0,0,0,0,0,1,8
0,0,0,0,0,0,0,0,0,0,2,8
0,0,0,0,0,0,0,0,0,1,3,18
0,0,0,0,0,0,0,0,0,1,2,7
0,0,0,0,0,0,0,0,0,1,2,9
0,0,0,0,0,0,0,0,0,0,1,13
0,0,0,0,0,0,0,0,0,0,2,7
0,0,0,0,0,0,0,0,0,1,3,18
0,0,0,0,0,0,0,0,0,1,0,2
0,0,0,0,0,0,0,0,0,1,0,16
0,0,0,0,0,0,0,0,0,0,1,8
0,0,0,0,0,0,0,0,0,0,1,10
0,0,0,0,0,0,0,0,0,0,1,10
0,0,0,0,0,0,0,0,0,1,3,11
0,0,0,0,0,0,0,0,0,1,2,1
0,0,0,0,0,0,0,0,0,0,1,10
0,0,0,0,0,0,0,0,0,1,0,4
0,0,0,0,0,0,0,0,0,0,0,12
0,0,0,0,0,0,0,0,0,1,0,4
0,0,0,0,0,0,0,0,0,1,3,18
0,0,0,0,0,0,0,0,0,1,3,18
0,0,0,0,0,0,0,0,0,1,2,7
0,0,0,0,0,0,0,0,0,0,4,9
0,0,0,0,0,0,0,0,0,0,0,9
0,0,0,0,0,0,0,0,0,1,3,3
0,0,0,0,0,0,0,0,0,0,1,10
0,0,0,0,0,0,0,0,0,1,3,16
0,0,0,0,0,0,0,0,0,0,4,9
0,0,0,0,0,0,0,0,0,1,2,3
0,0,0,0,0,0,0,0,0,1,3,18
0,0,0,0,0,0,0,0,0,0,1,20
0,0,0,0,0,0,0,0,0,0,1,13
0,0,0,0,0,0,0,0,0,0,1,13
0,0,0,0,0,0,0,0,0,0,4,6
0,0,0,0,0,0,0,0,0,0,1,10
0,0,0,0,0,0,0,0,0,0,2,22
0,0,0,0,0,0,0,0,0,0,4,6
0,0,0,0,0,0,0,0,0,0,1,8
0,0,0,0,0,0,0,0,0,0,4,5
0,0,0,0,0,0,0,0,0,1,2,7
0,0,0,0,0,0,0,0,0,1,2,21
0,0,0,0,0,0,0,0,0,1,0,4
0,0,0,0,0,0,0,0,0,0,1,22
0,0,0,0,0,0,0,0,0,1,3,18
0,0,0,0,0,0,0,0,0,1,0,2
0,0,0,0,0,0,0,0,0,1,2,22
0,0,0,0,0,0,0,0,0,0,1,8
0,0,0,0,0,0,0,0,0,1,3,11
0,0,0,0,0,0,0,0,0,0,1,10
0,0,0,0,0,0,0,0,0,0,1,10
0,0,0,0,0,0,0,0,0,0,0,6
0,0,0,0,0,0,0,0,0,0,1,0
0,0,0,0,0,0,0,0,0,0,1,16
0,0,0,0,0,0,0,0,0,0,1,13
0,0,0,0,0,0,0,0,0,0,2,9
0,0,0,0,0,0,0,0,0,0,2,7
0,0,0,0,0,0,0,0,0,0,1,10
0,0,0,0,0,0,0,0,0,0,1,10
0,0,0,0,0,0,0,0,0,1,2,7
0,0,0,0,0,0,0,0,0,1,2,7
0,0,0,0,0,0,0,0,0,0,4,9
0,0,0,0,0,0,0,0,0,1,2,7
0,0,0,0,0,0,0,0,0,1,3,18
0,0,0,0,0,0,0,0,0,1,0,4
0,0,0,0,0,0,0,0,0,1,2,7
0,0,0,0,0,0,0,0,0,1,2,9
0,0,0,0,0,0,0,0,0,1,0,1
0,0,0,0,0,0,0,0,0,0,1,10
0,0,0,0,0,0,0,0,0,0,2,9
0,0,0,0,0,0,0,0,0,1,2,7
0,0,0,0,0,0,0,0,0,1,2,7
0,0,0,0,0,0,0,0,0,0,0,20
0,0,0,0,0,0,0,0,0,0,1,10
0,0,0,0,0,0,0,0,0,0,4,6
0,0,0,0,0,0,0,0,0,0,1,2
0,0,0,0,0,0,0,0,0,1,2,7
0,0,0,0,0,0,0,0,0,0,2,9
0,0,0,0,0,0,0,0,0,0,1,13
0,0,0,0,0,0,0,0,0,0,2,7
0,0,0,0,0,0,0,0,0,1,2,7
0,0,0,0,0,0,0,0,0,0,1,13
0,0,0,0,0,0,0,0,0,0,1,9
0,0,0,0,0,0,0,0,0,1,0,4
0,0,0,0,0,0,0,0,0,0,2,22
0,0,0,0,0,0,0,0,0,0,2,2
0,0,0,0,0,0,0,0,0,1,2,1
0,0,0,0,0,0,0,0,0,1,3,18
0,0,0,0,0,0,0,0,0,0,1,21
0,0,0,0,0,0,0,0,0,1,2,7
0,0,0,0,0,0,0,0,0,0,1,10
0,0,0,0,0,0,0,0,0,0,0,20
0,0,0,0,0,0,0,0,0,1,3,3
0,0,0,0,0,0,0,0,0,1,2,22
0,0,0,0,0,0,0,0,0,0,2,7
0,0,0,0,0,0,0,0,0,0,4,5
0,0,0,0,0,0,0,0,0,0,1,9
0,0,0,0,0,0,0,0,0,0,4,6
0,0,0,0,0,0,0,0,0,1,2,18
0,0,0,0,0,0,0,0,0,0,2,7
0,0,0,0,0,0,0,0,0,1,2,7
0,0,0,0,0,0,0,0,0,1,0,19
0,0,0,0,0,0,0,0,0,0,2,20
0,0,0,0,0,0,0,0,0,1,3,18
0,0,0,0,0,0,0,0,0,0,1,10
0,0,0,0,0,0,0,0,0,0,1,10
0,0,0,0,0,0,0,0,0,0,1,8
0,0,0,0,0,0,0,0,0,0,1,9
0,0,0,0,0,0,0,0,0,0,4,17
0,0,0,0,0,0,0,0,0,1,2,1
0,0,0,0,0,0,0,0,0,0,0,20
0,0,0,0,0,0,0,0,0,0,1,22
0,0,0,0,0,0,0,0,0,1,4,2
0,0,0,0,0,0,0,0,0,1,0,20
0,0,0,0,0,0,0,0,0,1,2,3
0,0,0,0,0,0,0,0,0,0,2,9
0,0,0,0,0,0,0,0,0,0,1,20
0,0,0,0,0,0,0,0,0,0,1,10
0,0,0,0,0,0,0,0,0,0,1,13
0,0,0,0,0,0,0,0,0,1,2,7
0,0,0,0,0,0,0,0,0,1,3,11
0,0,0,0,0,0,0,0,0,0,1,20
0,0,0,0,0,0,0,0,0,0,2,9
0,0,0,0,0,0,0,0,0,1,2,3
0,0,0,0,0,0,0,0,0,1,2,7
0,0,0,0,0,0,0,0,0,0,1,10
0,0,0,0,0,0,0,0,0,0,0,20
0,0,0,0,0,0,0,0,0,1,0,4
0,0,0,0,0,0,0,0,0,0,1,13
0,0,0,0,0,0,0,0,0,1,2,3
0,0,0,0,0,0,0,0,0,1,2,18
0,0,0,0,0,0,0,0,0,1,3,11
0,0,0,0,0,0,0,0,0,1,2,22
0,0,0,0,0,0,0,0,0,0,1,9
0,0,0,0,0,0,0,0,0,1,0,1
0,0,0,0,0,0,0,0,0,1,3,18
0,0,0,0,0,0,0,0,0,0,2,7
0,0,0,0,0,0,0,0,0,0,1,8
0,0,0,0,0,0,0,0,0,0,4,17
0,0,0,0,0,0,0,0,0,1,3,1
0,0,0,0,0,0,0,0,0,1,3,1
0,0,0,0,0,0,0,0,0,1,2,3
0,0,0,0,0,0,0,0,0,1,2,7
0,0,0,0,0,0,0,0,0,0,1,8
0,0,0,0,0,0,0,0,0,0,1,13
0,0,0,0,0,0,0,0,0,0,1,9
0,0,0,0,0,0,0,0,0,0,1,20
0,0,0,0,0,0,0,0,0,0,1,13
0,0,0,0,0,0,0,0,0,0,1,8
0,0,0,0,0,0,0,0,0,0,2,16
0,0,0,0,0,0,0,0,0,1,3,11
0,0,0,0,0,0,0,0,0,0,1,10
0,0,0,0,0,0,0,0,0,1,2,7
0,0,0,0,0,0,0,0,0,1,0,1
0,0,0,0,0,0,0,0,0,1,2,3
0,0,0,0,0,0,0,0,0,0,2,7
0,0,0,0,0,0,0,0,0,1,2,7
0,0,0,0,0,0,0,0,0,1,0,4
0,0,0,0,0,0,0,0,0,1,2,7
0,0,0,0,0,0,0,0,0,0,1,22
0,0,0,0,0,0,0,0,0,1,3,1
0,0,0,0,0,0,0,0,0,0,4,6
0,0,0,0,0,0,0,0,0,0,0,4
0,0,0,0,0,0,0,0,0,0,1,8
0,0,0,0,0,0,0,0,0,1,2,22
0,0,0,0,0,0,0,0,0,1,3,18
0,0,0,0,0,0,0,0,0,0,4,6
0,0,0,0,0,0,0,0,0,0,2,9
0,0,0,0,0,0,0,0,0,1,2,7
0,0,0,0,0,0,0,0,0,0,1,10
0,0,0,0,0,0,0,0,0,0,4,2
0,0,0,0,0,0,0,0,0,0,1,9
0,0,0,0,0,0,0,0,0,0,2,20
0,0,0,0,0,0,0,0,0,0,1,9
0,0,0,0,0,0,0,0,0,0,4,8
0,0,0,0,0,0,0,0,0,0,1,13
0,0,0,0,0,0,0,0,0,0,1,9
0,0,0,0,0,0,0,0,0,0,2,9
0,0,0,0,0,0,0,0,0,1,0,9
0,0,0,0,0,0,0,0,0,1,2,1
0,0,0,0,0,0,0,0,0,0,1,10
0,0,0,0,0,0,0,0,0,0,2,7
0,0,0,0,0,0,0,0,0,1,3,18
0,0,0,0,0,0,0,0,0,1,3,3
0,0,0,0,0,0,0,0,0,0,4,9
0,0,0,0,0,0,0,0,0,1,2,7
0,0,0,0,0,0,0,0,0,1,3,18
0,0,0,0,0,0,0,0,0,0,1,7
0,0,0,0,0,0,0,0,0,1,2,7
0,0,0,0,0,0,0,0,0,0,1,21
0,0,0,0,0,0,0,0,0,0,4,6
0,0,0,0,0,0,0,0,0,1,2,7
0,0,0,0,0,0,0,0,0,1,0,4
0,0,0,0,0,0,0,0,0,0,1,8
0,0,0,0,0,0,0,0,0,1,2,20
0,0,0,0,0,0,0,0,0,0,1,10
0,0,0,0,0,0,0,0,0,1,3,11
0,0,0,0,0,0,0,0,0,0,1,10
0,0,0,0,0,0,0,0,0,1,0,11
0,0,0,0,0,0,0,0,0,1,3,18
0,0,0,0,0,0,0,0,0,1,2,3
0,0,0,0,0,0,0,0,0,0,1,8
0,0,0,0,0,0,0,0,0,0,1,13
0,0,0,0,0,0,0,0,0,1,2,7
0,0,0,0,0,0,0,0,0,0,1,8
0,0,0,0,0,0,0,0,0,0,1,10
0,0,0,0,0,0,0,0,0,1,2,9
0,0,0,0,0,0,0,0,0,1,3,11
0,0,0,0,0,0,0,0,0,0,1,9
0,0,0,0,0,0,0,0,0,1,0,21
0,0,0,0,0,0,0,0,0,0,4,9
0,0,0,0,0,0,0,0,0,1,2,7
0,0,0,0,0,0,0,0,0,0,1,20
0,0,0,0,0,0,0,0,0,0,2,22
0,0,0,0,0,0,0,0,0,1,3,18
0,0,0,0,0,0,0,0,0,1,2,7
0,0,0,0,0,0,0,0,0,0,1,10
0,0,0,0,0,0,0,0,0,1,3,3
0,0,0,0,0,0,0,0,0,0,1,8
0,0,0,0,0,0,0,0,0,0,4,6
0,0,0,0,0,0,0,0,0,1,2,7
0,0,0,0,0,0,0,0,0,0,4,9
0,0,0,0,0,0,0,0,0,0,1,8
0,0,0,0,0,0,0,0,0,1,2,1
0,0,0,0,0,0,0,0,0,0,2,22
0,0,0,0,0,0,0,0,0,1,2,7
0,0,0,0,0,0,0,0,0,1,3,11
0,0,0,0,0,0,0,0,0,1,2,1
0,0,0,0,0,0,0,0,0,0,1,20
0,0,0,0,0,0,0,0,0,1,2,7
0,0,0,0,0,0,0,0,0,1,3,11
0,0,0,0,0,0,0,0,0,1,0,1
0,0,0,0,0,0,0,0,0,0,4,5
0,0,0,0,0,0,0,0,0,0,2,22
0,0,0,0,0,0,0,0,0,1,2,3
0,0,0,0,0,0,0,0,0,1,2,7
0,0,0,0,0,0,0,0,0,0,0,20
0,0,0,0,0,0,0,0,0,1,2,1
0,0,0,0,0,0,0,0,0,1,2,3
0,0,0,0,0,0,0,0,0,1,2,7
0,0,0,0,0,0,0,0,0,1,2,22
0,0,0,0,0,0,0,0,0,1,3,18
0,0,0,0,0,0,0,0,0,0,1,22
0,0,0,0,0,0,0,0,0,1,2,7
0,0,0,0,0,0,0,0,0,1,2,1
0,0,0,0,0,0,0,0,0,0,1,10
0,0,0,0,0,0,0,0,0,0,1,9
0,0,0,0,0,0,0,0,0,0,4,5
0,0,0,0,0,0,0,0,0,0,1,22
0,0,0,0,0,0,0,0,0,1,0,11
0,0,0,0,0,0,0,0,0,1,2,22
0,0,0,0,0,0,0,0,0,0,2,22
0,0,0,0,0,0,0,0,0,0,4,6
0,0,0,0,0,0,0,0,0,1,2,7
0,0,0,0,0,0,0,0,0,0,1,8
0,0,0,0,0,0,0,0,0,0,2,20
0,0,0,0,0,0,0,0,0,0,4,6
0,0,0,0,0,0,0,0,0,0,2,7
0,0,0,0,0,0,0,0,0,0,1,13
0,0,0,0,0,0,0,0,0,1,2,7
0,0,0,0,0,0,0,0,0,1,0,4
0,0,0,0,0,0,0,0,0,1,2,9
0,0,0,0,0,0,0,0,0,1,2,7
0,0,0,0,0,0,0,0,0,1,2,7
0,0,0,0,0,0,0,0,0,1,2,7
0,0,0,0,0,0,0,0,0,0,1,20
0,0,0,0,0,0,0,0,0,0,4,6
0,0,0,0,0,0,0,0,0,1,3,21
0,0,0,0,0,0,0,0,0,0,1,8
0,0,0,0,0,0,0,0,0,1,2,1
0,0,0,0,0,0,0,0,0,0,1,8
0,0,0,0,0,0,0,0,0,1,3,18
0,0,0,0,0,0,0,0,0,0,1,9
0,0,0,0,0,0,0,0,0,0,1,8
0,0,0,0,0,0,0,0,0,0,1,8
0,0,0,0,0,0,0,0,0,1,2,1
0,0,0,0,0,0,0,0,0,0,1,22
0,0,0,0,0,0,0,0,0,0,4,17
0,0,0,0,0,0,0,0,0,0,0,20
0,0,0,0,0,0,0,0,0,0,1,10
0,0,0,0,0,0,0,0,0,0,1,13
0,0,0,0,0,0,0,0,0,0,1,10
0,0,0,0,0,0,0,0,0,0,4,17
0,0,0,0,0,0,0,0,0,0,1,8
0,0,0,0,0,0,0,0,0,1,2,7
0,0,0,0,0,0,0,0,0,1,3,3
0,0,0,0,0,0,0,0,0,0,1,13
0,0,0,0,0,0,0,0,0,0,1,8
0,0,0,0,0,0,0,0,0,1,2,7
0,0,0,0,0,0,0,0,0,1,0,4
0,0,0,0,0,0,0,0,0,1,3,11
0,0,0,0,0,0,0,0,0,1,0,20
0,0,0,0,0,0,0,0,0,1,0,4
0,0,0,0,0,0,0,0,0,0,1,10
0,0,0,0,0,0,0,0,0,1,2,7
0,0,0,0,0,0,0,0,0,0,1,22
0,0,0,0,0,0,0,0,0,0,1,13
0,0,0,0,0,0,0,0,0,0,1,20
0,0,0,0,0,0,0,0,0,1,3,18
0,0,0,0,0,0,0,0,0,0,1,10
0,0,0,0,0,0,0,0,0,1,2,1
0,0,0,0,0,0,0,0,0,0,0,2
0,0,0,0,0,0,0,0,0,0,4,17
0,0,0,0,0,0,0,0,0,0,1,8
0,0,0,0,0,0,0,0,0,1,3,11
0,0,0,0,0,0,0,0,0,1,3,11
0,0,0,0,0,0,0,0,0,0,2,7
0,0,0,0,0,0,0,0,0,0,4,6
0,0,0,0,0,0,0,0,0,1,0,1
0,0,0,0,0,0,0,0,0,0,2,9
0,0,0,0,0,0,0,0,0,0,4,6
0,0,0,0,0,0,0,0,0,0,4,6
0,0,0,0,0,0,0,0,0,1,2,3
0,0,0,0,0,0,0,0,0,0,1,7
0,0,0,0,0,0,0,0,0,1,2,18
0,0,0,0,0,0,0,0,0,1,2,16
0,0,0,0,0,0,0,0,0,0,4,5
0,0,0,0,0,0,0,0,0,1,0,4
0,0,0,0,0,0,0,0,0,1,2,22
0,0,0,0,0,0,0,0,0,1,2,7
0,0,0,0,0,0,0,0,0,0,1,2
0,0,0,0,0,0,0,0,0,1,2,21
0,0,0,0,0,0,0,0,0,1,0,4
0,0,0,0,0,0,0,0,0,0,1,8
0,0,0,0,0,0,0,0,0,1,2,1
0,0,0,0,0,0,0,0,0,0,1,20
0,0,0,0,0,0,0,0,0,0,1,17
0,0,0,0,0,0,0,0,0,0,1,8
0,0,0,0,0,0,0,0,0,0,2,9
0,0,0,0,0,0,0,0,0,0,4,17
0,0,0,0,0,0,0,0,0,0,2,7
0,0,0,0,0,0,0,0,0,1,0,22
0,0,0,0,0,0,0,0,0,1,2,7
0,0,0,0,0,0,0,0,0,1,2,7
0,0,0,0,0,0,0,0,0,0,2,7
0,0,0,0,0,0,0,0,0,1,2,9
0,0,0,0,0,0,0,0,0,1,0,12
0,0,0,0,0,0,0,0,0,0,1,6
0,0,0,0,0,0,0,0,0,1,2,7
0,0,0,0,0,0,0,0,0,0,1,8
0,0,0,0,0,0,0,0,0,1,3,15
0,0,0,0,0,0,0,0,0,0,4,6
0,0,0,0,0,0,0,0,0,0,4,6
0,0,0,0,0,0,0,0,0,1,0,4
0,0,0,0,0,0,0,0,0,0,1,8
0,0,0,0,0,0,0,0,0,1,2,7
0,0,0,0,0,0,0,0,0,0,4,5
0,0,0,0,0,0,0,0,0,0,2,7
0,0,0,0,0,0,0,0,0,1,0,2
0,0,0,0,0,0,0,0,0,1,2,2
0,0,0,0,0,0,0,0,0,1,2,22
0,0,0,0,0,0,0,0,0,1,2,3
0,0,0,0,0,0,0,0,0,1,3,15
0,0,0,0,0,0,0,0,0,0,4,6
0,0,0,0,0,0,0,0,0,0,4,5
0,0,0,0,0,0,0,0,0,0,0,20
0,0,0,0,0,0,0,0,0,1,3,11
0,0,0,0,0,0,0,0,0,0,2,9
0,0,0,0,0,0,0,0,0,1,3,11
0,0,0,0,0,0,0,0,0,1,3,3
0,0,0,0,0,0,0,0,0,1,3,3
0,0,0,0,0,0,0,0,0,0,0,20
0,0,0,0,0,0,0,0,0,1,0,1
0,0,0,0,0,0,0,0,0,1,2,1
0,0,0,0,0,0,0,0,0,0,1,8
0,0,0,0,0,0,0,0,0,1,2,1
0,0,0,0,0,0,0,0,0,0,1,13
0,0,0,0,0,0,0,0,0,0,4,6
0,0,0,0,0,0,0,0,0,0,1,8
0,0,0,0,0,0,0,0,0,1,2,1
0,0,0,0,0,0,0,0,0,0,2,9
0,0,0,0,0,0,0,0,0,1,0,4
0,0,0,0,0,0,0,0,0,0,1,10
0,0,0,0,0,0,0,0,0,1,2,7
0,0,0,0,0,0,0,0,0,1,3,18
0,0,0,0,0,0,0,0,0,0,4,5
0,0,0,0,0,0,0,0,0,0,1,8
0,0,0,0,0,0,0,0,0,0,1,20
0,0,0,0,0,0,0,0,0,0,2,22
0,0,0,0,0,0,0,0,0,1,3,1
0,0,0,0,0,0,0,0,0,0,4,6
0,0,0,0,0,0,0,0,0,1,3,18
0,0,0,0,0,0,0,0,0,0,1,8
0,0,0,0,0,0,0,0,0,1,2,7
0,0,0,0,0,0,0,0,0,1,2,3
0,0,0,0,0,0,0,0,0,0,4,17
0,0,0,0,0,0,0,0,0,1,3,18
0,0,0,0,0,0,0,0,0,0,2,7
0,0,0,0,0,0,0,0,0,1,2,1
0,0,0,0,0,0,0,0,0,0,2,9
0,0,0,0,0,0,0,0,0,1,3,18
0,0,0,0,0,0,0,0,0,0,2,9
0,0,0,0,0,0,0,0,0,0,1,10
0,0,0,0,0,0,0,0,0,1,2,1
0,0,0,0,0,0,0,0,0,1,3,1
0,0,0,0,0,0,0,0,0,1,0,4
0,0,0,0,0,0,0,0,0,1,2,9
0,0,0,0,0,0,0,0,0,1,3,1
0,0,0,0,0,0,0,0,0,1,2,22
0,0,0,0,0,0,0,0,0,1,0,4
0,0,0,0,0,0,0,0,0,0,1,20
0,0,0,0,0,0,0,0,0,1,3,1
0,0,0,0,0,0,0,0,0,0,1,22
0,0,0,0,0,0,0,0,0,1,2,1
0,0,0,0,0,0,0,0,0,0,1,10
0,0,0,0,0,0,0,0,0,1,2,1
0,0,0,0,0,0,0,0,0,0,1,20
0,0,0,0,0,0,0,0,0,0,1,8
0,0,0,0,0,0,0,0,0,0,1,7
0,0,0,0,0,0,0,0,0,0,2,7
0,0,0,0,0,0,0,0,0,0,1,13
0,0,0,0,0,0,0,0,0,0,1,9
0,0,0,0,0,0,0,0,0,0,1,13
0,0,0,0,0,0,0,0,0,1,2,2
0,0,0,0,0,0,0,0,0,1,3,1
0,0,0,0,0,0,0,0,0,0,1,9
0,0,0,0,0,0,0,0,0,0,1,10
0,0,0,0,0,0,0,0,0,0,1,2
0,0,0,0,0,0,0,0,0,1,3,11
0,0,0,0,0,0,0,0,0,1,2,7
0,0,0,0,0,0,0,0,0,0,2,20
0,0,0,0,0,0,0,0,0,1,2,7
0,0,0,0,0,0,0,0,0,0,2,22
0,0,0,0,0,0,0,0,0,0,2,7
0,0,0,0,0,0,0,0,0,0,1,7
0,0,0,0,0,0,0,0,0,0,1,22
0,0,0,0,0,0,0,0,0,1,3,3
0,0,0,0,0,0,0,0,0,0,4,6
0,0,0,0,0,0,0,0,0,0,2,7
0,0,0,0,0,0,0,0,0,1,2,7
0,0,0,0,0,0,0,0,0,1,2,2
0,0,0,0,0,0,0,0,0,1,2,3
0,0,0,0,0,0,0,0,0,0,2,7
0,0,0,0,0,0,0,0,0,0,1,22
0,0,0,0,0,0,0,0,0,0,1,8
0,0,0,0,0,0,0,0,0,1,3,1
0,0,0,0,0,0,0,0,0,1,2,3
0,0,0,0,0,0,0,0,0,0,1,10
0,0,0,0,0,0,0,0,0,0,1,6
0,0,0,0,0,0,0,0,0,0,2,16
0,0,0,0,0,0,0,0,0,0,2,20
0,0,0,0,0,0,0,0,0,1,2,18
0,0,0,0,0,0,0,0,0,0,1,8
0,0,0,0,0,0,0,0,0,0,2,22
0,0,0,0,0,0,0,0,0,1,0,4
0,0,0,0,0,0,0,0,0,0,4,6
0,0,0,0,0,0,0,0,0,0,4,17
0,0,0,0,0,0,0,0,0,0,1,8
0,0,0,0,0,0,0,0,0,0,4,17
0,0,0,0,0,0,0,0,0,0,4,6
0,0,0,0,0,0,0,0,0,1,3,18
0,0,0,0,0,0,0,0,0,0,2,7
0,0,0,0,0,0,0,0,0,0,4,2
0,0,0,0,0,0,0,0,0,1,0,4
0,0,0,0,0,0,0,0,0,0,4,6
0,0,0,0,0,0,0,0,0,0,1,20
0,0,0,0,0,0,0,0,0,1,3,18
0,0,0,0,0,0,0,0,0,1,2,1
0,0,0,0,0,0,0,0,0,0,1,20
0,0,0,0,0,0,0,0,0,1,2,7
0,0,0,0,0,0,0,0,0,0,1,22
0,0,0,0,0,0,0,0,0,1,2,1
0,0,0,0,0,0,0,0,0,1,2,1
0,0,0,0,0,0,0,0,0,0,2,7
0,0,0,0,0,0,0,0,0,0,2,2
0,0,0,0,0,0,0,0,0,1,3,11
0,0,0,0,0,0,0,0,0,0,1,10
0,0,0,0,0,0,0,0,0,0,1,13
0,0,0,0,0,0,0,0,0,0,1,7
0,0,0,0,0,0,0,0,0,1,2,2
0,0,0,0,0,0,0,0,0,1,2,7
0,0,0,0,0,0,0,0,0,0,2,9
0,0,0,0,0,0,0,0,0,1,2,7
0,0,0,0,0,0,0,0,0,0,1,8
0,0,0,0,0,0,0,0,0,0,1,13
0,0,0,0,0,0,0,0,0,1,2,9
0,0,0,0,0,0,0,0,0,1,1,0
0,0,0,0,0,0,0,0,0,0,2,7
0,0,0,0,0,0,0,0,0,1,2,1
0,0,0,0,0,0,0,0,0,0,1,10
0,0,0,0,0,0,0,0,0,0,2,7
0,0,0,0,0,0,0,0,0,0,1,10
0,0,0,0,0,0,0,0,0,0,1,13
0,0,0,0,0,0,0,0,0,0,2,9
0,0,0,0,0,0,0,0,0,0,2,22
0,0,0,0,0,0,0,0,0,1,2,7
0,0,0,0,0,0,0,0,0,1,2,22
0,0,0,0,0,0,0,0,0,1,2,1
0,0,0,0,0,0,0,0,0,1,2,22
0,0,0,0,0,0,0,0,0,1,3,18
0,0,0,0,0,0,0,0,0,0,2,9
0,0,0,0,0,0,0,0,0,1,2,7
0,0,0,0,0,0,0,0,0,0,4,17
0,0,0,0,0,0,0,0,0,0,2,7
0,0,0,0,0,0,0,0,0,0,1,8
0,0,0,0,0,0,0,0,0,0,1,20
0,0,0,0,0,0,0,0,0,1,2,7
0,0,0,0,0,0,0,0,0,0,2,2
0,0,0,0,0,0,0,0,0,0,4,9
0,0,0,0,0,0,0,0,0,1,2,7
0,0,0,0,0,0,0,0,0,0,4,13
0,0,0,0,0,0,0,0,0,0,2,7
0,0,0,0,0,0,0,0,0,1,0,4
0,0,0,0,0,0,0,0,0,0,4,6
0,0,0,0,0,0,0,0,0,0,1,10
0,0,0,0,0,0,0,0,0,0,2,7
0,0,0,0,0,0,0,0,0,0,1,20
0,0,0,0,0,0,0,0,0,1,2,7
0,0,0,0,0,0,0,0,0,0,1,20
0,0,0,0,0,0,0,0,0,1,2,1
0,0,0,0,0,0,0,0,0,1,3,18
0,0,0,0,0,0,0,0,0,1,3,18
0,0,0,0,0,0,0,0,0,0,2,2
0,0,0,0,0,0,0,0,0,1,2,3
0,0,0,0,0,0,0,0,0,0,2,20
0,0,0,0,0,0,0,0,0,1,2,7
0,0,0,0,0,0,0,0,0,0,1,10
0,0,0,0,0,0,0,0,0,1,0,9
0,0,0,0,0,0,0,0,0,0,0,20
0,0,0,0,0,0,0,0,0,1,2,1
0,0,0,0,0,0,0,0,0,1,2,3
0,0,0,0,0,0,0,0,0,0,1,8
0,0,0,0,0,0,0,0,0,1,2,7
0,0,0,0,0,0,0,0,0,0,1,6
0,0,0,0,0,0,0,0,0,0,1,9
0,0,0,0,0,0,0,0,0,0,2,22
0,0,0,0,0,0,0,0,0,1,2,7
0,0,0,0,0,0,0,0,0,0,4,17
0,0,0,0,0,0,0,0,0,1,3,4
0,0,0,0,0,0,0,0,0,0,1,8
0,0,0,0,0,0,0,0,0,1,2,1
0,0,0,0,0,0,0,0,0,0,4,6
0,0,0,0,0,0,0,0,0,0,1,8
0,0,0,0,0,0,0,0,0,0,4,17
0,0,0,0,0,0,0,0,0,0,1,8
0,0,0,0,0,0,0,0,0,0,1,10
0,0,0,0,0,0,0,0,0,0,4,6
0,0,0,0,0,0,0,0,0,1,2,22
0,0,0,0,0,0,0,0,0,0,1,7
0,0,0,0,0,0,0,0,0,1,2,1
0,0,0,0,0,0,0,0,0,0,4,17
0,0,0,0,0,0,0,0,0,1,3,18
0,0,0,0,0,0,0,0,0,0,1,8
0,0,0,0,0,0,0,0,0,1,3,15
0,0,0,0,0,0,0,0,0,0,1,8
0,0,0,0,0,0,0,0,0,0,2,22
0,0,0,0,0,0,0,0,0,0,1,9
0,0,0,0,0,0,0,0,0,1,2,21
0,0,0,0,0,0,0,0,0,1,2,22
0,0,0,0,0,0,0,0,0,1,2,7
0,0,0,0,0,0,0,0,0,1,3,1
0,0,0,0,0,0,0,0,0,1,2,7
0,0,0,0,0,0,0,0,0,0,1,8
0,0,0,0,0,0,0,0,0,0,1,10
0,0,0,0,0,0,0,0,0,0,4,17
0,0,0,0,0,0,0,0,0,1,2,7
0,0,0,0,0,0,0,0,0,1,2,1
0,0,0,0,0,0,0,0,0,0,0,20
0,0,0,0,0,0,0,0,0,1,2,7
0,0,0,0,0,0,0,0,0,1,2,7
0,0,0,0,0,0,0,0,0,0,0,4
0,0,0,0,0,0,0,0,0,0,0,9
0,0,0,0,0,0,0,0,0,1,2,2
0,0,0,0,0,0,0,0,0,1,3,18
0,0,0,0,0,0,0,0,0,0,1,0
0,0,0,0,0,0,0,0,0,0,4,6
0,0,0,0,0,0,0,0,0,0,1,10
0,0,0,0,0,0,0,0,0,1,3,1
0,0,0,0,0,0,0,0,0,0,4,6
0,0,0,0,0,0,0,0,0,0,1,22
0,0,0,0,0,0,0,0,0,0,2,22
0,0,0,0,0,0,0,0,0,1,2,1
0,0,0,0,0,0,0,0,0,0,1,22
0,0,0,0,0,0,0,0,0,0,1,10
0,0,0,0,0,0,0,0,0,1,2,7
0,0,0,0,0,0,0,0,0,0,1,13
0,0,0,0,0,0,0,0,0,1,2,9
0,0,0,0,0,0,0,0,0,1,0,9
0,0,0,0,0,0,0,0,0,0,2,22
0,0,0,0,0,0,0,0,0,1,2,3
0,0,0,0,0,0,0,0,0,1,2,3
0,0,0,0,0,0,0,0,0,1,2,7
0,0,0,0,0,0,0,0,0,1,2,1
0,0,0,0,0,0,0,0,0,1,2,16
0,0,0,0,0,0,0,0,0,0,1,10
0,0,0,0,0,0,0,0,0,0,2,22
0,0,0,0,0,0,0,0,0,0,1,13
0,0,0,0,0,0,0,0,0,1,2,7
0,0,0,0,0,0,0,0,0,1,3,3
0,0,0,0,0,0,0,0,0,1,3,3
0,0,0,0,0,0,0,0,0,0,1,9
0,0,0,0,0,0,0,0,0,1,2,7
0,0,0,0,0,0,0,0,0,1,2,18
0,0,0,0,0,0,0,0,0,1,2,3
0,0,0,0,0,0,0,0,0,1,0,11
0,0,0,0,0,0,0,0,0,0,1,8
0,0,0,0,0,0,0,0,0,1,3,15
0,0,0,0,0,0,0,0,0,0,4,17
0,0,0,0,0,0,0,0,0,1,2,22
0,0,0,0,0,0,0,0,0,0,1,13
0,0,0,0,0,0,0,0,0,0,4,6
0,0,0,0,0,0,0,0,0,1,2,22
0,0,0,0,0,0,0,0,0,0,1,20
0,0,0,0,0,0,0,0,0,1,3,1
0,0,0,0,0,0,0,0,0,0,1,8
0,0,0,0,0,0,0,0,0,1,2,7
0,0,0,0,0,0,0,0,0,1,2,16
0,0,0,0,0,0,0,0,0,0,2,7
0,0,0,0,0,0,0,0,0,1,3,11
0,0,0,0,0,0,0,0,0,1,2,1
0,0,0,0,0,0,0,0,0,0,2,7
0,0,0,0,0,0,0,0,0,0,1,9
0,0,0,0,0,0,0,0,0,0,4,6
0,0,0,0,0,0,0,0,0,0,1,10
0,0,0,0,0,0,0,0,0,1,3,11
0,0,0,0,0,0,0,0,0,0,1,10
0,0,0,0,0,0,0,0,0,0,1,8
0,0,0,0,0,0,0,0,0,1,2,1
0,0,0,0,0,0,0,0,0,1,2,7
0,0,0,0,0,0,0,0,0,0,1,21
0,0,0,0,0,0,0,0,0,0,2,7
0,0,0,0,0,0,0,0,0,1,2,16
0,0,0,0,0,0,0,0,0,1,3,18
0,0,0,0,0,0,0,0,0,1,3,11
0,0,0,0,0,0,0,0,0,1,2,9
0,0,0,0,0,0,0,0,0,1,2,7
0,0,0,0,0,0,0,0,0,0,1,13
0,0,0,0,0,0,0,0,0,0,4,9
0,0,0,0,0,0,0,0,0,1,3,18
0,0,0,0,0,0,0,0,0,0,2,7
0,0,0,0,0,0,0,0,0,0,1,8
0,0,0,0,0,0,0,0,0,0,4,17
0,0,0,0,0,0,0,0,0,1,0,1
0,0,0,0,0,0,0,0,0,0,1,0
0,0,0,0,0,0,0,0,0,1,2,7
0,0,0,0,0,0,0,0,0,0,0,9
0,0,0,0,0,0,0,0,0,0,1,8
0,0,0,0,0,0,0,0,0,0,0,12
0,0,0,0,0,0,0,0,0,1,3,11
0,0,0,0,0,0,0,0,0,1,2,7
0,0,0,0,0,0,0,0,0,1,3,3
0,0,0,0,0,0,0,0,0,0,1,8
0,0,0,0,0,0,0,0,0,0,1,10
0,0,0,0,0,0,0,0,0,1,2,7
0,0,0,0,0,0,0,0,0,1,2,7
0,0,0,0,0,0,0,0,0,1,2,7
0,0,0,0,0,0,0,0,0,0,2,22
0,0,0,0,0,0,0,0,0,0,2,22
0,0,0,0,0,0,0,0,0,0,2,7
0,0,0,0,0,0,0,0,0,1,2,7
0,0,0,0,0,0,0,0,0,1,3,11
0,0,0,0,0,0,0,0,0,1,2,7
0,0,0,0,0,0,0,0,0,1,3,18
0,0,0,0,0,0,0,0,0,0,1,6
0,0,0,0,0,0,0,0,0,1,3,3
0,0,0,0,0,0,0,0,0,0,2,9
0,0,0,0,0,0,0,0,0,0,4,6
0,0,0,0,0,0,0,0,0,0,4,6
0,0,0,0,0,0,0,0,0,0,1,8
0,0,0,0,0,0,0,0,0,1,3,18
0,0,0,0,0,0,0,0,0,0,2,22
0,0,0,0,0,0,0,0,0,1,0,1
0,0,0,0,0,0,0,0,0,1,3,11
0,0,0,0,0,0,0,0,0,1,2,1
0,0,0,0,0,0,0,0,0,1,2,7
0,0,0,0,0,0,0,0,0,0,1,8
0,0,0,0,0,0,0,0,0,0,2,7
0,0,0,0,0,0,0,0,0,1,0,9
0,0,0,0,0,0,0,0,0,0,1,8
0,0,0,0,0,0,0,0,0,1,2,22
0,0,0,0,0,0,0,0,0,1,2,7
0,0,0,0,0,0,0,0,0,0,4,13
0,0,0,0,0,0,0,0,0,0,1,13
0,0,0,0,0,0,0,0,0,0,1,10
0,0,0,0,0,0,0,0,0,0,2,9
0,0,0,0,0,0,0,0,0,1,2,22
0,0,0,0,0,0,0,0,0,1,0,4
0,0,0,0,0,0,0,0,0,0,1,10
0,0,0,0,0,0,0,0,0,0,1,10
0,0,0,0,0,0,0,0,0,0,1,10
0,0,0,0,0,0,0,0,0,0,1,8
0,0,0,0,0,0,0,0,0,1,2,22
0,0,0,0,0,0,0,0,0,0,1,8
0,0,0,0,0,0,0,0,0,1,2,1
0,0,0,0,0,0,0,0,0,0,4,5
0,0,0,0,0,0,0,0,0,1,2,1
0,0,0,0,0,0,0,0,0,1,3,21
0,0,0,0,0,0,0,0,0,1,2,22
0,0,0,0,0,0,0,0,0,0,2,22
0,0,0,0,0,0,0,0,0,1,2,9
0,0,0,0,0,0,0,0,0,1,3,18
0,0,0,0,0,0,0,0,0,0,2,9
0,0,0,0,0,0,0,0,0,0,1,10
0,0,0,0,0,0,0,0,0,1,0,2
0,0,0,0,0,0,0,0,0,1,0,1
0,0,0,0,0,0,0,0,0,0,2,9
0,0,0,0,0,0,0,0,0,0,2,22
0,0,0,0,0,0,0,0,0,1,3,1
0,0,0,0,0,0,0,0,0,1,2,7
0,0,0,0,0,0,0,0,0,0,4,6
0,0,0,0,0,0,0,0,0,1,2,16
0,0,0,0,0,0,0,0,0,0,2,22
0,0,0,0,0,0,0,0,0,0,1,9
0,0,0,0,0,0,0,0,0,0,1,10
0,0,0,0,0,0,0,0,0,0,1,8
0,0,0,0,0,0,0,0,0,1,0,4
0,0,0,0,0,0,0,0,0,1,3,18
0,0,0,0,0,0,0,0,0,1,3,18
0,0,0,0,0,0,0,0,0,1,2,2
0,0,0,0,0,0,0,0,0,0,4,6
0,0,0,0,0,0,0,0,0,0,1,22
0,0,0,0,0,0,0,0,0,1,3,11
0,0,0,0,0,0,0,0,0,1,3,1
0,0,0,0,0,0,0,0,0,1,2,9
0,0,0,0,0,0,0,0,0,1,2,18
0,0,0,0,0,0,0,0,0,0,1,13
0,0,0,0,0,0,0,0,0,0,1,8
0,0,0,0,0,0,0,0,0,0,2,21
0,0,0,0,0,0,0,0,0,0,1,22
0,0,0,0,0,0,0,0,0,0,1,8
0,0,0,0,0,0,0,0,0,1,0,1
0,0,0,0,0,0,0,0,0,1,3,18
0,0,0,0,0,0,0,0,0,1,3,18
0,0,0,0,0,0,0,0,0,0,1,8
0,0,0,0,0,0,0,0,0,1,3,11
0,0,0,0,0,0,0,0,0,1,2,21
0,0,0,0,0,0,0,0,0,1,2,1
0,0,0,0,0,0,0,0,0,1,2,3
0,0,0,0,0,0,0,0,0,0,2,22
0,0,0,0,0,0,0,0,0,0,2,7
0,0,0,0,0,0,0,0,0,0,0,4
0,0,0,0,0,0,0,0,0,1,2,22
0,0,0,0,0,0,0,0,0,1,3,18
0,0,0,0,0,0,0,0,0,0,1,8
0,0,0,0,0,0,0,0,0,1,3,18
0,0,0,0,0,0,0,0,0,1,3,1
0,0,0,0,0,0,0,0,0,0,1,0
0,0,0,0,0,0,0,0,0,0,1,10
0,0,0,0,0,0,0,0,0,0,1,20
0,0,0,0,0,0,0,0,0,0,1,10
0,0,0,0,0,0,0,0,0,0,1,22
0,0,0,0,0,0,0,0,0,1,3,2
0,0,0,0,0,0,0,0,0,0,1,10
0,0,0,0,0,0,0,0,0,1,3,15
0,0,0,0,0,0,0,0,0,0,2,9
0,0,0,0,0,0,0,0,0,0,4,9
0,0,0,0,0,0,0,0,0,1,0,16
0,0,0,0,0,0,0,0,0,1,0,1
0,0,0,0,0,0,0,0,0,0,1,8
0,0,0,0,0,0,0,0,0,0,1,2
0,0,0,0,0,0,0,0,0,0,1,8
0,0,0,0,0,0,0,0,0,1,2,18
0,0,0,0,0,0,0,0,0,1,2,3
0,0,0,0,0,0,0,0,0,0,2,22
0,0,0,0,0,0,0,0,0,1,2,1
0,0,0,0,0,0,0,0,0,0,1,13
0,0,0,0,0,0,0,0,0,0,0,9
0,0,0,0,0,0,0,0,0,0,4,6
0,0,0,0,0,0,0,0,0,0,1,10
0,0,0,0,0,0,0,0,0,0,2,7
0,0,0,0,0,0,0,0,0,1,2,7
0,0,0,0,0,0,0,0,0,1,2,3
0,0,0,0,0,0,0,0,0,1,2,1
0,0,0,0,0,0,0,0,0,0,1,8
0,0,0,0,0,0,0,0,0,1,2,3
0,0,0,0,0,0,0,0,0,0,1,13
0,0,0,0,0,0,0,0,0,1,2,1
0,0,0,0,0,0,0,0,0,1,2,18
0,0,0,0,0,0,0,0,0,1,0,4
0,0,0,0,0,0,0,0,0,0,2,22
0,0,0,0,0,0,0,0,0,0,0,20
0,0,0,0,0,0,0,0,0,1,2,7
0,0,0,0,0,0,0,0,0,0,1,6
0,0,0,0,0,0,0,0,0,0,1,8
0,0,0,0,0,0,0,0,0,1,3,11
0,0,0,0,0,0,0,0,0,0,1,10
0,0,0,0,0,0,0,0,0,0,2,7
0,0,0,0,0,0,0,0,0,0,1,20
0,0,0,0,0,0,0,0,0,1,2,7
0,0,0,0,0,0,0,0,0,0,1,8
0,0,0,0,0,0,0,0,0,1,2,3
0,0,0,0,0,0,0,0,0,1,0,4
0,0,0,0,0,0,0,0,0,0,1,10
0,0,0,0,0,0,0,0,0,1,2,1
0,0,0,0,0,0,0,0,0,0,2,9
0,0,0,0,0,0,0,0,0,0,1,13
0,0,0,0,0,0,0,0,0,0,2,7
0,0,0,0,0,0,0,0,0,0,1,10
0,0,0,0,0,0,0,0,0,1,2,1
0,0,0,0,0,0,0,0,0,1,2,1
0,0,0,0,0,0,0,0,0,1,0,1
0,0,0,0,0,0,0,0,0,1,2,20
0,0,0,0,0,0,0,0,0,0,1,9
0,0,0,0,0,0,0,0,0,0,2,9
0,0,0,0,0,0,0,0,0,0,2,22
0,0,0,0,0,0,0,0,0,1,2,7
0,0,0,0,0,0,0,0,0,0,0,20
0,0,0,0,0,0,0,0,0,0,1,10
0,0,0,0,0,0,0,0,0,1,2,7
0,0,0,0,0,0,0,0,0,1,2,1
0,0,0,0,0,0,0,0,0,0,2,9
0,0,0,0,0,0,0,0,0,1,0,9
0,0,0,0,0,0,0,0,0,1,0,4
0,0,0,0,0,0,0,0,0,0,2,7
0,0,0,0,0,0,0,0,0,0,1,10
0,0,0,0,0,0,0,0,0,1,3,1
0,0,0,0,0,0,0,0,0,0,1,20
0,0,0,0,0,0,0,0,0,0,1,8
0,0,0,0,0,0,0,0,0,0,1,20
0,0,0,0,0,0,0,0,0,0,1,9
0,0,0,0,0,0,0,0,0,0,1,9
0,0,0,0,0,0,0,0,0,0,1,8
0,0,0,0,0,0,0,0,0,0,1,9
0,0,0,0,0,0,0,0,0,1,3,3
0,0,0,0,0,0,0,0,0,0,1,10
0,0,0,0,0,0,0,0,0,0,4,6
0,0,0,0,0,0,0,0,0,0,1,13
0,0,0,0,0,0,0,0,0,0,2,7
0,0,0,0,0,0,0,0,0,0,1,8
0,0,0,0,0,0,0,0,0,1,2,3
0,0,0,0,0,0,0,0,0,0,1,2
0,0,0,0,0,0,0,0,0,0,4,17
0,0,0,0,0,0,0,0,0,1,2,22
0,0,0,0,0,0,0,0,0,1,2,7
0,0,0,0,0,0,0,0,0,1,2,9
0,0,0,0,0,0,0,0,0,0,1,20
0,0,0,0,0,0,0,0,0,0,4,6
0,0,0,0,0,0,0,0,0,1,2,1
0,0,0,0,0,0,0,0,0,1,0,4
0,0,0,0,0,0,0,0,0,1,2,3
0,0,0,0,0,0,0,0,0,1,2,1
0,0,0,0,0,0,0,0,0,0,1,10
0,0,0,0,0,0,0,0,0,1,0,1
0,0,0,0,0,0,0,0,0,0,0,20
0,0,0,0,0,0,0,0,0,0,2,9
0,0,0,0,0,0,0,0,0,0,1,10
0,0,0,0,0,0,0,0,0,0,1,9
0,0,0,0,0,0,0,0,0,1,3,11
0,0,0,0,0,0,0,0,0,0,4,17
0,0,0,0,0,0,0,0,0,0,2,9
0,0,0,0,0,0,0,0,0,1,2,18
0,0,0,0,0,0,0,0,0,1,2,7
0,0,0,0,0,0,0,0,0,0,1,20
0,0,0,0,0,0,0,0,0,1,0,16
0,0,0,0,0,0,0,0,0,1,0,4
0,0,0,0,0,0,0,0,0,1,3,3
0,0,0,0,0,0,0,0,0,1,2,7
0,0,0,0,0,0,0,0,0,0,1,10
0,0,0,0,0,0,0,0,0,0,1,13
0,0,0,0,0,0,0,0,0,0,2,2
0,0,0,0,0,0,0,0,0,0,2,9
0,0,0,0,0,0,0,0,0,0,4,6
0,0,0,0,0,0,0,0,0,1,3,18
0,0,0,0,0,0,0,0,0,0,4,6
0,0,0,0,0,0,0,0,0,0,1,13
0,0,0,0,0,0,0,0,0,1,3,3
0,0,0,0,0,0,0,0,0,1,2,16
0,0,0,0,0,0,0,0,0,1,2,18
0,0,0,0,0,0,0,0,0,0,2,7
0,0,0,0,0,0,0,0,0,1,3,0
0,0,0,0,0,0,0,0,0,0,1,13
0,0,0,0,0,0,0,0,0,0,2,7
0,0,0,0,0,0,0,0,0,0,1,8
0,0,0,0,0,0,0,0,0,1,3,18
0,0,0,0,0,0,0,0,0,0,2,9
0,0,0,0,0,0,0,0,0,0,2,22
0,0,0,0,0,0,0,0,0,0,1,22
0,0,0,0,0,0,0,0,0,0,2,7
0,0,0,0,0,0,0,0,0,0,1,10
0,0,0,0,0,0,0,0,0,1,2,7
0,0,0,0,0,0,0,0,0,0,1,10
0,0,0,0,0,0,0,0,0,0,2,9
0,0,0,0,0,0,0,0,0,1,3,11
0,0,0,0,0,0,0,0,0,0,1,10
0,0,0,0,0,0,0,0,0,0,1,10
0,0,0,0,0,0,0,0,0,0,4,17
0,0,0,0,0,0,0,0,0,0,4,6
0,0,0,0,0,0,0,0,0,0,1,0
0,0,0,0,0,0,0,0,0,0,1,9
0,0,0,0,0,0,0,0,0,1,3,11
0,0,0,0,0,0,0,0,0,1,2,7
0,0,0,0,0,0,0,0,0,0,1,13
0,0,0,0,0,0,0,0,0,0,1,10
0,0,0,0,0,0,0,0,0,0,2,9
0,0,0,0,0,0,0,0,0,0,1,10
0,0,0,0,0,0,0,0,0,0,4,6
0,0,0,0,0,0,0,0,0,1,2,16
0,0,0,0,0,0,0,0,0,0,0,4
0,0,0,0,0,0,0,0,0,1,3,18
0,0,0,0,0,0,0,0,0,1,2,16
0,0,0,0,0,0,0,0,0,1,3,18
0,0,0,0,0,0,0,0,0,1,3,3
0,0,0,0,0,0,0,0,0,1,2,2
0,0,0,0,0,0,0,0,0,0,2,22
0,0,0,0,0,0,0,0,0,0,1,8
0,0,0,0,0,0,0,0,0,1,2,7
0,0,0,0,0,0,0,0,0,1,2,9
0,0,0,0,0,0,0,0,0,0,2,7
0,0,0,0,0,0,0,0,0,0,2,20
0,0,0,0,0,0,0,0,0,1,3,14
0,0,0,0,0,0,0,0,0,1,2,7
0,0,0,0,0,0,0,0,0,0,4,9
0,0,0,0,0,0,0,0,0,1,2,7
0,0,0,0,0,0,0,0,0,0,1,22
0,0,0,0,0,0,0,0,0,0,2,7
0,0,0,0,0,0,0,0,0,0,4,6
0,0,0,0,0,0,0,0,0,1,2,16
0,0,0,0,0,0,0,0,0,1,0,4
0,0,0,0,0,0,0,0,0,0,0,20
0,0,0,0,0,0,0,0,0,1,2,16
0,0,0,0,0,0,0,0,0,0,4,6
0,0,0,0,0,0,0,0,0,1,0,1
0,0,0,0,0,0,0,0,0,0,2,22
0,0,0,0,0,0,0,0,0,0,1,8
0,0,0,0,0,0,0,0,0,0,2,7
0,0,0,0,0,0,0,0,0,0,1,20
0,0,0,0,0,0,0,0,0,1,2,16
0,0,0,0,0,0,0,0,0,0,2,22
0,0,0,0,0,0,0,0,0,0,1,8
0,0,0,0,0,0,0,0,0,1,2,7
0,0,0,0,0,0,0,0,0,0,1,20
0,0,0,0,0,0,0,0,0,0,2,9
0,0,0,0,0,0,0,0,0,1,2,7
0,0,0,0,0,0,0,0,0,0,2,16
0,0,0,0,0,0,0,0,0,0,1,20
0,0,0,0,0,0,0,0,0,1,3,11
0,0,0,0,0,0,0,0,0,1,3,3
0,0,0,0,0,0,0,0,0,0,2,22
