tau,n_clusters,n_int_boxes,lower_bound,high_bound,bound_diff
1.0,1,0,1.0,1.0,0.0
0.9,1,0,1.0,1.0,0.0
0.8,1,0,1.0,1.0,0.0
0.7,1,0,1.0,1.0,0.0
0.6,1,0,1.0,1.0,0.0
0.5,1,0,1.0,1.0,0.0
0.4,1,0,1.0,1.0,0.0
0.3,1,0,1.0,1.0,0.0
0.2,1,0,1.0,1.0,0.0
0.1,1,0,1.0,1.0,0.0
0.05,2,1,2.0701840365718457e-08,2.0701840365718457e-08,4.142215733247349e-64
0.01,11,55,7.214054471518106e-78,7.214054471518106e-78,4.625466970965773e-128
