1.0,0.9,0.8,0.7,0.6,0.5,0.4,0.3,0.2,0.1,0.05,0.01
0,0,0,0,0,0,0,0,0,0,1,2
0,0,0,0,0,0,0,0,0,0,2,8
0,0,0,0,0,0,0,0,0,0,2,6
0,0,0,0,0,0,0,0,0,0,2,11
0,0,0,0,0,0,0,0,0,0,2,1
0,0,0,0,0,0,0,0,0,0,2,3
0,0,0,0,0,0,0,0,0,0,1,5
0,0,0,0,0,0,0,0,0,0,1,4
0,0,0,0,0,0,0,0,0,0,1,12
0,0,0,0,0,0,0,0,0,0,2,0
0,0,0,0,0,0,0,0,0,0,1,12
0,0,0,0,0,0,0,0,0,0,0,9
0,0,0,0,0,0,0,0,0,0,2,11
0,0,0,0,0,0,0,0,0,0,2,1
0,0,0,0,0,0,0,0,0,0,0,12
0,0,0,0,0,0,0,0,0,0,0,7
0,0,0,0,0,0,0,0,0,0,1,4
0,0,0,0,0,0,0,0,0,0,2,9
0,0,0,0,0,0,0,0,0,0,2,8
0,0,0,0,0,0,0,0,0,0,1,0
0,0,0,0,0,0,0,0,0,0,1,5
0,0,0,0,0,0,0,0,0,0,1,5
0,0,0,0,0,0,0,0,0,0,2,8
0,0,0,0,0,0,0,0,0,0,2,5
0,0,0,0,0,0,0,0,0,0,1,4
0,0,0,0,0,0,0,0,0,0,0,12
0,0,0,0,0,0,0,0,0,0,2,8
0,0,0,0,0,0,0,0,0,0,0,12
0,0,0,0,0,0,0,0,0,0,0,11
0,0,0,0,0,0,0,0,0,0,2,3
0,0,0,0,0,0,0,0,0,0,1,4
0,0,0,0,0,0,0,0,0,0,0,5
0,0,0,0,0,0,0,0,0,0,0,1
0,0,0,0,0,0,0,0,0,0,1,9
0,0,0,0,0,0,0,0,0,0,2,6
0,0,0,0,0,0,0,0,0,0,1,4
0,0,0,0,0,0,0,0,0,0,0,10
0,0,0,0,0,0,0,0,0,0,2,1
0,0,0,0,0,0,0,0,0,0,0,9
0,0,0,0,0,0,0,0,0,0,1,5
0,0,0,0,0,0,0,0,0,0,2,11
0,0,0,0,0,0,0,0,0,0,2,1
0,0,0,0,0,0,0,0,0,0,2,11
0,0,0,0,0,0,0,0,0,0,0,12
0,0,0,0,0,0,0,0,0,0,0,6
0,0,0,0,0,0,0,0,0,0,0,9
0,0,0,0,0,0,0,0,0,0,2,2
0,0,0,0,0,0,0,0,0,0,0,11
0,0,0,0,0,0,0,0,0,0,2,8
0,0,0,0,0,0,0,0,0,0,1,4
0,0,0,0,0,0,0,0,0,0,2,8
0,0,0,0,0,0,0,0,0,0,2,9
0,0,0,0,0,0,0,0,0,0,2,8
0,0,0,0,0,0,0,0,0,0,2,11
0,0,0,0,0,0,0,0,0,0,2,0
0,0,0,0,0,0,0,0,0,0,1,5
0,0,0,0,0,0,0,0,0,0,2,0
0,0,0,0,0,0,0,0,0,0,0,7
0,0,0,0,0,0,0,0,0,0,0,10
0,0,0,0,0,0,0,0,0,0,1,5
0,0,0,0,0,0,0,0,0,0,2,1
0,0,0,0,0,0,0,0,0,0,2,3
0,0,0,0,0,0,0,0,0,0,2,11
0,0,0,0,0,0,0,0,0,0,2,0
0,0,0,0,0,0,0,0,0,0,0,7
0,0,0,0,0,0,0,0,0,0,2,6
0,0,0,0,0,0,0,0,0,0,2,3
0,0,0,0,0,0,0,0,0,0,2,0
0,0,0,0,0,0,0,0,0,0,2,7
0,0,0,0,0,0,0,0,0,0,0,10
0,0,0,0,0,0,0,0,0,0,1,4
0,0,0,0,0,0,0,0,0,0,0,11
0,0,0,0,0,0,0,0,0,0,2,11
0,0,0,0,0,0,0,0,0,0,0,2
0,0,0,0,0,0,0,0,0,0,1,4
0,0,0,0,0,0,0,0,0,0,1,4
0,0,0,0,0,0,0,0,0,0,1,4
0,0,0,0,0,0,0,0,0,0,1,2
0,0,0,0,0,0,0,0,0,0,0,7
0,0,0,0,0,0,0,0,0,0,1,5
0,0,0,0,0,0,0,0,0,0,2,11
0,0,0,0,0,0,0,0,0,0,1,4
0,0,0,0,0,0,0,0,0,0,2,8
0,0,0,0,0,0,0,0,0,0,0,6
0,0,0,0,0,0,0,0,0,0,2,0
0,0,0,0,0,0,0,0,0,0,2,9
0,0,0,0,0,0,0,0,0,0,2,11
0,0,0,0,0,0,0,0,0,0,0,10
0,0,0,0,0,0,0,0,0,0,2,3
0,0,0,0,0,0,0,0,0,0,2,1
0,0,0,0,0,0,0,0,0,0,2,1
0,0,0,0,0,0,0,0,0,0,1,5
0,0,0,0,0,0,0,0,0,0,0,12
0,0,0,0,0,0,0,0,0,0,2,11
0,0,0,0,0,0,0,0,0,0,1,5
0,0,0,0,0,0,0,0,0,0,2,0
0,0,0,0,0,0,0,0,0,0,1,5
0,0,0,0,0,0,0,0,0,0,1,5
0,0,0,0,0,0,0,0,0,0,1,4
0,0,0,0,0,0,0,0,0,0,0,10
0,0,0,0,0,0,0,0,0,0,0,7
0,0,0,0,0,0,0,0,0,0,2,10
0,0,0,0,0,0,0,0,0,0,1,5
0,0,0,0,0,0,0,0,0,0,2,1
0,0,0,0,0,0,0,0,0,0,2,2
0,0,0,0,0,0,0,0,0,0,1,5
0,0,0,0,0,0,0,0,0,0,2,1
0,0,0,0,0,0,0,0,0,0,2,8
0,0,0,0,0,0,0,0,0,0,0,6
0,0,0,0,0,0,0,0,0,0,0,7
0,0,0,0,0,0,0,0,0,0,2,11
0,0,0,0,0,0,0,0,0,0,2,9
0,0,0,0,0,0,0,0,0,0,2,8
0,0,0,0,0,0,0,0,0,0,0,10
0,0,0,0,0,0,0,0,0,0,1,5
0,0,0,0,0,0,0,0,0,0,0,10
0,0,0,0,0,0,0,0,0,0,2,1
0,0,0,0,0,0,0,0,0,0,2,12
0,0,0,0,0,0,0,0,0,0,2,2
0,0,0,0,0,0,0,0,0,0,0,10
0,0,0,0,0,0,0,0,0,0,0,9
0,0,0,0,0,0,0,0,0,0,1,4
0,0,0,0,0,0,0,0,0,0,0,10
0,0,0,0,0,0,0,0,0,0,0,11
0,0,0,0,0,0,0,0,0,0,0,7
0,0,0,0,0,0,0,0,0,0,2,11
0,0,0,0,0,0,0,0,0,0,0,12
0,0,0,0,0,0,0,0,0,0,2,2
0,0,0,0,0,0,0,0,0,0,1,4
0,0,0,0,0,0,0,0,0,0,0,7
0,0,0,0,0,0,0,0,0,0,2,0
0,0,0,0,0,0,0,0,0,0,2,0
0,0,0,0,0,0,0,0,0,0,0,12
0,0,0,0,0,0,0,0,0,0,2,2
0,0,0,0,0,0,0,0,0,0,2,6
0,0,0,0,0,0,0,0,0,0,1,4
0,0,0,0,0,0,0,0,0,0,0,12
0,0,0,0,0,0,0,0,0,0,0,12
0,0,0,0,0,0,0,0,0,0,1,12
0,0,0,0,0,0,0,0,0,0,2,11
0,0,0,0,0,0,0,0,0,0,0,7
0,0,0,0,0,0,0,0,0,0,2,2
0,0,0,0,0,0,0,0,0,0,1,4
0,0,0,0,0,0,0,0,0,0,1,4
0,0,0,0,0,0,0,0,0,0,1,9
0,0,0,0,0,0,0,0,0,0,2,8
0,0,0,0,0,0,0,0,0,0,2,6
0,0,0,0,0,0,0,0,0,0,0,10
0,0,0,0,0,0,0,0,0,0,2,3
0,0,0,0,0,0,0,0,0,0,0,6
0,0,0,0,0,0,0,0,0,0,0,10
0,0,0,0,0,0,0,0,0,0,1,4
0,0,0,0,0,0,0,0,0,0,2,9
0,0,0,0,0,0,0,0,0,0,2,6
0,0,0,0,0,0,0,0,0,0,0,6
0,0,0,0,0,0,0,0,0,0,2,3
0,0,0,0,0,0,0,0,0,0,1,4
0,0,0,0,0,0,0,0,0,0,1,5
0,0,0,0,0,0,0,0,0,0,2,8
0,0,0,0,0,0,0,0,0,0,0,9
0,0,0,0,0,0,0,0,0,0,2,8
0,0,0,0,0,0,0,0,0,0,0,6
0,0,0,0,0,0,0,0,0,0,2,1
0,0,0,0,0,0,0,0,0,0,1,4
0,0,0,0,0,0,0,0,0,0,2,8
0,0,0,0,0,0,0,0,0,0,0,10
0,0,0,0,0,0,0,0,0,0,2,3
0,0,0,0,0,0,0,0,0,0,0,2
0,0,0,0,0,0,0,0,0,0,1,5
0,0,0,0,0,0,0,0,0,0,0,10
0,0,0,0,0,0,0,0,0,0,0,12
0,0,0,0,0,0,0,0,0,0,2,3
0,0,0,0,0,0,0,0,0,0,1,4
0,0,0,0,0,0,0,0,0,0,0,7
0,0,0,0,0,0,0,0,0,0,0,6
0,0,0,0,0,0,0,0,0,0,0,10
0,0,0,0,0,0,0,0,0,0,0,12
0,0,0,0,0,0,0,0,0,0,2,8
0,0,0,0,0,0,0,0,0,0,2,8
0,0,0,0,0,0,0,0,0,0,0,9
0,0,0,0,0,0,0,0,0,0,2,8
0,0,0,0,0,0,0,0,0,0,1,4
0,0,0,0,0,0,0,0,0,0,2,11
0,0,0,0,0,0,0,0,0,0,2,12
0,0,0,0,0,0,0,0,0,0,2,1
0,0,0,0,0,0,0,0,0,0,0,8
0,0,0,0,0,0,0,0,0,0,0,12
0,0,0,0,0,0,0,0,0,0,2,0
0,0,0,0,0,0,0,0,0,0,0,11
0,0,0,0,0,0,0,0,0,0,0,12
0,0,0,0,0,0,0,0,0,0,2,11
0,0,0,0,0,0,0,0,0,0,0,7
0,0,0,0,0,0,0,0,0,0,1,5
0,0,0,0,0,0,0,0,0,0,0,10
0,0,0,0,0,0,0,0,0,0,1,5
0,0,0,0,0,0,0,0,0,0,2,0
0,0,0,0,0,0,0,0,0,0,0,7
0,0,0,0,0,0,0,0,0,0,1,5
0,0,0,0,0,0,0,0,0,0,1,12
0,0,0,0,0,0,0,0,0,0,0,11
0,0,0,0,0,0,0,0,0,0,1,5
0,0,0,0,0,0,0,0,0,0,0,7
0,0,0,0,0,0,0,0,0,0,1,5
0,0,0,0,0,0,0,0,0,0,1,4
0,0,0,0,0,0,0,0,0,0,2,8
0,0,0,0,0,0,0,0,0,0,0,10
0,0,0,0,0,0,0,0,0,0,1,5
0,0,0,0,0,0,0,0,0,0,1,4
0,0,0,0,0,0,0,0,0,0,1,12
0,0,0,0,0,0,0,0,0,0,2,2
0,0,0,0,0,0,0,0,0,0,0,10
0,0,0,0,0,0,0,0,0,0,1,5
0,0,0,0,0,0,0,0,0,0,1,4
0,0,0,0,0,0,0,0,0,0,0,12
0,0,0,0,0,0,0,0,0,0,1,5
0,0,0,0,0,0,0,0,0,0,2,1
0,0,0,0,0,0,0,0,0,0,0,6
0,0,0,0,0,0,0,0,0,0,0,7
0,0,0,0,0,0,0,0,0,0,0,10
0,0,0,0,0,0,0,0,0,0,0,7
0,0,0,0,0,0,0,0,0,0,0,10
0,0,0,0,0,0,0,0,0,0,1,4
0,0,0,0,0,0,0,0,0,0,0,12
0,0,0,0,0,0,0,0,0,0,2,0
0,0,0,0,0,0,0,0,0,0,1,4
0,0,0,0,0,0,0,0,0,0,1,4
0,0,0,0,0,0,0,0,0,0,0,7
0,0,0,0,0,0,0,0,0,0,0,6
0,0,0,0,0,0,0,0,0,0,2,8
0,0,0,0,0,0,0,0,0,0,1,12
0,0,0,0,0,0,0,0,0,0,0,9
0,0,0,0,0,0,0,0,0,0,0,6
0,0,0,0,0,0,0,0,0,0,0,7
0,0,0,0,0,0,0,0,0,0,0,12
0,0,0,0,0,0,0,0,0,0,2,3
0,0,0,0,0,0,0,0,0,0,0,7
0,0,0,0,0,0,0,0,0,0,0,7
0,0,0,0,0,0,0,0,0,0,0,7
0,0,0,0,0,0,0,0,0,0,2,0
0,0,0,0,0,0,0,0,0,0,2,9
0,0,0,0,0,0,0,0,0,0,1,4
0,0,0,0,0,0,0,0,0,0,0,10
0,0,0,0,0,0,0,0,0,0,0,6
0,0,0,0,0,0,0,0,0,0,0,10
0,0,0,0,0,0,0,0,0,0,0,7
0,0,0,0,0,0,0,0,0,0,2,3
0,0,0,0,0,0,0,0,0,0,0,10
0,0,0,0,0,0,0,0,0,0,0,10
0,0,0,0,0,0,0,0,0,0,0,9
0,0,0,0,0,0,0,0,0,0,2,1
0,0,0,0,0,0,0,0,0,0,0,7
0,0,0,0,0,0,0,0,0,0,0,5
0,0,0,0,0,0,0,0,0,0,2,0
0,0,0,0,0,0,0,0,0,0,2,11
0,0,0,0,0,0,0,0,0,0,1,4
0,0,0,0,0,0,0,0,0,0,2,11
0,0,0,0,0,0,0,0,0,0,2,1
0,0,0,0,0,0,0,0,0,0,2,8
0,0,0,0,0,0,0,0,0,0,1,4
0,0,0,0,0,0,0,0,0,0,0,12
0,0,0,0,0,0,0,0,0,0,2,11
0,0,0,0,0,0,0,0,0,0,1,4
0,0,0,0,0,0,0,0,0,0,0,10
0,0,0,0,0,0,0,0,0,0,2,1
0,0,0,0,0,0,0,0,0,0,2,8
0,0,0,0,0,0,0,0,0,0,1,4
0,0,0,0,0,0,0,0,0,0,0,9
0,0,0,0,0,0,0,0,0,0,1,4
0,0,0,0,0,0,0,0,0,0,0,10
0,0,0,0,0,0,0,0,0,0,0,7
0,0,0,0,0,0,0,0,0,0,1,12
0,0,0,0,0,0,0,0,0,0,1,5
0,0,0,0,0,0,0,0,0,0,1,5
0,0,0,0,0,0,0,0,0,0,0,6
0,0,0,0,0,0,0,0,0,0,0,1
0,0,0,0,0,0,0,0,0,0,2,3
0,0,0,0,0,0,0,0,0,0,1,4
0,0,0,0,0,0,0,0,0,0,2,6
0,0,0,0,0,0,0,0,0,0,0,10
0,0,0,0,0,0,0,0,0,0,2,3
0,0,0,0,0,0,0,0,0,0,1,9
0,0,0,0,0,0,0,0,0,0,2,1
0,0,0,0,0,0,0,0,0,0,2,8
0,0,0,0,0,0,0,0,0,0,2,0
0,0,0,0,0,0,0,0,0,0,0,6
0,0,0,0,0,0,0,0,0,0,2,3
0,0,0,0,0,0,0,0,0,0,1,4
0,0,0,0,0,0,0,0,0,0,2,0
0,0,0,0,0,0,0,0,0,0,2,8
0,0,0,0,0,0,0,0,0,0,0,10
0,0,0,0,0,0,0,0,0,0,1,12
0,0,0,0,0,0,0,0,0,0,2,3
0,0,0,0,0,0,0,0,0,0,2,1
0,0,0,0,0,0,0,0,0,0,0,10
0,0,0,0,0,0,0,0,0,0,1,12
0,0,0,0,0,0,0,0,0,0,2,8
0,0,0,0,0,0,0,0,0,0,1,12
0,0,0,0,0,0,0,0,0,0,0,6
0,0,0,0,0,0,0,0,0,0,0,7
0,0,0,0,0,0,0,0,0,0,2,1
0,0,0,0,0,0,0,0,0,0,0,12
0,0,0,0,0,0,0,0,0,0,2,6
0,0,0,0,0,0,0,0,0,0,0,6
0,0,0,0,0,0,0,0,0,0,0,12
0,0,0,0,0,0,0,0,0,0,1,0
0,0,0,0,0,0,0,0,0,0,1,5
0,0,0,0,0,0,0,0,0,0,2,3
0,0,0,0,0,0,0,0,0,0,0,5
0,0,0,0,0,0,0,0,0,0,1,4
0,0,0,0,0,0,0,0,0,0,2,11
0,0,0,0,0,0,0,0,0,0,2,6
0,0,0,0,0,0,0,0,0,0,2,0
0,0,0,0,0,0,0,0,0,0,1,4
0,0,0,0,0,0,0,0,0,0,1,12
0,0,0,0,0,0,0,0,0,0,0,5
0,0,0,0,0,0,0,0,0,0,2,11
0,0,0,0,0,0,0,0,0,0,0,5
0,0,0,0,0,0,0,0,0,0,0,7
0,0,0,0,0,0,0,0,0,0,0,10
0,0,0,0,0,0,0,0,0,0,2,9
0,0,0,0,0,0,0,0,0,0,2,6
0,0,0,0,0,0,0,0,0,0,0,6
0,0,0,0,0,0,0,0,0,0,1,12
0,0,0,0,0,0,0,0,0,0,0,7
0,0,0,0,0,0,0,0,0,0,2,11
0,0,0,0,0,0,0,0,0,0,2,9
0,0,0,0,0,0,0,0,0,0,0,8
0,0,0,0,0,0,0,0,0,0,2,3
0,0,0,0,0,0,0,0,0,0,2,0
0,0,0,0,0,0,0,0,0,0,2,11
0,0,0,0,0,0,0,0,0,0,0,10
0,0,0,0,0,0,0,0,0,0,2,8
0,0,0,0,0,0,0,0,0,0,1,4
0,0,0,0,0,0,0,0,0,0,2,11
0,0,0,0,0,0,0,0,0,0,2,0
0,0,0,0,0,0,0,0,0,0,1,4
0,0,0,0,0,0,0,0,0,0,2,9
0,0,0,0,0,0,0,0,0,0,2,9
0,0,0,0,0,0,0,0,0,0,2,3
0,0,0,0,0,0,0,0,0,0,0,6
0,0,0,0,0,0,0,0,0,0,0,5
0,0,0,0,0,0,0,0,0,0,1,4
0,0,0,0,0,0,0,0,0,0,2,6
0,0,0,0,0,0,0,0,0,0,0,3
0,0,0,0,0,0,0,0,0,0,2,1
0,0,0,0,0,0,0,0,0,0,0,9
0,0,0,0,0,0,0,0,0,0,2,3
0,0,0,0,0,0,0,0,0,0,2,3
0,0,0,0,0,0,0,0,0,0,1,4
0,0,0,0,0,0,0,0,0,0,2,1
0,0,0,0,0,0,0,0,0,0,2,9
0,0,0,0,0,0,0,0,0,0,2,11
0,0,0,0,0,0,0,0,0,0,2,0
0,0,0,0,0,0,0,0,0,0,0,10
0,0,0,0,0,0,0,0,0,0,0,8
0,0,0,0,0,0,0,0,0,0,0,8
0,0,0,0,0,0,0,0,0,0,0,7
0,0,0,0,0,0,0,0,0,0,2,8
0,0,0,0,0,0,0,0,0,0,2,8
0,0,0,0,0,0,0,0,0,0,0,10
0,0,0,0,0,0,0,0,0,0,1,4
0,0,0,0,0,0,0,0,0,0,2,11
0,0,0,0,0,0,0,0,0,0,0,6
0,0,0,0,0,0,0,0,0,0,2,8
0,0,0,0,0,0,0,0,0,0,2,9
0,0,0,0,0,0,0,0,0,0,2,11
0,0,0,0,0,0,0,0,0,0,2,6
0,0,0,0,0,0,0,0,0,0,2,0
0,0,0,0,0,0,0,0,0,0,0,7
0,0,0,0,0,0,0,0,0,0,0,10
0,0,0,0,0,0,0,0,0,0,0,10
0,0,0,0,0,0,0,0,0,0,0,7
0,0,0,0,0,0,0,0,0,0,1,4
0,0,0,0,0,0,0,0,0,0,0,6
0,0,0,0,0,0,0,0,0,0,0,7
0,0,0,0,0,0,0,0,0,0,1,4
0,0,0,0,0,0,0,0,0,0,2,3
0,0,0,0,0,0,0,0,0,0,0,12
0,0,0,0,0,0,0,0,0,0,2,11
0,0,0,0,0,0,0,0,0,0,2,3
0,0,0,0,0,0,0,0,0,0,0,10
0,0,0,0,0,0,0,0,0,0,2,3
0,0,0,0,0,0,0,0,0,0,2,1
0,0,0,0,0,0,0,0,0,0,0,11
0,0,0,0,0,0,0,0,0,0,2,3
0,0,0,0,0,0,0,0,0,0,0,10
0,0,0,0,0,0,0,0,0,0,2,0
0,0,0,0,0,0,0,0,0,0,0,9
0,0,0,0,0,0,0,0,0,0,1,6
0,0,0,0,0,0,0,0,0,0,2,2
0,0,0,0,0,0,0,0,0,0,0,7
0,0,0,0,0,0,0,0,0,0,0,8
0,0,0,0,0,0,0,0,0,0,0,8
0,0,0,0,0,0,0,0,0,0,0,12
0,0,0,0,0,0,0,0,0,0,1,5
0,0,0,0,0,0,0,0,0,0,2,11
0,0,0,0,0,0,0,0,0,0,2,6
0,0,0,0,0,0,0,0,0,0,2,3
0,0,0,0,0,0,0,0,0,0,1,4
0,0,0,0,0,0,0,0,0,0,0,10
0,0,0,0,0,0,0,0,0,0,0,12
0,0,0,0,0,0,0,0,0,0,2,3
0,0,0,0,0,0,0,0,0,0,1,4
0,0,0,0,0,0,0,0,0,0,1,4
0,0,0,0,0,0,0,0,0,0,1,4
0,0,0,0,0,0,0,0,0,0,0,12
0,0,0,0,0,0,0,0,0,0,0,10
0,0,0,0,0,0,0,0,0,0,0,10
0,0,0,0,0,0,0,0,0,0,1,4
0,0,0,0,0,0,0,0,0,0,2,3
0,0,0,0,0,0,0,0,0,0,2,1
0,0,0,0,0,0,0,0,0,0,2,8
0,0,0,0,0,0,0,0,0,0,2,0
0,0,0,0,0,0,0,0,0,0,2,1
0,0,0,0,0,0,0,0,0,0,1,4
0,0,0,0,0,0,0,0,0,0,0,7
0,0,0,0,0,0,0,0,0,0,0,6
0,0,0,0,0,0,0,0,0,0,2,11
0,0,0,0,0,0,0,0,0,0,2,11
0,0,0,0,0,0,0,0,0,0,1,4
0,0,0,0,0,0,0,0,0,0,0,7
0,0,0,0,0,0,0,0,0,0,2,11
0,0,0,0,0,0,0,0,0,0,0,7
0,0,0,0,0,0,0,0,0,0,0,7
0,0,0,0,0,0,0,0,0,0,2,8
0,0,0,0,0,0,0,0,0,0,2,3
0,0,0,0,0,0,0,0,0,0,0,10
0,0,0,0,0,0,0,0,0,0,0,10
0,0,0,0,0,0,0,0,0,0,1,6
0,0,0,0,0,0,0,0,0,0,2,9
0,0,0,0,0,0,0,0,0,0,0,6
0,0,0,0,0,0,0,0,0,0,1,9
0,0,0,0,0,0,0,0,0,0,1,9
0,0,0,0,0,0,0,0,0,0,0,9
0,0,0,0,0,0,0,0,0,0,0,12
0,0,0,0,0,0,0,0,0,0,0,7
0,0,0,0,0,0,0,0,0,0,1,4
0,0,0,0,0,0,0,0,0,0,2,3
0,0,0,0,0,0,0,0,0,0,2,11
0,0,0,0,0,0,0,0,0,0,2,8
0,0,0,0,0,0,0,0,0,0,2,8
0,0,0,0,0,0,0,0,0,0,0,10
0,0,0,0,0,0,0,0,0,0,0,6
0,0,0,0,0,0,0,0,0,0,0,12
0,0,0,0,0,0,0,0,0,0,1,4
0,0,0,0,0,0,0,0,0,0,0,7
0,0,0,0,0,0,0,0,0,0,0,10
0,0,0,0,0,0,0,0,0,0,0,11
0,0,0,0,0,0,0,0,0,0,0,9
0,0,0,0,0,0,0,0,0,0,0,10
0,0,0,0,0,0,0,0,0,0,2,0
0,0,0,0,0,0,0,0,0,0,0,10
0,0,0,0,0,0,0,0,0,0,2,0
0,0,0,0,0,0,0,0,0,0,1,12
0,0,0,0,0,0,0,0,0,0,2,11
0,0,0,0,0,0,0,0,0,0,2,0
0,0,0,0,0,0,0,0,0,0,0,9
0,0,0,0,0,0,0,0,0,0,1,4
0,0,0,0,0,0,0,0,0,0,1,5
0,0,0,0,0,0,0,0,0,0,2,0
0,0,0,0,0,0,0,0,0,0,1,5
0,0,0,0,0,0,0,0,0,0,2,1
0,0,0,0,0,0,0,0,0,0,1,12
0,0,0,0,0,0,0,0,0,0,0,12
0,0,0,0,0,0,0,0,0,0,2,2
0,0,0,0,0,0,0,0,0,0,0,12
0,0,0,0,0,0,0,0,0,0,0,10
0,0,0,0,0,0,0,0,0,0,0,6
0,0,0,0,0,0,0,0,0,0,0,6
0,0,0,0,0,0,0,0,0,0,0,10
0,0,0,0,0,0,0,0,0,0,1,5
0,0,0,0,0,0,0,0,0,0,2,0
0,0,0,0,0,0,0,0,0,0,2,0
0,0,0,0,0,0,0,0,0,0,2,11
0,0,0,0,0,0,0,0,0,0,2,3
0,0,0,0,0,0,0,0,0,0,2,0
0,0,0,0,0,0,0,0,0,0,0,10
0,0,0,0,0,0,0,0,0,0,1,5
0,0,0,0,0,0,0,0,0,0,0,6
0,0,0,0,0,0,0,0,0,0,2,11
0,0,0,0,0,0,0,0,0,0,1,5
0,0,0,0,0,0,0,0,0,0,2,0
0,0,0,0,0,0,0,0,0,0,1,4
0,0,0,0,0,0,0,0,0,0,0,6
0,0,0,0,0,0,0,0,0,0,1,12
0,0,0,0,0,0,0,0,0,0,1,4
0,0,0,0,0,0,0,0,0,0,0,6
0,0,0,0,0,0,0,0,0,0,1,1
0,0,0,0,0,0,0,0,0,0,1,5
0,0,0,0,0,0,0,0,0,0,1,2
0,0,0,0,0,0,0,0,0,0,0,11
0,0,0,0,0,0,0,0,0,0,0,10
0,0,0,0,0,0,0,0,0,0,2,8
0,0,0,0,0,0,0,0,0,0,0,6
0,0,0,0,0,0,0,0,0,0,1,4
0,0,0,0,0,0,0,0,0,0,2,1
0,0,0,0,0,0,0,0,0,0,2,0
0,0,0,0,0,0,0,0,0,0,2,2
0,0,0,0,0,0,0,0,0,0,2,9
0,0,0,0,0,0,0,0,0,0,2,11
0,0,0,0,0,0,0,0,0,0,0,10
0,0,0,0,0,0,0,0,0,0,2,11
0,0,0,0,0,0,0,0,0,0,1,4
0,0,0,0,0,0,0,0,0,0,0,10
0,0,0,0,0,0,0,0,0,0,2,10
0,0,0,0,0,0,0,0,0,0,0,10
0,0,0,0,0,0,0,0,0,0,1,5
0,0,0,0,0,0,0,0,0,0,0,10
0,0,0,0,0,0,0,0,0,0,0,11
0,0,0,0,0,0,0,0,0,0,0,12
0,0,0,0,0,0,0,0,0,0,0,10
0,0,0,0,0,0,0,0,0,0,1,9
0,0,0,0,0,0,0,0,0,0,0,7
0,0,0,0,0,0,0,0,0,0,2,8
0,0,0,0,0,0,0,0,0,0,1,5
0,0,0,0,0,0,0,0,0,0,2,3
0,0,0,0,0,0,0,0,0,0,2,9
0,0,0,0,0,0,0,0,0,0,0,12
0,0,0,0,0,0,0,0,0,0,1,12
0,0,0,0,0,0,0,0,0,0,0,10
0,0,0,0,0,0,0,0,0,0,1,2
0,0,0,0,0,0,0,0,0,0,0,6
0,0,0,0,0,0,0,0,0,0,1,12
0,0,0,0,0,0,0,0,0,0,0,10
0,0,0,0,0,0,0,0,0,0,0,7
0,0,0,0,0,0,0,0,0,0,2,0
0,0,0,0,0,0,0,0,0,0,2,11
0,0,0,0,0,0,0,0,0,0,2,0
0,0,0,0,0,0,0,0,0,0,0,7
0,0,0,0,0,0,0,0,0,0,0,6
0,0,0,0,0,0,0,0,0,0,1,5
0,0,0,0,0,0,0,0,0,0,0,10
0,0,0,0,0,0,0,0,0,0,0,12
0,0,0,0,0,0,0,0,0,0,0,10
0,0,0,0,0,0,0,0,0,0,2,8
0,0,0,0,0,0,0,0,0,0,1,5
0,0,0,0,0,0,0,0,0,0,0,9
0,0,0,0,0,0,0,0,0,0,0,10
0,0,0,0,0,0,0,0,0,0,0,6
0,0,0,0,0,0,0,0,0,0,2,0
0,0,0,0,0,0,0,0,0,0,1,4
0,0,0,0,0,0,0,0,0,0,0,6
0,0,0,0,0,0,0,0,0,0,2,11
0,0,0,0,0,0,0,0,0,0,0,12
0,0,0,0,0,0,0,0,0,0,1,5
0,0,0,0,0,0,0,0,0,0,0,7
0,0,0,0,0,0,0,0,0,0,0,11
0,0,0,0,0,0,0,0,0,0,1,5
0,0,0,0,0,0,0,0,0,0,0,12
0,0,0,0,0,0,0,0,0,0,2,8
0,0,0,0,0,0,0,0,0,0,2,11
0,0,0,0,0,0,0,0,0,0,2,10
0,0,0,0,0,0,0,0,0,0,2,8
0,0,0,0,0,0,0,0,0,0,2,2
0,0,0,0,0,0,0,0,0,0,0,8
0,0,0,0,0,0,0,0,0,0,0,7
0,0,0,0,0,0,0,0,0,0,1,4
0,0,0,0,0,0,0,0,0,0,2,0
0,0,0,0,0,0,0,0,0,0,0,10
0,0,0,0,0,0,0,0,0,0,2,1
0,0,0,0,0,0,0,0,0,0,0,10
0,0,0,0,0,0,0,0,0,0,0,7
0,0,0,0,0,0,0,0,0,0,2,6
0,0,0,0,0,0,0,0,0,0,2,0
0,0,0,0,0,0,0,0,0,0,1,4
0,0,0,0,0,0,0,0,0,0,2,3
0,0,0,0,0,0,0,0,0,0,1,4
0,0,0,0,0,0,0,0,0,0,0,6
0,0,0,0,0,0,0,0,0,0,2,0
0,0,0,0,0,0,0,0,0,0,2,8
0,0,0,0,0,0,0,0,0,0,1,12
0,0,0,0,0,0,0,0,0,0,2,0
0,0,0,0,0,0,0,0,0,0,2,0
0,0,0,0,0,0,0,0,0,0,0,10
0,0,0,0,0,0,0,0,0,0,1,0
0,0,0,0,0,0,0,0,0,0,2,1
0,0,0,0,0,0,0,0,0,0,0,7
0,0,0,0,0,0,0,0,0,0,1,4
0,0,0,0,0,0,0,0,0,0,0,10
0,0,0,0,0,0,0,0,0,0,0,10
0,0,0,0,0,0,0,0,0,0,0,12
0,0,0,0,0,0,0,0,0,0,0,12
0,0,0,0,0,0,0,0,0,0,2,3
0,0,0,0,0,0,0,0,0,0,2,8
0,0,0,0,0,0,0,0,0,0,2,11
0,0,0,0,0,0,0,0,0,0,1,4
0,0,0,0,0,0,0,0,0,0,0,7
0,0,0,0,0,0,0,0,0,0,2,8
0,0,0,0,0,0,0,0,0,0,1,12
0,0,0,0,0,0,0,0,0,0,2,3
0,0,0,0,0,0,0,0,0,0,1,4
0,0,0,0,0,0,0,0,0,0,2,1
0,0,0,0,0,0,0,0,0,0,0,6
0,0,0,0,0,0,0,0,0,0,1,5
0,0,0,0,0,0,0,0,0,0,0,12
0,0,0,0,0,0,0,0,0,0,1,4
0,0,0,0,0,0,0,0,0,0,2,8
0,0,0,0,0,0,0,0,0,0,2,9
0,0,0,0,0,0,0,0,0,0,1,4
0,0,0,0,0,0,0,0,0,0,0,7
0,0,0,0,0,0,0,0,0,0,0,7
0,0,0,0,0,0,0,0,0,0,2,2
0,0,0,0,0,0,0,0,0,0,2,11
0,0,0,0,0,0,0,0,0,0,2,0
0,0,0,0,0,0,0,0,0,0,1,5
0,0,0,0,0,0,0,0,0,0,2,12
0,0,0,0,0,0,0,0,0,0,1,5
0,0,0,0,0,0,0,0,0,0,2,11
0,0,0,0,0,0,0,0,0,0,0,6
0,0,0,0,0,0,0,0,0,0,1,2
0,0,0,0,0,0,0,0,0,0,2,6
0,0,0,0,0,0,0,0,0,0,1,9
0,0,0,0,0,0,0,0,0,0,1,4
0,0,0,0,0,0,0,0,0,0,2,8
0,0,0,0,0,0,0,0,0,0,2,2
0,0,0,0,0,0,0,0,0,0,0,11
0,0,0,0,0,0,0,0,0,0,1,4
0,0,0,0,0,0,0,0,0,0,0,7
0,0,0,0,0,0,0,0,0,0,1,5
0,0,0,0,0,0,0,0,0,0,0,7
0,0,0,0,0,0,0,0,0,0,2,9
0,0,0,0,0,0,0,0,0,0,2,0
0,0,0,0,0,0,0,0,0,0,0,7
0,0,0,0,0,0,0,0,0,0,0,6
0,0,0,0,0,0,0,0,0,0,2,3
0,0,0,0,0,0,0,0,0,0,0,11
0,0,0,0,0,0,0,0,0,0,1,5
0,0,0,0,0,0,0,0,0,0,1,5
0,0,0,0,0,0,0,0,0,0,2,11
0,0,0,0,0,0,0,0,0,0,0,10
0,0,0,0,0,0,0,0,0,0,2,1
0,0,0,0,0,0,0,0,0,0,2,1
0,0,0,0,0,0,0,0,0,0,1,6
0,0,0,0,0,0,0,0,0,0,0,7
0,0,0,0,0,0,0,0,0,0,0,11
0,0,0,0,0,0,0,0,0,0,2,3
0,0,0,0,0,0,0,0,0,0,0,9
0,0,0,0,0,0,0,0,0,0,0,11
0,0,0,0,0,0,0,0,0,0,1,5
0,0,0,0,0,0,0,0,0,0,2,11
0,0,0,0,0,0,0,0,0,0,2,11
0,0,0,0,0,0,0,0,0,0,0,9
